{
    "hashes": {
        "appinfo\/info.xml": "b6cbdf819d46de317044bdf6f236b807a6105b539147efeb1f6ca1d416e929ad340e34c6e50f075c6bd3791848c10259eee6c4ffbcebbfe2f3450e97f1eb1def",
        "appinfo\/routes.php": "1fef6b19d1068d5d55b3ddca004ebef722ce51b90b6f8f92c76076b70d543bcfd7c997fc465778df2ed106a10a45638676287193f74b805e664b1cef026dacf7",
        "composer\/autoload.php": "33fcf50f102566cb9d45047bfe8bd5d5162124b8155a70d33c40bda2ba8e6d2fd7226eabc8469475d3c553046afb425b2c9636cba5bee2384d138f0c3cd0ea46",
        "composer\/composer.json": "d8c892e13caf7801c4929d726c1ad072b391bd1824607decee4b597300e3d38a1b7ea738646b1ee06f43c2a7df76633a08db1a19181a788fff658ebb31b93507",
        "composer\/composer\/ClassLoader.php": "6d630ae5c62bd43ae490e02b0e1eab6f9a4b92364b617e0dbb4404ff11bc33db238568dcc3df9d8de616f191109853bf9d9a408030f1252fa7e420e5321227af",
        "composer\/composer\/LICENSE": "f3bb64009f41a425df5a9bbab53490f0eb9b74fa8d6aaa2f57efb928edc4ffff330260666edeaa04a91fed708c3663371cf01b284f3a08d6698aaef7a23f355a",
        "composer\/composer\/autoload_classmap.php": "d3b6eb3f63e451b7d1bd5dba005c02913624a38165965ebebc6dddd441610ed3b09cb071327e556de762c43328d70c657535c3a898a732a38e65ca6deeca399c",
        "composer\/composer\/autoload_namespaces.php": "dd8ee31d2faa9014fe567e1f954b5e7f450cf06feacbb96d4df663c59b1a36a0b7d26ad41b46354bd14f282fa7899298137208d1851099cd3ada285650efd90f",
        "composer\/composer\/autoload_psr4.php": "d1365f678110bfcf86b9465e36f57ea57354a3c479e6196683985ff68e182c1e7b2f4a67f91d2b96e473039fac7f20dd10afd779842b42e2e36de16d11745e37",
        "composer\/composer\/autoload_real.php": "164aed16d0d1a11b65668b4ca7ea68f13ab5af8f483ec68df73667fc4d7dae527cb1fa9c56a4fde0d7dbe61c67aea1060071f772dddacf8a252cd50e7a49e51d",
        "composer\/composer\/autoload_static.php": "3b63d5069c721638e98db1c306326063492b64a26df303c2b55c979dcc5a5e855fbefce5ce44cbc00a6fb1d36604ff03a9124b53e56a984376525a4c728b370d",
        "img\/app-dark.svg": "fb7c343b3fd988453e03403c8b9e26a7f702a17b088ccbd4728a16444fccefb574939ee00d2700080dcdee6c32a9a5ae0e2808e1b8e2699dbfe8fb144af3d858",
        "img\/app.svg": "7d62a4f8322f744a494335d38769cba2805a2bfce7d80a64221391d5f5ac662c3864fcbf07f56b336add6d1c808355bdc558568feccbba08b79cd9f059dbcf01",
        "js\/workflowengine.js": "516245969d37fc7403a4362879768f97be135020091cbc965c7510c7d5c918c1a25c7850747e23d98fd0a3db1d15a9802beab15348ab99b4726184f81e0754b4",
        "js\/workflowengine.js.map": "b3464ee7a3c096c9b769abcadf98b374b6c0e08234e6e728aa004666825f84c4fd0c1fdccf4a73552b3d7d43f92782b05ee2fc385e59f9927962b2a0c484db23",
        "l10n\/ast.js": "7e4ac4823a898c12e9a96b4722faafdadd2c3d7624a0d849b629b0a9b67c316eec73f354862ff3576d5fc08ca2cb4fe248f37e94c999ff154b2936a64b6d76ec",
        "l10n\/ast.json": "78cb076817d8d46bb472c77d356069c6e4005014cfc3e9541855d081bd2c46fcce3516c02deaecaa9dae447de13972c09b322878bd2661d14d74bd974857eb00",
        "l10n\/bg.js": "a2a8d382147b9829587814148093a7fe03f3eb4a27a939f8c2c5e682851916d130de99ca71614ea3eaabb694f6e186feb0f48eee6f0092372cf418610ccb7158",
        "l10n\/bg.json": "0bd54dec11c8ae7f8fa7b54f7facc9940d500c587efb82a6d048d12710e7325a868177b83c722580b8f2045e22f6920b47b4971e56cce180774b53d33e0591db",
        "l10n\/bg_BG.js": "8593d5d3477f30d047d0f94404640e3a9b6723bf864cefb1a20f3b0071bcbc724b8e4ad8a48927aed670181b789e2a7c1d04ce70a4f8b1debbf3169da3abd8fe",
        "l10n\/bg_BG.json": "2600c549589047551767146ee50edb7a90faf1ed138bd9a55eaa8a065c775264777fd75bb28755b565daf5f99d0b74d4efc1d441b77547f425dc0bf00b98c9f4",
        "l10n\/ca.js": "929f237e0a836c98d3141c109f73f32ad8fa81b02df52865eaef925bb47f62d7ba34fc9b2e4dcfd740a21da85532e5f18f349eddd2b4f5f8d85145de0144566a",
        "l10n\/ca.json": "5c917ae28f0dd064b0824de3a9391393e5e8134af69e6f9d53051c9257554b37c1659360c72c987cac508acf9232e43ed86570c798d5286d13ea989e1b1a075c",
        "l10n\/cs.js": "8e02b628d76fe7131128c963953aacef1edb2643da18c9e73587f70c046e849fc5b02517dbe562cbaec061ffdaa2b5ab38c12367b9657bcd85a51575560e0ece",
        "l10n\/cs.json": "e80e81e9a4c9c12b3947ca3f69c374a4365c9028cf454ca59648c6bafe56953dcf8c0d5771d2b49be8332756f773433c571cb055564dee27bcda44ce86b1b104",
        "l10n\/cs_CZ.js": "123a766e28f51eebc30bd8d403061b93a051e7af6e8de10e89c2f084c3e3f23ce047baf1502e5e3db1dbe7cf441d986936533111de2f504323391e749a90f42e",
        "l10n\/cs_CZ.json": "2bc9089eb4f8ae306f88020eeedd96ec9605e35738e08e12eb4e59c2081cd9183c357ebf87d02a358fc8ed38752ecc97a0e2e26df7dddcf899b4b836d2fd59b6",
        "l10n\/da.js": "c1564e0b9de92a3cefc1ce720e9b32ec2ea607c64757941ed5fb4f3ba82edb12d88b2f5f60e71e7f6b52a841505db93eec0eee7552b303d6ef2b783b783c7b86",
        "l10n\/da.json": "749ebecb5c830828aadf44aad6eb22dd7b28dd1e3eedb854dd152211c6bbd8ea06d64c94c053aa1d8c6d239f4fb098d5990b931d8e0925d41464f12085eb967d",
        "l10n\/de.js": "ec6777cb30564dd761c59874ea7d6b75c1ecf14754f5536baf15acbbfb25954de6140ce0aa3cc53596f4ae327b4cbb7e4e64e0cbd39087c27dfcbf4dbeabad09",
        "l10n\/de.json": "32843675dcbf5f10c0963fc6225ff83b2f4511293e215f452dac1b16a0d45d27d4bbfe78f033ac108756feaf6c2a0f1747810c8721dd08a3ce5ca34ca2ce14e4",
        "l10n\/de_DE.js": "139c84daad563781b311897c1ea4e589f985e1c99da698a8fe865ca37dcda85c5bbc3b03e15924f13c03dceb57042d9f6b27457176adb98e6177b064eadd5b2a",
        "l10n\/de_DE.json": "e60e27df4d97539cc969071e4ef4ada85f2c8776d6ae7d8bda36d2f403b9ec31aa1b0016e99b4864db67dbfabf951cdb2ecbc14eb267e90a3f57441c76f2b63a",
        "l10n\/el.js": "40758d62b2be17650e6c2b96383aee6f0d0620634454fc0ab215cd05192b32ed05365d8b7d8cdd7327de7352f34f8a17c0e804c4edc0ea0aa4c74bfc701b7d02",
        "l10n\/el.json": "88d08f882d03ba6f58849bb611bfd27dbcad46fed1ac6c4c007c20d20b48e4092c3361a6303333dba9b68c17e8a21068869c9f5821ccb3dcdd8d5542dd8f4f14",
        "l10n\/en_GB.js": "bc352023437bf46eab7c2d1c4dda4989cb26f30811591bb840bc58df9f9368cb4a4a4cc8392642872a87f56c7b512b89b3cd22512fa90d6df6311ef14a6b3648",
        "l10n\/en_GB.json": "30cc76897e66b8254304d1a4e591f37765ba9f10bbb35459ea35eecd40b68a75ed159449f2d1b26603056f9dd6a875e23c26a72af0be6ec1e680b27440fa34b8",
        "l10n\/eo.js": "3e9d1304662238977fa7b2ed73c1cbb289b956211c7b08f71132a2882933c3448d87d118799e69234629a152bc2048f49260e384ddf8b4e6d72314b49ed97071",
        "l10n\/eo.json": "f0fc9f816ec18a4a0c3442974b782bbbeb8d008230537e8692dfe29a18e3df0404665cb1ad8528c9176ab2fd85dea3452373d45e458828383385480ea10d5416",
        "l10n\/es.js": "bdfc36a018e9d75c12853d5034e5f00cc152728f563129c39d6810a429b4a7ad8934daf8e0568f8ac620cad37f1288fbfbc656ca52a833b7ff4955102ce304ba",
        "l10n\/es.json": "cd5f9c8268a0b2124b6284246291144970da82065ccf2b45168c081110914265ffbdc64c672f6494af1116c0fe20e1053c9140ef56c8cbfdf47c0eabe3a16ab0",
        "l10n\/es_419.js": "5968822ed593412c26cdd9b6fe7bff5acb975e7d846869139d2a37b6039c47e413064eb7fe946d1ab686d44b6a24e3c1fb0f9bc78bae0cca6f6206dde494e442",
        "l10n\/es_419.json": "53f2b760e6fe004812402592a3d572fa0c637bc7a8f314bfb013dc1c33718604c952243b4c083a6f42b655f2fc6921069d9e384105caa68b6d4bbaa4a30e9af7",
        "l10n\/es_AR.js": "19c431a89751d0b81cba39a5cc59672a6a30ca62b9e980a1ea9685aa8c89ada2cd0de1277e32f6b200460990b599c47a67a80e1cce4f93ffced01b12ca677f22",
        "l10n\/es_AR.json": "5e72e75cf7990e88325aa7133dcf479f34e50cc5d166197182a20a345838a08cd6296ac80ae8fcc454077e7adfcad40c1a1ced30460c14212d54bc8538e12002",
        "l10n\/es_CL.js": "8a35ddeab7e6e8baaa89eb3b8497ff111db1751aff4f54e7de542f3e0fcaba3bd2de545f3058cd868538d9bc072f55dae0e4285e3f844a3a5b1e6c054514655b",
        "l10n\/es_CL.json": "88ea32d96628b0b2271f977dd15941b694d215d83bac7bfb2a9ea10e94332f5ed0c00b7e905de10a5886f2298bd71cb90b9b52afc05d1a9658e271d60849a53c",
        "l10n\/es_CO.js": "8a35ddeab7e6e8baaa89eb3b8497ff111db1751aff4f54e7de542f3e0fcaba3bd2de545f3058cd868538d9bc072f55dae0e4285e3f844a3a5b1e6c054514655b",
        "l10n\/es_CO.json": "88ea32d96628b0b2271f977dd15941b694d215d83bac7bfb2a9ea10e94332f5ed0c00b7e905de10a5886f2298bd71cb90b9b52afc05d1a9658e271d60849a53c",
        "l10n\/es_CR.js": "8a35ddeab7e6e8baaa89eb3b8497ff111db1751aff4f54e7de542f3e0fcaba3bd2de545f3058cd868538d9bc072f55dae0e4285e3f844a3a5b1e6c054514655b",
        "l10n\/es_CR.json": "88ea32d96628b0b2271f977dd15941b694d215d83bac7bfb2a9ea10e94332f5ed0c00b7e905de10a5886f2298bd71cb90b9b52afc05d1a9658e271d60849a53c",
        "l10n\/es_DO.js": "8a35ddeab7e6e8baaa89eb3b8497ff111db1751aff4f54e7de542f3e0fcaba3bd2de545f3058cd868538d9bc072f55dae0e4285e3f844a3a5b1e6c054514655b",
        "l10n\/es_DO.json": "88ea32d96628b0b2271f977dd15941b694d215d83bac7bfb2a9ea10e94332f5ed0c00b7e905de10a5886f2298bd71cb90b9b52afc05d1a9658e271d60849a53c",
        "l10n\/es_EC.js": "8a35ddeab7e6e8baaa89eb3b8497ff111db1751aff4f54e7de542f3e0fcaba3bd2de545f3058cd868538d9bc072f55dae0e4285e3f844a3a5b1e6c054514655b",
        "l10n\/es_EC.json": "88ea32d96628b0b2271f977dd15941b694d215d83bac7bfb2a9ea10e94332f5ed0c00b7e905de10a5886f2298bd71cb90b9b52afc05d1a9658e271d60849a53c",
        "l10n\/es_GT.js": "8a35ddeab7e6e8baaa89eb3b8497ff111db1751aff4f54e7de542f3e0fcaba3bd2de545f3058cd868538d9bc072f55dae0e4285e3f844a3a5b1e6c054514655b",
        "l10n\/es_GT.json": "88ea32d96628b0b2271f977dd15941b694d215d83bac7bfb2a9ea10e94332f5ed0c00b7e905de10a5886f2298bd71cb90b9b52afc05d1a9658e271d60849a53c",
        "l10n\/es_HN.js": "5968822ed593412c26cdd9b6fe7bff5acb975e7d846869139d2a37b6039c47e413064eb7fe946d1ab686d44b6a24e3c1fb0f9bc78bae0cca6f6206dde494e442",
        "l10n\/es_HN.json": "53f2b760e6fe004812402592a3d572fa0c637bc7a8f314bfb013dc1c33718604c952243b4c083a6f42b655f2fc6921069d9e384105caa68b6d4bbaa4a30e9af7",
        "l10n\/es_MX.js": "961ebf68867ef35e5abb56a7a95e68f5183cce8c6b1441ac8c23a9d75b4ab61ee9494e8d7709726a5506498986121d08963d98e40877f3ba169c2b1068355a1d",
        "l10n\/es_MX.json": "1ee68adfba5a373c543e9ee090161bb4db62a26bcdd42353966b62056fe82941511c58958a3f34f42cb60735c44451d120d1f8c992a3299cbbd7624e6947beef",
        "l10n\/es_NI.js": "5968822ed593412c26cdd9b6fe7bff5acb975e7d846869139d2a37b6039c47e413064eb7fe946d1ab686d44b6a24e3c1fb0f9bc78bae0cca6f6206dde494e442",
        "l10n\/es_NI.json": "53f2b760e6fe004812402592a3d572fa0c637bc7a8f314bfb013dc1c33718604c952243b4c083a6f42b655f2fc6921069d9e384105caa68b6d4bbaa4a30e9af7",
        "l10n\/es_PA.js": "5968822ed593412c26cdd9b6fe7bff5acb975e7d846869139d2a37b6039c47e413064eb7fe946d1ab686d44b6a24e3c1fb0f9bc78bae0cca6f6206dde494e442",
        "l10n\/es_PA.json": "53f2b760e6fe004812402592a3d572fa0c637bc7a8f314bfb013dc1c33718604c952243b4c083a6f42b655f2fc6921069d9e384105caa68b6d4bbaa4a30e9af7",
        "l10n\/es_PE.js": "5968822ed593412c26cdd9b6fe7bff5acb975e7d846869139d2a37b6039c47e413064eb7fe946d1ab686d44b6a24e3c1fb0f9bc78bae0cca6f6206dde494e442",
        "l10n\/es_PE.json": "53f2b760e6fe004812402592a3d572fa0c637bc7a8f314bfb013dc1c33718604c952243b4c083a6f42b655f2fc6921069d9e384105caa68b6d4bbaa4a30e9af7",
        "l10n\/es_PR.js": "5968822ed593412c26cdd9b6fe7bff5acb975e7d846869139d2a37b6039c47e413064eb7fe946d1ab686d44b6a24e3c1fb0f9bc78bae0cca6f6206dde494e442",
        "l10n\/es_PR.json": "53f2b760e6fe004812402592a3d572fa0c637bc7a8f314bfb013dc1c33718604c952243b4c083a6f42b655f2fc6921069d9e384105caa68b6d4bbaa4a30e9af7",
        "l10n\/es_PY.js": "5968822ed593412c26cdd9b6fe7bff5acb975e7d846869139d2a37b6039c47e413064eb7fe946d1ab686d44b6a24e3c1fb0f9bc78bae0cca6f6206dde494e442",
        "l10n\/es_PY.json": "53f2b760e6fe004812402592a3d572fa0c637bc7a8f314bfb013dc1c33718604c952243b4c083a6f42b655f2fc6921069d9e384105caa68b6d4bbaa4a30e9af7",
        "l10n\/es_SV.js": "8a35ddeab7e6e8baaa89eb3b8497ff111db1751aff4f54e7de542f3e0fcaba3bd2de545f3058cd868538d9bc072f55dae0e4285e3f844a3a5b1e6c054514655b",
        "l10n\/es_SV.json": "88ea32d96628b0b2271f977dd15941b694d215d83bac7bfb2a9ea10e94332f5ed0c00b7e905de10a5886f2298bd71cb90b9b52afc05d1a9658e271d60849a53c",
        "l10n\/es_UY.js": "5968822ed593412c26cdd9b6fe7bff5acb975e7d846869139d2a37b6039c47e413064eb7fe946d1ab686d44b6a24e3c1fb0f9bc78bae0cca6f6206dde494e442",
        "l10n\/es_UY.json": "53f2b760e6fe004812402592a3d572fa0c637bc7a8f314bfb013dc1c33718604c952243b4c083a6f42b655f2fc6921069d9e384105caa68b6d4bbaa4a30e9af7",
        "l10n\/et_EE.js": "f9303efbf91d9d869175c09080ed467fb2d9b1e32606b5efb59ad4c9497e4283849cfba33d830831efe9806feb95656c4fbe746287654680c80241c12cbdac3b",
        "l10n\/et_EE.json": "9ec02a460c68b3eb485bd256f5f3e65010f1eb4e9ddde4eb029dbde7df9493c21ec26e636917f20266daf86b75241d2a0a94fcfb183d700ad58c87855caa3ca0",
        "l10n\/eu.js": "36522e4b8f3d7fb4a9c015a36a47997c01980c7c7be084be5276968d5915bbfcbb824c2ad033c2527510a77e24b83ae89492264a3454025d514e6ebddf21d2be",
        "l10n\/eu.json": "9877c1831536d9f56b046233f542aa52152ccf516ba44905678999763f58b5e4739b066ee3ed5f7e00b18a30036dd892756924b1a6f2655837bf74f0225e1179",
        "l10n\/fa.js": "da7f9c9d0095bf64bdc86376fe2e010d24551461b0530a7efcefc8916116d5f72bce4e3f11afa4e920d90050468d4f7a76f39a26b028ad8708dfa348b6b2bdbe",
        "l10n\/fa.json": "ace1dc0b33f0c99b4f7ee9c7ccb74955ce646ebeb2f2208b6671487e1b3a4c4b8c51eb8549e775c860c3b734894050972875c79a8db0a91a1013212e2db761ea",
        "l10n\/fi.js": "ea712d8a6932505ea87a412b5a102936bbe23dc6815b7f7b354b1be088cec30f9abc6cfeb702dc6ee0f0c1934a554e526a6bea51f1f1d89efa46a6219b345b56",
        "l10n\/fi.json": "4db7791ffc686337a300af0abe9d77629ba065bd2888f43bd27259e55230d7736e1373ac0f59a7727f627deb48bf0863a6506ab0b9d7afe84f8687cf377658cd",
        "l10n\/fr.js": "52a90e9d951220f319327e32c06bd36352c5371054ccea4a2da19ccaf3adf380b9ed4babec4efc33bcc4b45b3827cf0ced1f4c6fd33ec4370f61654e884e151b",
        "l10n\/fr.json": "b0a2503fae9c8689081f3d563078a5b84e8d34bd8bb934fc6b1d758f807a0d71ee6e79cf256f776fe0a4ad07bed8662f3674b89adf92993576b5485459a269e7",
        "l10n\/gl.js": "0f18ca482305c8829c8afc44fdc147bf509d1ef1564e13db669cfdcdd80f720b3f152aee043b927c9f38632ba775d723739c2d30f2ad925e5913ffd69e4aa0f8",
        "l10n\/gl.json": "e5f20c68cdacd923607011d7b25e135f46246d60053e7cb903da8ff8d5a7b992ec14d0eede77a57b068fe65e57405754c671c07ac7faa6aa842ca4bf3c5d05e2",
        "l10n\/he.js": "39c01abe6a57c33f633eab98f20f3e370b3f3cb71b212e6cbe1b278a5a0addb291834990b7893a9cbfc2edca40eda34d39850257c13dac31c5e9dfeff9816bc3",
        "l10n\/he.json": "bb2827b6d9794ca3733ae8eb231400cb89c9c91343df9416aad668c88a3f22b234109d068fcf654e016f0fa76f1e029acb10b43203279aac8b27386ce6bc9915",
        "l10n\/hr.js": "6450d6d34c17a644cbf7a29202bbe2e8655fd5d5b107f1ac416cb5ffc5807ee6b4eafbe4b8bcdb57efb0e99cbba557c8a9d4ef46eb3f59da13668f81c60fd288",
        "l10n\/hr.json": "5e981e64d969fd38d3d1238a6709e8369afdd5e5f99f6f330e964839c7b4cb97a3ffad3fe84cbca50cc48283583b115d5a41c8fb79a384c62ba5742738bab454",
        "l10n\/hu.js": "84648a3129e7d1f2885a61e619bc5749506d2be2e7c8a503229cd5e46fed54ccda2ae4c73c2bb7cb721ae9d4838b808ae39df8a0186c4638082c8b90ecbfd847",
        "l10n\/hu.json": "635d91e577d2c0295e9e828ef4b8b20ce6ab0685f92521dcb4ec1c6eea3efc88078770413c5d613781d1eff691454b2be35545ab2d6eb0defbeabd9caaeee560",
        "l10n\/hu_HU.js": "e4eab0578b3443cbcb3e0d739bb4888de5bff206209e276acf0fbf1ac46c42b144b51030df33c0ca0658aaa147dc8a647902bd97ceb7a32d6c66df14c38dd754",
        "l10n\/hu_HU.json": "dbfed42d5d5139d447e7b6f730bcdaf600ddc51d5034a597173472c73ad6f764186b4b6fb165bf1b0c63773f312cdb2ab2786ffdec41eccc2767754d861dc4e8",
        "l10n\/ia.js": "1c518123bb113b951a57f58c95a288fac67d3454cb66bded2a9c572f58b193344a8dd6fa7680497cfbbc801ad0c1700acaa870e1d6feb5a7d5725cd304dfc3b3",
        "l10n\/ia.json": "ab0aaba76f1fff769bca4251f4fa019acd1686d0e3b8964fa0cc6b102b4e8cf242f56367f3ca0d32502ae03fce5aa0d87f2470a121edcae002e2f3f46d64a497",
        "l10n\/id.js": "22e76f5b5c9d644fb620a5ee7ec14a145cac0dea95dcf59b81511abeb6aa3e47578b8581829b3387fae5892b1302868a2714345e3dbfb008e5f2fa406d1d374d",
        "l10n\/id.json": "ebf0c817658291e45ed2cac698c34b51b8d6b09dc11045ad45a8cc8bbb8e59bfff415b31196f25f02d972620d1d453c707fbe496774d16ae5f7ab964bddc194a",
        "l10n\/is.js": "d2d4462a80602c0b9b0b8236f99417013ca3df8b7e23b7d1d8975f65f2808da8bbb3c11d74a31daa61f56d7d32e94f2d1cfea2b9db316f3b803bf09e751f9ee7",
        "l10n\/is.json": "69ccf1c7c7bd2e2fbe9eab6880d145edda1c704d90c744c0cf9b38b7e2479f60d57e206f61e77be9bd97e42ce9f393b7c6861412a5e57d43630de7b4083da76d",
        "l10n\/it.js": "2790b330f2bcd49df5649c1bfc49171e07a8c6f0f25f87baada8ac566e992c0659a417f54a87013649a8e8b6917444f5cf5c8e597931a460b71e8da09595b55a",
        "l10n\/it.json": "4335859b43be5e4d5e5a051ce17014061b1367cb134b31315a7c15bae625ffa7676564be07305f7577f185b694eb8d0e8c2f480c0536692965b694aebae72944",
        "l10n\/ja.js": "72e824a03d2b81b05b19865cb9610c4114db758bfb67881fe5e8ec7a2abbf1d096a5af2b388486a072510421ce4ebb0fcf7597d6e10b1b91e46fd67026738b4d",
        "l10n\/ja.json": "7847fc63ab7617e573e57aa5656e3c45ce6a5f5e44df131131584d394fbea8fa86aba808eaa3a6d57c604c8d8ad6071ce7aff7450e5989e2e0062590c7f1ea38",
        "l10n\/ka_GE.js": "6375ba5790c16971f078d92212e9fa23c15e66fb23dfaffd1548811f42663988b913c3643d087e60159232444ccbeff6753049b17e29f722d708922899e1ec88",
        "l10n\/ka_GE.json": "c265398b1589f6604139e5b83b8f10ba4a22fb3d30ffe768bc6f3c8f49299a8ee0dbcd60022b32db31955bd722ebcc479a1c0b138b6d146d3d16f9d671dd3014",
        "l10n\/ko.js": "a3f3bb043788d3e97b090ce6677543d1dc84f3cdde8f74e63cfca0470a1ed3cb1d506f38af86cf3cabebffb68cce59f1315bd424450eba85b6a42166020c30b0",
        "l10n\/ko.json": "f810d5647edf721a146d2dc5c8b4ed4b0c25c33c2520cb9d49ec28dd228c67bd6f401ad48bfd90607d2baae9ffabd801ba83cda98af093e93c46dc13ae006411",
        "l10n\/lt_LT.js": "ecd99fd3f8544c042df775507cd30cc14e3ab8bf9339b58c9bd3370986a7b1a59241b0b2c2511c7a1428a580b22b63415be223100541b460028102180cbb5f19",
        "l10n\/lt_LT.json": "80929113a40422b1a46a330732b07a2de53c8abdf639476745586cf94c1744b1595e8642ca6ce33a7f8e0cd49a1e01b6913478e0231212c4ee3d3b32d30bec1a",
        "l10n\/lv.js": "6a612f48fac9f0c9b55823ed709124749d65ff119e55987a024a0c8896027864173061e1b44f7923ec23a96dbd55013e9ad13604ae2094cce46241124ca01403",
        "l10n\/lv.json": "22fcd829bb6a2cd34cb72ad601ad4f2e2bbfe7347a46345fdd493a58f1ad42cd284f0efb49b4b850188dbd81614649a411c22dc19e15c048f2a8ae45e6fb9345",
        "l10n\/mk.js": "99e9754a85926bd312ed7074b4b9d8df0d83b908017a7256c2c059ca3f5a7173620abf5135f437add19d08175d87b90c3ded41823835967b832547b53d637b63",
        "l10n\/mk.json": "ac6df7137f613a09485b49e575454e782a1d53fe1ca367e91a71c565a1d26fe830b6e9d03d9dd30998e49506ef3b4013c785ad380740af2e82859fabef0e2ee3",
        "l10n\/mn.js": "548fb87297cca8e5932fedebd2cbb392d45fe2e75258cb74c137e8d953985c1ff92e13d50792195806465a619182f10694e161926d23b6ac97dd37ea33d8bc20",
        "l10n\/mn.json": "1375f9f4109643b901d6a79c75c87f0e8b4c5e2549b1a71bb388f48a782e3f7527a30d6c903bbef363e3008ae25ffb834a57dce2da3707b20cbfa17b0f6dc127",
        "l10n\/nb.js": "5a92e755b6a01999d1fe353e2df300412c1cc21e71e34cfe0d0330d7d07bc41ea71ff2a71392918dca4e8d8cac4c99b984c45a528fa6a886cc24e5c543f5f807",
        "l10n\/nb.json": "e8baebe1bbc64b9743c8ebfc64c16c3b68b5d347ec05c35aadea1f9d80654dc7a78bc8a6768911c1ba1ebb998a008143f80f46afa549dde38aaf86faa6b376cb",
        "l10n\/nb_NO.js": "6a5e8be2006c991a46ddce01c881f6e4fe7e6499347469ffa62f339089b2da2e26d719301595a0e5be847d5875b30538a3142e3866b7070c5ea0d2e8347dc7c5",
        "l10n\/nb_NO.json": "20debe2e4283517589905266421185df752cee7b04aac40e46e5815a411d6fca8902e67cd7a84e4487ea21e28f56c03a1fbe55ca6eb88a3920c8c69e3fbb199d",
        "l10n\/nl.js": "32ac389d30c5c0be0752e4c536898b7e1f004b9bb86407f19fe5d512ce2631584130a6879336526b824d90d23fca91df828187638935c989bfd436029319b862",
        "l10n\/nl.json": "34f12ef8a848414d53c0701c48996c1d37b24119144d9028e07bd4a90f7c9dd273441f710a56f52412e091c41467b5e69a1307e6f9f75680e0c53cf0c011e0d4",
        "l10n\/pl.js": "5e7a787de98e73e8e41346c57b63b3b505e5185dfc94b0f48af20ec40787257c399d6ee1e199486e89897ad9425a75be02f11e32c14552d88ff1178523dfc654",
        "l10n\/pl.json": "ecfed6cbf8cf399c2fd848889e7efb38fcca7a1455a2f3de6b26c07b71b7d6e5f9edc6f86985a3283a65d5f2447d7d781070b6f357bba76e498fcb8b5439f235",
        "l10n\/pt_BR.js": "69fb7a8bf44263f437f0d4824a5f28c0b0ff73c1a513602c95824c7bdb175429ca9018a055b7453371381799878a66bf1a6f2618c746d493c042331bf19d2e26",
        "l10n\/pt_BR.json": "43d7cecfc934e45f8f290ea0d3464e3224b864e5f700c26b5a91703f34fafa79d960d303aa8e9ba04873460d57f9e348d5b4230e327b547c61652623e6614b50",
        "l10n\/ru.js": "06254bab2a95af8262e060b7fd935ff781d4e3fd4ea78db1a89944ce423d2dc61e9a68ee84465caec06f5226f2ba4665e15f02ef1f48a011381b3ab62c1188e5",
        "l10n\/ru.json": "ce795477df542f42e468b56f458b551b4f0df17b503eed5198710eb2b7db32d89e3439cca6aa12d00db765115c99635c36f5e77bd0e29d20503564c42331f871",
        "l10n\/sk.js": "1393eda8206ba52b66582b4380130816299a490875625dc8b890b7a8095809e72867b7c7b265d0116076ba9742e66d75a79042e92be2b43eb5107f0d8a2aee58",
        "l10n\/sk.json": "49ed181e69579b536ebb5433e96a4644aaacc56ff000447f7abbced4f47f60048a1dfe0183c081b15371f06c9cd48879cfaa4c61d17cda99d4febf0c7235ed19",
        "l10n\/sk_SK.js": "75ba888ac41fbbb43106d9b2c7bc6409b49060efcecd023c4ac202c609b16fe3330da395757f7cc48b0028360f31d645f6994c41390b89e8c393710914faa1c5",
        "l10n\/sk_SK.json": "b8ea808b1e7efbfbbb2bf4517047dbc78a0167f0ca962f813e3fce6a1798b2889ae734ca7d0756347162495d695c39b99773aed1b9b7d757b68b77187c073a2c",
        "l10n\/sl.js": "db138a83802e8eac443cbb8257e3692d2e6408b1175447dc866efe07df191a070119f1bd0ac6c10a700ad8b3faac9e53b505f01f1ae3b0f7ecb080c4e59c98b6",
        "l10n\/sl.json": "830ba174900f5331ead57d3955408e574963460830fd0158be9ca1f6525df1667ebd72beed249ea101c9c4240f87328d1f5f2cda56c646c96aafd32ca44b5ce4",
        "l10n\/sq.js": "1a22c4fa71022e651735c33a26d53fcee736b798a33af85b9dffc8f400bb1e59e4be44421d6ebe5dd846b7a777df1325300012256021091f55217ee95a2e9f27",
        "l10n\/sq.json": "b9c59da23739e94a13fbca387e3c3e08805755765b6e0abc41bc85f4ef919928495f87fa313938cb9e6a1b97260019ac458993d43ea5db1f094c65c6462193f0",
        "l10n\/sr.js": "6f96dd1aafb9c2dbd19948a13d5a7df4f1839a8f499d19993025a3815ddc25fc371333201eaf0a2788c54342813fdc75367ae75a571e7f79bd244eafc0f7f71a",
        "l10n\/sr.json": "885329157a52ac0699283807bedf279ee287991f2cb23dcd1fb09266697dd7d2452dd48ddef50d552e0a3439a765f943766dcd2d881fc543a667f7e1c0ad6551",
        "l10n\/sv.js": "7e341a26cebcabb3a68f2397da0ca6020f628b4b797f162d40583c73d489c494adb568160251289559a473629959f4b1baf22190fcbe3182e3cac5f9306715f2",
        "l10n\/sv.json": "cbf098a41b7aa4231dee287bc33f43652b48c1dcb622426dec9e25785b4caa5ec4f63f793c7fedf29b9d3b0c91124d4e4d37083be98c542f3564b56710facf5a",
        "l10n\/tr.js": "026a31e1dbe5897f230761af64428ec84d8ae3bc2f087e9136756bc43c0b79a04dc310df9e367a053ac4b84c8f3799fe133dc97d1414e6ea052bad41a1734653",
        "l10n\/tr.json": "73b927583aa401eaac7411f3f1fc23b3eac92d06d9c0b5a30ff7e37bcb1d7c1be01122c1f36679b94ba6af419aba66a84b4079288e9928c4068e7e05690ad506",
        "l10n\/zh_CN.js": "6b1b863f84e7ef5bf397e24d569fe11d57428ace13697db92a540bf83ce1560e3a2a64bd7d7b2866f6715bcfc48c61f9b37f2fd55f75ae0307aa648d0ba8e26e",
        "l10n\/zh_CN.json": "802f2f36a422fd9485e93d253b74428929f6804721696dcbb5b8c95d414f93d414430df4cd1a270174886aa69a8e20974814f39b04675ecd7e5371370c28f1b5",
        "l10n\/zh_TW.js": "b63eed35efca946b35d8ecb63666785146a9b2d0c8855ce9505d83298f1e09a786614802705a1d71c619b4f6e1d462d4444e4341a45840a3403b33298f354aa6",
        "l10n\/zh_TW.json": "6cc6492ca5774a36d8276f7012c4532dde1642c0c8c25b25a5f7c6db557190bacf384371bdcd4ed5b0ff9fe103e26d43eb49dff68366b9ba9072ce40223a199a",
        "lib\/AppInfo\/Application.php": "8585c7afa3384acbfd85c0925c46f8c1c510d4841b376ce79748d178adb30cede28567ce23c5128d0995d677b38ac00e2684f58be7be5cd60e8209498bf3a1a8",
        "lib\/BackgroundJobs\/Rotate.php": "97f69d9b85acb142e7dae7bfcb92a4e00d6021b4b5b97e7889553e94864c0459a5b7357715e24c6690579e85c008beb68593cd1d5fe59eb656d1ee6e256a9a7f",
        "lib\/Check\/AbstractStringCheck.php": "ee49adb2abe79da1209828076633bfd9bbbbe139307ef572ba288d291a3d7cd47483e392a801b6f64503fa1c36ae174bece7624728c5f9d4d9e889172635d659",
        "lib\/Check\/FileMimeType.php": "ba5cb31331a3f13a9e760e6f589f3815fc6e8af37ba6b5e9372a1d1dc8378ad9d4427b8775b0b16387d0f1903b86aa44c3ad2b9372f236d9112b23a2fed96ff0",
        "lib\/Check\/FileName.php": "03d3d00625732dcd8a20a2098e02ef7dceeed8783e0ab0dd18bd9cb557d11a56b17652009acd2770c73321108dfd00a9735ced93fef805c7e9067fa393d088b7",
        "lib\/Check\/FileSize.php": "98be01dc6afcd483836f57ebcda204da0651eb56acb776453ed10ca8294f853a191fffdc698d04bc1adcdcc6520c0660e722160bbd8419e9ae6dd877e5f3e15a",
        "lib\/Check\/FileSystemTags.php": "f79bca5a6c05831fb6c987058e3b571b8ddeeb385534e510249ba7729e037300c96eb53b7994cf0eaa819d366a1570ecb5988ad77c8e0d56537de02f61521a90",
        "lib\/Check\/RequestRemoteAddress.php": "ba5718f04fb0edb492c1a536cf1a59cbddc97b1715a25d9040a7a6d8553794768289fbe71458438bb3ee4942765e02fbe13dd07181e2f263ef2eb0e842d1d172",
        "lib\/Check\/RequestTime.php": "7743da96a4d611d75866a619a007f691e2372128309f60f05ffc384b89aae254990d3b128cd369d50d0c5991cce0f00e9e835065a63ef42f5ff0ac78cca58549",
        "lib\/Check\/RequestURL.php": "50876f61eaa0883b6054cb0065933b9e2e8dce98d954732abecec77c8418f293b3481ccbef81e9b6bb8a66d16d2f29f18f2c130768061cb82f5162c2ae6eded7",
        "lib\/Check\/RequestUserAgent.php": "8aaaba6ee2205a68a97bafe69b537ea3a171848e9e4fbfffb3941d528bee746f29e042223cc2c763131d4b839d683aa8f2cc0ab4316f8defce7e5733c7f6a510",
        "lib\/Check\/TFileCheck.php": "ffa35cad76d432f3d533f45c45b795e2b4e7f595bd2285c979ccc514f0a8bdc01e343ef82fd7775020e2ad6b561342781910b53702b72d115306ba06974a471a",
        "lib\/Check\/UserGroupMembership.php": "776870463651754b0f26c5bb4c9cf5f04467d4a2bad51f34fe9d4808d84519dc44e9a53dfa4269f72535136b38c29f0aeb25e78cb993da4bd1e9c11dfbc6109d",
        "lib\/Command\/Index.php": "d26ca6e2cea00ef0c76734805f85b3dd58eb43d9a06c9b3e21be90d9fa426627b7945641506e4078a90f01d2404904bde3c25dff1d5e06204cbfbe79f9f173da",
        "lib\/Controller\/AWorkflowController.php": "3e05eab556b51d416aaa5a2095f3c6ef5c5cfda64154f5f78c0c29581c6d7ea5892ab9407247f8183fc7b0770e5538610bab523e7fc204b4dae8a8e2de683d30",
        "lib\/Controller\/GlobalWorkflowsController.php": "d82e63e532a1fbb6c0f34d81c296e1a7009ef1713f7a1c24f9497b3b9ca0367581f8640408716a2f4758cdd3759b40af919bd218d440c5ed49bf099a5cae7f7a",
        "lib\/Controller\/RequestTime.php": "9beb5a38fe46f7032fd0cae475da519a90932d1f35c1336cdf6ad955c99e18802f3cfe1bccf1af6b832d8d5fcbdd4faabb277629fb9ca82a78ee8e88aafd0d71",
        "lib\/Controller\/UserWorkflowsController.php": "dba1b60848254f6d729919c02317f9cef2b451d69715f1723b9cb077db0da22938c6bea6e9dae089c447c804beb35c096f3e6ed703662315cdfbd9e8d702fb86",
        "lib\/Entity\/File.php": "7c5e7ddbd1ce3cace3b0a6c52eb515605bcf0ff9d373ce358834d2d866fed1cdc696ce8ae7ddad00cf6df6b9a2d61b1b2c82c451bd3d43a95a718ff1951187dd",
        "lib\/Helper\/LogContext.php": "76cbd6f58b30eed8e9824e15ac5b11f0571276b09e2d303455741972cfcf38c0a9125110f4fe2ae1f740a33dfc5f40fcd19fdcb3c5dd6f22025389c64d532665",
        "lib\/Helper\/ScopeContext.php": "d3c4e1c0e7b75958bb4971e5806001a49a9f7ae982b3d4439abbf3b3db81a4c86a55b3eaaffcc272624c8d7c1c92ebc4eb86950474a9de3d1f9fb2929cb19153",
        "lib\/Listener\/LoadAdditionalSettingsScriptsListener.php": "80b1f5b4cc0b62bc2d88f245cbf699e7ba4863f902bb48809498c15b64b8edf1df4ebbbc06dcd1c5d54093c2134476905f0547ca0ffd89455acfc83d0ab92ae8",
        "lib\/Manager.php": "64a1c8073198db69032bbf69eb3b2521073443480094a5b5d63ac3c11d475c52579297818838830236069c90f0d0feb84478bb0ebaf3914cc98f131748a6866d",
        "lib\/Migration\/PopulateNewlyIntroducedDatabaseFields.php": "aae5e6a8b53248091748374175eb83ae768e7810cdd8ff4fb4c2e589c26f4809773ee6e1d73adb18e0f117b1813d56dff669de0fade8ec86a2987cab5698606a",
        "lib\/Migration\/Version2000Date20190808074233.php": "3a4a8831d57dc10831296e7d7f518ef3ecf6434730f1082f1320f6a3e5c5d3d6befe9c19797358b22d3d96d60ae5fe228a49abf71dde959e52bcadf6bd77c138",
        "lib\/Service\/Logger.php": "4191f51f03804de242d3b5bbab74de5226bc015a89c60c05791d7ac8b539ece7c02e9d432864189063b8077fd8e0780ce19506cddeb12929d82692251c405195",
        "lib\/Service\/RuleMatcher.php": "70e9238e74c4ed28fb3c69a7173e644b50423aed93f8e0fd6084e976a23611b6cec7530365be9120c9fbfcb24d9e10f89973bdc0551206bb136e41accabd7230",
        "lib\/Settings\/ASettings.php": "a00ba629f61ccd2539e004f6e164395a543863a93bb668f38c7c849e141d17fdaf1537523a9508b1f499fc5b05183a7e5b15186f773985c328336692c97a70aa",
        "lib\/Settings\/Admin.php": "f93ed9649d35a5c325863587569e7c7f574f41c9965691667f42d197a80df8785165c40a78c8ffdf5c316a8c9cf18f3beefdd31355630dac939d4fa9ff4e9959",
        "lib\/Settings\/Personal.php": "ee843c2720622060a0072cd21240a6ca7f6119ba1f0b9d36b58dafa43a727ddc9aedd596624547a140c9d68fa462094429cdd55202b31332b20e314aeeb3f6e0",
        "lib\/Settings\/Section.php": "9fdf4901c66441442fe01d3f2383abef4ee44b071b3d8f256143ef1987d6afffa958bf9f5d0428ff0f15986a7bd3eb987cc663d54116a3bc965480579f97f1e1",
        "templates\/settings.php": "2a208e9344776fa22604f06bc429e87f3d476c57cd3d02eace9a7cafdc8c75021ab439a628838a79171024b1742c30f9f4b4cecd27b0e4f9b9093f1efbdb5d2b"
    },
    "signature": "MiEGz7FMQpoFGjV3FRXwBzk48DyzG4AJBA83R1tkgWqWmKbYWaA2qZ0C\/gpAAqUijos0CHPcU04sx9d1OyWwQZTU1g+CpYvB71+lW4d6jPW122\/UN6RYZObatNt6QqtSQIQMvfezQpKWOzAW5Zc0085I9FfAL6wieKn5u6zvU2WLTYeqezKelmPlo54b+m0pmEyT7l7c7tavLhv9CgXFP4TzJsS0al2Dpn9Z\/dWA4TalPtek6bLIJC26ewalsw3b4rB6HfzOM+ze\/nQOoA1MqAmsjwa9fWmWYUrYgxqMbhBgVpHp6HOs4Lf4eoGn0zBxxhfRfeNHjQtT5YsDoOCL1w==",
    "certificate": "-----BEGIN CERTIFICATE-----\r\nMIIEojCCA4qgAwIBAgICEAAwDQYJKoZIhvcNAQELBQAwezELMAkGA1UEBhMCREUx\r\nGzAZBgNVBAgMEkJhZGVuLVd1ZXJ0dGVtYmVyZzEXMBUGA1UECgwOTmV4dGNsb3Vk\r\nIEdtYkgxNjA0BgNVBAMMLU5leHRjbG91ZCBDb2RlIFNpZ25pbmcgSW50ZXJtZWRp\r\nYXRlIEF1dGhvcml0eTAeFw0xNjA2MTIyMTA1MDZaFw00MTA2MDYyMTA1MDZaMGYx\r\nCzAJBgNVBAYTAkRFMRswGQYDVQQIDBJCYWRlbi1XdWVydHRlbWJlcmcxEjAQBgNV\r\nBAcMCVN0dXR0Z2FydDEXMBUGA1UECgwOTmV4dGNsb3VkIEdtYkgxDTALBgNVBAMM\r\nBGNvcmUwggEiMA0GCSqGSIb3DQEBAQUAA4IBDwAwggEKAoIBAQDUxcrn2DC892IX\r\n8+dJjZVh9YeHF65n2ha886oeAizOuHBdWBfzqt+GoUYTOjqZF93HZMcwy0P+xyCf\r\nQqak5Ke9dybN06RXUuGP45k9UYBp03qzlUzCDalrkj+Jd30LqcSC1sjRTsfuhc+u\r\nvH1IBuBnf7SMUJUcoEffbmmpAPlEcLHxlUGlGnz0q1e8UFzjbEFj3JucMO4ys35F\r\nqZS4dhvCngQhRW3DaMlQLXEUL9k3kFV+BzlkPzVZEtSmk4HJujFCnZj1vMcjQBg\/\r\nBqq1HCmUB6tulnGcxUzt\/Z\/oSIgnuGyENeke077W3EyryINL7EIyD4Xp7sxLizTM\r\nFCFCjjH1AgMBAAGjggFDMIIBPzAJBgNVHRMEAjAAMBEGCWCGSAGG+EIBAQQEAwIG\r\nQDAzBglghkgBhvhCAQ0EJhYkT3BlblNTTCBHZW5lcmF0ZWQgU2VydmVyIENlcnRp\r\nZmljYXRlMB0GA1UdDgQWBBQwc1H9AL8pRlW2e5SLCfPPqtqc0DCBpQYDVR0jBIGd\r\nMIGagBRt6m6qqTcsPIktFz79Ru7DnnjtdKF+pHwwejELMAkGA1UEBhMCREUxGzAZ\r\nBgNVBAgMEkJhZGVuLVd1ZXJ0dGVtYmVyZzESMBAGA1UEBwwJU3R1dHRnYXJ0MRcw\r\nFQYDVQQKDA5OZXh0Y2xvdWQgR21iSDEhMB8GA1UEAwwYTmV4dGNsb3VkIFJvb3Qg\r\nQXV0aG9yaXR5ggIQADAOBgNVHQ8BAf8EBAMCBaAwEwYDVR0lBAwwCgYIKwYBBQUH\r\nAwEwDQYJKoZIhvcNAQELBQADggEBADZ6+HV\/+0NEH3nahTBFxO6nKyR\/VWigACH0\r\nnaV0ecTcoQwDjKDNNFr+4S1WlHdwITlnNabC7v9rZ\/6QvbkrOTuO9fOR6azp1EwW\r\n2pixWqj0Sb9\/dSIVRpSq+jpBE6JAiX44dSR7zoBxRB8DgVO2Afy0s80xEpr5JAzb\r\nNYuPS7M5UHdAv2dr16fDcDIvn+vk92KpNh1NTeZFjBbRVQ9DXrgkRGW34TK8uSLI\r\nYG6jnfJ6eJgTaO431ywWPXNg1mUMaT\/+QBOgB299QVCKQU+lcZWptQt+RdsJUm46\r\nNY\/nARy4Oi4uOe88SuWITj9KhrFmEvrUlgM8FvoXA1ldrR7KiEg=\r\n-----END CERTIFICATE-----"
}