{
    "hashes": {
        "appinfo\/info.xml": "441ff3b26797c04ff25cea11fb1d15619de59a1be2ad4be8815c6253161872959c3f0c7b662ae7b4d8654f92c2b26f6a144e3c4fa108b83ad6c761661dcc316d",
        "appinfo\/routes.php": "f10ce5ebfa33c0c503087916e1c08f879bc510689134fd380615e051429e8ab9e389cf851cac535516c456fb61418c6566ded2fc64b784fb39d2fc146ebf24b3",
        "appinfo\/v1\/caldav.php": "907ea5082ce5148929bd9b6b75fc1ebe93183f8445e398e353759f31b41cf2b150693e6d4ef3c2988006606c23a89d4fa7658a12a32bca58a09e8325e698f213",
        "appinfo\/v1\/carddav.php": "e66848ea8a4744851bdfeee11d356fcf5edfdf96f6efe7f7d4c5482ec557741f6ddc6b1d6205a39e8d4351c82a9177b787844d627808c786dd3e6260f90fbd42",
        "appinfo\/v1\/publicwebdav.php": "2404a46ad047bd4780c4ee93d9d6b277df62669b608dc19574057434b9aea968889bd3d38ff1b7b0804bcb4650df68461cb9c40134d488a690e0ada1cd3c09d8",
        "appinfo\/v1\/webdav.php": "143fe94ef81814ccf6bbb15d7d0a6f2b1b587e98c17c0f137a2529da3c9fae7d0e695fe9adccc7ff505a66ff691b4752ddd2680bb97af62739fa1d71b1d48a63",
        "appinfo\/v2\/direct.php": "b887c383ce24c58ffffaccb430b24d68bacf37f4780bbb8f0291435665df35bff55c84a175eab4c6865fc228d220aa40614f3742dcf34a6eb9265ebc7992c7d6",
        "appinfo\/v2\/remote.php": "727dbec819f98ae9819359dfc618a3fad83a074f362fba7be8ed5fc4bd654e126fd1ab26728060a178896700b5cc2616775af3d1a42300f11cdb6296637eb7dc",
        "bin\/chunkperf.php": "1338e4ca15921fc29d2bcab12d591e82acb8bf7cbe1aaf64b695640a206a486672da16e5da133053f891deed7ea8bf2231a2fbc28e110fc311ecd79f05327fc3",
        "composer\/autoload.php": "db6eb110f39c4a177e5b3de7994de0a7ec51c86582ca994230b3b613d2c1839cd2e8f072d568025a429bb7957e3e70b9f7abfeb5e63846a1e50c738cf240b9f2",
        "composer\/composer.json": "ffe105a78ba48dc73677370a430370a10d43fed21aab414915a431845a596189cbccffd3d33c678b927174af022d3f0f822117be7bebcab2d5b7cfbee066a283",
        "composer\/composer\/ClassLoader.php": "6d630ae5c62bd43ae490e02b0e1eab6f9a4b92364b617e0dbb4404ff11bc33db238568dcc3df9d8de616f191109853bf9d9a408030f1252fa7e420e5321227af",
        "composer\/composer\/LICENSE": "f3bb64009f41a425df5a9bbab53490f0eb9b74fa8d6aaa2f57efb928edc4ffff330260666edeaa04a91fed708c3663371cf01b284f3a08d6698aaef7a23f355a",
        "composer\/composer\/autoload_classmap.php": "08c84b26a73afed75b1f877475bf43d9305738feebb1752488293e9c9a4d9c7f45ed297fed0ff018466cd23993848ce0651f0c884ceb9ebacba74572f8cc9940",
        "composer\/composer\/autoload_namespaces.php": "dd8ee31d2faa9014fe567e1f954b5e7f450cf06feacbb96d4df663c59b1a36a0b7d26ad41b46354bd14f282fa7899298137208d1851099cd3ada285650efd90f",
        "composer\/composer\/autoload_psr4.php": "9ef0e498877dbd8bbef0f5ca571a42055e935deb7141a22a3230cd2fe760b9234671efe9891669b9a7d42b020b294a645dd1bf6af6eda248a633031ef6b7de87",
        "composer\/composer\/autoload_real.php": "1bceec1aadc589a5ea66e9d97ecff2c30ad2704f7b7d8beff286d51159ff8bfb0f9d3fd42e498c17482609cb8feaef241c222943f644c4dc77cab4a80d15db8c",
        "composer\/composer\/autoload_static.php": "b67fceb5a83706f2d10a65f774e2e82d49f54ac3453d357abb2c9cced3b6bd1d4e629238b4d910001dd8fcd10114e7c872baf21eacf7a6794cc99db4fe4674d1",
        "css\/schedule-response.css": "e3ce5af1db9b46c7ecedb5091c32c68178a8ad11dbfaf2a364da9414d36fe4365ddd45f3b355749b61577cf89085e26f6d99eaa0a624f7fc5a1f052ea5b4f4f5",
        "js\/schedule-response.js": "c9c75bb0d14f5449abc475713218c8790abb46d934f660d80fa42f3ee0a5ada88dc08061dabcc195587cae84d4e4349d98166cedd58179cd70745e20e4452400",
        "js\/settings-admin-caldav.js": "c935b6b576d80218b7469f87585668bccfdf1214dc89b60cadedd555553e9ca72aa691edf52b8d2f60aaced09c5d03608a54eed2945760c6e80c3e2edea0c333",
        "l10n\/bg.js": "9ff901fc0745464826ec61429b9e77e4994decb117fc5e94e41e4f20aa6ff6bd633366a1ecf2f1a547ee1f0201a38fe86192b31bbb61048d54bdd89bacc384a7",
        "l10n\/bg.json": "1f227bca4fef257fe1692a2d4b7c459593834dea9c051f745c9dcd222a125d1dd64d7ffc34079826f1e65023e0e9a212ca395419ac072d424afc713f5d1b27e5",
        "l10n\/bg_BG.js": "d683d9354250322b51f8ddcb8aa1bc9a5bb765b3cc8831080dad9d705f7637f03fecd7a22541c7b3610238727698be17eaf15051cdadab71f1ac3b5ac8d9ad4a",
        "l10n\/bg_BG.json": "418c33fdfc432043bb56301bebdd5e84c97ef61617ef9b31c41b7ad7dc017dd4e9e2fc9402d06780f66053bce23931b524c5944cebeb2b3d6105752e94885c86",
        "l10n\/ca.js": "b0bad1677b1f841c026f0496c580c2593193dd46945a794309e4a61f1795e294f529e60ee80916353bb19eb2fb4161982c7c12cb942e285f835a3dbaa82ee678",
        "l10n\/ca.json": "501fb6825e2ec8a8598d9a45acace36195573b51266a6dc4404f492c9c46b4310d7ab63c06de7becba063436de05010afff782db9d6d7fdb7768fc43bb1f8ff9",
        "l10n\/cs.js": "8e84d01590771451733856689733a32344fa1568ec46f0a3eac8b540e414a8c4c430d0de540bcdbd5b088d83aeb56f1677445851aa65ae95765238192b90696c",
        "l10n\/cs.json": "a4fa6cf7bde0dfc7274969618bc0b9f47ab2bd921ed07fbf342a298159447b1de8560b0211b996c28381a7585fa232db230d2f69cde3efdab9ec7fa08a3b7484",
        "l10n\/cs_CZ.js": "27d1eefcc934049f509e156eaff0b62886302ee8b277784f20626fe4b560304c6bc72fa79652d7ba5ba41b2329ef2025b13566d5143e665ad0f22dd5b51ff0a2",
        "l10n\/cs_CZ.json": "e1990502f52114f517a687f2123eea5ee4611308867c4960ffef2ed46a5f36f6c6f0ee5db89b22e323819a6e0d04d095f34c591c6f861857f14d73d5462c22db",
        "l10n\/da.js": "bd4b78a0e2d0cf57dc30ba81e11e20f0f48946e3f8fd221c1fb9d206656f1c8588c8e7d865eaee263a65d1e14e983e90a08f9fc5f01e7df52590d6b0dd8dc0e2",
        "l10n\/da.json": "9be0b40fd8a62d929ff2e7e22f8a672ecddc80df46c2e567c0f174d7f3a03a264ee637332a6bac29be579faaff3956d47ce8ec12d9240e31e9c68761f971b66a",
        "l10n\/de.js": "93811b1a399adc4b6f305f22e935ccd31ed2757a11fca5f28df6934d94d10a92e726976431ae8e8e88bc3ed6e04ffdf811d271d8ddfd0549c381f9e053323641",
        "l10n\/de.json": "cd84aa7c2be1050d5737c636d24524785101e5075f8ea45e28207555db4573ad8181461424929b1e4cc84dd1ecc40a453958de6d4fd1b2e560688690b92a7048",
        "l10n\/de_DE.js": "e9f352fb9d1779d5bd6b362769322226fa3634417f693f13ae6127ae4919812387e9ef7b43d2b144acfebdbde1b9018fd068d45a65d4d2bcd0c20db56a6fb8d1",
        "l10n\/de_DE.json": "0d351850221ad92968b9c685370a84558de658a6dacdd72ed5d487e902f97f63ddc0d9f93d1e380ffe36202a158d42ea19d8faf9151e9819824f34f7e220442f",
        "l10n\/el.js": "c7bec89d20aaa9271ef20dc75c01c344a29f6875d3a7a5922fca2627a3bf41e1fef0aa81f23a33bafbbc518805416c304fbf53ff0b97bd371782c913e620d1ba",
        "l10n\/el.json": "2643372f87773767efd77fd8f8edbda6016b73a58093e2fa474937603e866d798d7af4c1e0908cb0014482d17bdccf1ea461c4bea6a747881e1ef3d196f5a9ba",
        "l10n\/en_GB.js": "58a973079e8401867e685d7894bad929b089840086160c82e8badfd1d0e3c83d1defea64d0e2b6c30987dfe5c817f7c05bd2149d4f850678f4ec40d912552b80",
        "l10n\/en_GB.json": "87cd7946803c03b3608f89c41af08ab25ae0ed776e7ecec49f6398e3a238a9bfc4b2d6461894a1c09ae8cd92de907690bd2f70c90d2c1ca767b014b73fcc0eb1",
        "l10n\/eo.js": "dd10ac1d99f9c65d408f88c8fb8f8266b32dba6cd37c80ba3bbd80792755410fb2f14d795042d07c52a26aa5c5f254fa51e0b282823165d8e3270e1064b48140",
        "l10n\/eo.json": "cf0584782ef08fcf75240d74b9ed456143a4cec359db5789e8adffd985cd942af49039e597f1b064ef1904cb0004f5fac3855779c87798c064b0321b76047855",
        "l10n\/es.js": "982f00e164d6a055c8cdcbeee086b39fc24e3d89ad2f5aef27c1920f1ddcf082bbdad00eec70d2eaf40e0623287d72bb27d869a8c8bc2ddd8da10747cf4511cc",
        "l10n\/es.json": "b4593f3035c16263d226ed171076788e887a1c1f4d9fa3909ead531c855172baa2d1e405b24f87fdf205ea1c421ed044711a90eb4c23cae839d13aa07ed651bb",
        "l10n\/es_419.js": "330f4402fa2fa9ead357b5aae23968959f9b608eb44d84d4ca7d11d69ae2ab1b5c3c6e18a5cd0426a348084d102c3c3433ff2ab6b3a8ff928152620d645cfaa9",
        "l10n\/es_419.json": "af396b8788ec74da216e95eb8b571cfeafd987087f1ad8353855b49d13c1f2372febdf6905ffe0e20922ff6ca03ff395c5e45eb04f2e9f1c0a97c85dce125c0c",
        "l10n\/es_AR.js": "4142570eba2f32c3451c4fb8ad302b5271abedded3326009858a21b39c4a060d92478233693b591badcb5ea2b51d28f90d959ada2e1906417d346a1df0edb2fe",
        "l10n\/es_AR.json": "9efb03915607cc2a7d7c228adfa73546667b58860ad408307e7b77c62acb9e4768b9d4b5c692e555a41c45aaf52d2fd5e24dc5f72283cb0bc69868be54951782",
        "l10n\/es_CL.js": "330f4402fa2fa9ead357b5aae23968959f9b608eb44d84d4ca7d11d69ae2ab1b5c3c6e18a5cd0426a348084d102c3c3433ff2ab6b3a8ff928152620d645cfaa9",
        "l10n\/es_CL.json": "af396b8788ec74da216e95eb8b571cfeafd987087f1ad8353855b49d13c1f2372febdf6905ffe0e20922ff6ca03ff395c5e45eb04f2e9f1c0a97c85dce125c0c",
        "l10n\/es_CO.js": "330f4402fa2fa9ead357b5aae23968959f9b608eb44d84d4ca7d11d69ae2ab1b5c3c6e18a5cd0426a348084d102c3c3433ff2ab6b3a8ff928152620d645cfaa9",
        "l10n\/es_CO.json": "af396b8788ec74da216e95eb8b571cfeafd987087f1ad8353855b49d13c1f2372febdf6905ffe0e20922ff6ca03ff395c5e45eb04f2e9f1c0a97c85dce125c0c",
        "l10n\/es_CR.js": "330f4402fa2fa9ead357b5aae23968959f9b608eb44d84d4ca7d11d69ae2ab1b5c3c6e18a5cd0426a348084d102c3c3433ff2ab6b3a8ff928152620d645cfaa9",
        "l10n\/es_CR.json": "af396b8788ec74da216e95eb8b571cfeafd987087f1ad8353855b49d13c1f2372febdf6905ffe0e20922ff6ca03ff395c5e45eb04f2e9f1c0a97c85dce125c0c",
        "l10n\/es_DO.js": "330f4402fa2fa9ead357b5aae23968959f9b608eb44d84d4ca7d11d69ae2ab1b5c3c6e18a5cd0426a348084d102c3c3433ff2ab6b3a8ff928152620d645cfaa9",
        "l10n\/es_DO.json": "af396b8788ec74da216e95eb8b571cfeafd987087f1ad8353855b49d13c1f2372febdf6905ffe0e20922ff6ca03ff395c5e45eb04f2e9f1c0a97c85dce125c0c",
        "l10n\/es_EC.js": "330f4402fa2fa9ead357b5aae23968959f9b608eb44d84d4ca7d11d69ae2ab1b5c3c6e18a5cd0426a348084d102c3c3433ff2ab6b3a8ff928152620d645cfaa9",
        "l10n\/es_EC.json": "af396b8788ec74da216e95eb8b571cfeafd987087f1ad8353855b49d13c1f2372febdf6905ffe0e20922ff6ca03ff395c5e45eb04f2e9f1c0a97c85dce125c0c",
        "l10n\/es_GT.js": "330f4402fa2fa9ead357b5aae23968959f9b608eb44d84d4ca7d11d69ae2ab1b5c3c6e18a5cd0426a348084d102c3c3433ff2ab6b3a8ff928152620d645cfaa9",
        "l10n\/es_GT.json": "af396b8788ec74da216e95eb8b571cfeafd987087f1ad8353855b49d13c1f2372febdf6905ffe0e20922ff6ca03ff395c5e45eb04f2e9f1c0a97c85dce125c0c",
        "l10n\/es_HN.js": "330f4402fa2fa9ead357b5aae23968959f9b608eb44d84d4ca7d11d69ae2ab1b5c3c6e18a5cd0426a348084d102c3c3433ff2ab6b3a8ff928152620d645cfaa9",
        "l10n\/es_HN.json": "af396b8788ec74da216e95eb8b571cfeafd987087f1ad8353855b49d13c1f2372febdf6905ffe0e20922ff6ca03ff395c5e45eb04f2e9f1c0a97c85dce125c0c",
        "l10n\/es_MX.js": "99fa08ed5286a516d7d104d32bcd0464f84d92d476d04189a233d804fffa9a732dbac37bf6311e1bf72664be3c5012c590f8e56845fd490599161f81e4bc73d9",
        "l10n\/es_MX.json": "7ac09d71fcc543821503a97965ec3f094fc44812bc171a9abb2b0ab048f74275d6d38175e41f0f28f064460ab5613199505da241e87352ef239780ab8fef7d7b",
        "l10n\/es_NI.js": "330f4402fa2fa9ead357b5aae23968959f9b608eb44d84d4ca7d11d69ae2ab1b5c3c6e18a5cd0426a348084d102c3c3433ff2ab6b3a8ff928152620d645cfaa9",
        "l10n\/es_NI.json": "af396b8788ec74da216e95eb8b571cfeafd987087f1ad8353855b49d13c1f2372febdf6905ffe0e20922ff6ca03ff395c5e45eb04f2e9f1c0a97c85dce125c0c",
        "l10n\/es_PA.js": "330f4402fa2fa9ead357b5aae23968959f9b608eb44d84d4ca7d11d69ae2ab1b5c3c6e18a5cd0426a348084d102c3c3433ff2ab6b3a8ff928152620d645cfaa9",
        "l10n\/es_PA.json": "af396b8788ec74da216e95eb8b571cfeafd987087f1ad8353855b49d13c1f2372febdf6905ffe0e20922ff6ca03ff395c5e45eb04f2e9f1c0a97c85dce125c0c",
        "l10n\/es_PE.js": "330f4402fa2fa9ead357b5aae23968959f9b608eb44d84d4ca7d11d69ae2ab1b5c3c6e18a5cd0426a348084d102c3c3433ff2ab6b3a8ff928152620d645cfaa9",
        "l10n\/es_PE.json": "af396b8788ec74da216e95eb8b571cfeafd987087f1ad8353855b49d13c1f2372febdf6905ffe0e20922ff6ca03ff395c5e45eb04f2e9f1c0a97c85dce125c0c",
        "l10n\/es_PR.js": "330f4402fa2fa9ead357b5aae23968959f9b608eb44d84d4ca7d11d69ae2ab1b5c3c6e18a5cd0426a348084d102c3c3433ff2ab6b3a8ff928152620d645cfaa9",
        "l10n\/es_PR.json": "af396b8788ec74da216e95eb8b571cfeafd987087f1ad8353855b49d13c1f2372febdf6905ffe0e20922ff6ca03ff395c5e45eb04f2e9f1c0a97c85dce125c0c",
        "l10n\/es_PY.js": "330f4402fa2fa9ead357b5aae23968959f9b608eb44d84d4ca7d11d69ae2ab1b5c3c6e18a5cd0426a348084d102c3c3433ff2ab6b3a8ff928152620d645cfaa9",
        "l10n\/es_PY.json": "af396b8788ec74da216e95eb8b571cfeafd987087f1ad8353855b49d13c1f2372febdf6905ffe0e20922ff6ca03ff395c5e45eb04f2e9f1c0a97c85dce125c0c",
        "l10n\/es_SV.js": "330f4402fa2fa9ead357b5aae23968959f9b608eb44d84d4ca7d11d69ae2ab1b5c3c6e18a5cd0426a348084d102c3c3433ff2ab6b3a8ff928152620d645cfaa9",
        "l10n\/es_SV.json": "af396b8788ec74da216e95eb8b571cfeafd987087f1ad8353855b49d13c1f2372febdf6905ffe0e20922ff6ca03ff395c5e45eb04f2e9f1c0a97c85dce125c0c",
        "l10n\/es_UY.js": "330f4402fa2fa9ead357b5aae23968959f9b608eb44d84d4ca7d11d69ae2ab1b5c3c6e18a5cd0426a348084d102c3c3433ff2ab6b3a8ff928152620d645cfaa9",
        "l10n\/es_UY.json": "af396b8788ec74da216e95eb8b571cfeafd987087f1ad8353855b49d13c1f2372febdf6905ffe0e20922ff6ca03ff395c5e45eb04f2e9f1c0a97c85dce125c0c",
        "l10n\/et_EE.js": "99ab4c7b222f93ee5f26fac62b2699e17ff57fbc63b4b5cbb6777e79cd1d5abbb5f1a2529bee774d1e090f1975777da1663f6aa8a0b01b702847f88afa892d15",
        "l10n\/et_EE.json": "a8fa3ac073612e64ef4751620fcde4a0585b04c68e8a8e20111db5131033814024a87f97743382040167885d0b03e6b14d935e4ed99fab4682d5bf2c8e4df5c3",
        "l10n\/eu.js": "f162dec6b71bfe26e8636a88f9a69db7eeb638863c976411b2a7c360dc68c64d4df866c4ad0f7db703ca5977cb75899c4b8407171480b6f7a74e609ef2f62e23",
        "l10n\/eu.json": "61562925d0b281b9b0de9aab85733f8be429193ed59e7efbeee3a9678d9b6b5818ee759ec6664ac80fd5a7ab6513d37f9199ed35bf41c7ac9bbd44f17544913f",
        "l10n\/fi.js": "74d52d904ad7cc6fdf1e6147d5b089e8310f630c2d0c134cec77036eb7d89678903d6a0f6ab2f25951fc21d5a45860c33aca49e19e689f4aedc6ea28aa6d5718",
        "l10n\/fi.json": "cba8dff90a8cb785d6223072161a17675efc47c8b00e150de332efcc1eba00b6f5dee9036fc8135b42404431548af698609930d342305e1c9329d6815b907de0",
        "l10n\/fi_FI.js": "b21dd905a2811c633cfefcae4648219f25ef49cd81e14fe34c06119d0e7d0858d15723b2ed53ac20d69e57ded3c9aee348eacded2e66bfe31b059a9a20956a99",
        "l10n\/fi_FI.json": "1402f1b949ef69c94d89ea39a5c1d5c7a2eb70823d9295bc819d3911f8ef548d97c67e8acdcb6f325c1203adc13a11316a1c7a191bf99ef5231a5526585329a9",
        "l10n\/fr.js": "1505a51bc31e7f5aa7dab147e9f4a66f6a0d83e67d617ef782eb6021b5436aaeef1591f9415492ca7686c5f8c5e3a4a460a26a8e93066ec720e3b0060b4ca612",
        "l10n\/fr.json": "2c06966032b1ec5980eaa187c3b4c27e90da637fa36a5f7d944f22a0c8d9d9f2846bc268f315c7b3ca429f24c1145eaf35820c711f95823b1aebb373a1c049a4",
        "l10n\/gl.js": "cf59172d3161fed9dd05055800bd0dc213ff09381da95899bd55b281693389933765b70d5762499320ec049ec5b4cfa0eaeb770483c5f890db1f1d6f03b6d4c2",
        "l10n\/gl.json": "1ccf4289bca9a4f36eb2f342770dcf6021958e4bb5bdc7532a1b2180ee52ba2ecc3c4a94f6a69f91a2cfee9897c7f1778ad917cc93737669da0eccab92db72c3",
        "l10n\/he.js": "b8d3633175780ca78a65a1dfa6cc8820ba5f36c2cbd54670ae5f64a90b480414a0fcafa14641856cb220b64566ee3e5f72bfe35d0f7c3838c63b36361a656b54",
        "l10n\/he.json": "9a214eba7def7f5b19a8de96569d336e7fdc16aabf76dcc87331156c6ec4d2c0311087db1abd943abab14a0fa0e2a2e119c72bf26001d2ca977af86756944e17",
        "l10n\/hr.js": "298b88b502921d914ea7df8c11fc2cdb55f952929f97dae91440f7468a82f449869b1055302078aa800f1a084d0d2b779d09fba5855b30bf28d6dd102eec1221",
        "l10n\/hr.json": "7fd41b182fd9eed78f6f93dbaf8649693a71472ccc85f8e082685b75e532c7fb3c21c82920fa0add4feeec07c5684ee167f7bf2c799efd339048dd6ac79cc95b",
        "l10n\/hu.js": "43417f83ec5ec7dc3a88eb74c1fe4ea8afe3cf185c46a58beca4ebe577328707fc3e2cd81df90fcbd223176e0bddb05652052543f391f299e7143af22e9e2f71",
        "l10n\/hu.json": "4fe188b30276d8d9a27f83954c50b25936423c693198569a6f89f5fc5dc89f7e86f711dd24452fa06d626d3d0a2708bf2a8984c004c8b98004f065f7d6fc4348",
        "l10n\/hu_HU.js": "c0ee684cff371663ec250b4a7d9d95700880bdb34ae7320461690779cce793e4481b11a221cce86069fcd271676645a9d958ab2cf85243556d5fc192529e8f63",
        "l10n\/hu_HU.json": "4666f87c75695e0fc92af2dd2ebd79f7e8e1030c7dd7657e5d79651d6a4e38233532133d3b7f4038b7f3f03da72039d009e8c37d9c73e92c1dd957eabcfb4653",
        "l10n\/id.js": "8a74e91d8232192c89057f86fcb28e0a8c452647751543cbb47313dcf40346b4828aef417de7e4e1c9f5dad0bcec7ad527feb8d370884fbe186bc5373a96bf23",
        "l10n\/id.json": "8c4ab866dd746bec318e72ae02cb80e302153dd8020d9c5715649c1da6bd8e4849e9d1776512b6a4963dcc4505823acb02663f50793bcb48c9d657181ab575c5",
        "l10n\/is.js": "db187c88fb9c8314b9bc81e1e1c09df51d1ced70b8f2925e0a057d6b2741bbd869c60f05837b8656b297aaf4a7394a18947e9afdaf9df960d19e722826efa41e",
        "l10n\/is.json": "7ea9afb5f03c6b30fb74e9f3df3992013bc30f1d394ca0d69571cd2689662a5cda41b061a5f9b04334d63e6376aa2c45bf550f39a2243f8c0daff47ff1b1f094",
        "l10n\/it.js": "a649efaa58648dcbf125665b009d29a4dd4e25e888003895ddb00ba77cd137afa98ab03ef07dd4934e9a419e8763902e2170672985f7bd11994933c607e67277",
        "l10n\/it.json": "e777a6b1c7ea98f496eda22e35783ab38576f312b9ff6a31789d32d50df637ad4ce69a1b049bda2f438b02076bef139dc478853f32d6df1ae4a111205681fb4f",
        "l10n\/ja.js": "1c23a5bd1ece607becd6c81100bde0ff691743ef40c574c021168bf10b7639af879cd418605e89efd7fa4981ac3dcdcf418417979f2075faec9a12d111f7d2c8",
        "l10n\/ja.json": "79b383bc118019c7c0908c1780e7fdbe1c09b09c9c3a317581b20e8b6b47b58308740978d656faadaa40663bb2a95f94d76829126a4f0843ac41a4fe76667e61",
        "l10n\/ka_GE.js": "fd3001aae02499780258a9b8356387d9e7499246bdf89a2adecdd08b1855cf49871a782e9206e1394705127d5edd356a2fb192917b204b65cb4160508c4231f8",
        "l10n\/ka_GE.json": "c8439d7007f32c63175d773fc7fe709544990e2134f43355cb7862d94bc699626f351d86e82d11863269db2748d453da66a0d457c1bd8054bc4567aef94732d0",
        "l10n\/ko.js": "1f6332b269e7f90b897e93d3c94f7f5925e5923c26b4c677a1c57f17d6bc24d87518ab0571d3e4ac8ca07553a4a47faa953ed6638917b392d6451a6ac76b60ca",
        "l10n\/ko.json": "02add71e52b06dbc9368893fe7e5b5a98cecd4ac76cabf93b81f8fd229644025645f5dad1ac357649ff0d70c481e471d18e0d91f0a8f72c41ff70dd7655f8cfd",
        "l10n\/lt_LT.js": "e032b7b13d80752b3824d643749120f3da59cdae261bf34fa3e91fce4c20587fe6a1c9f75fb3cc6d0b072cdd4b7703ff0a6203abd7d08162be95cbab85ee405b",
        "l10n\/lt_LT.json": "1d2251ce1907d8c3eb9a61aa683860e0dfba0f4e4e5afda281aceb9f11eafea8b7be4fcb37a14ceb3eb823a230c5e4a98c010baabb362dea25420ce387cf320c",
        "l10n\/lv.js": "ab907f135a0d02ea2d05a3806b49646f07dd476b58e8967aad82d97f6563a81f42397c8174df3611d3c88c79dfd53d166053b36a23ff5e6294e905a17d1b126e",
        "l10n\/lv.json": "c950bb3c446a05d955b98ecd5676dfdf4f077c209b365930839019c31773505e0418e78a9664348adde54028ae83cd2a1659e0194a97a3c71ac6f844c28a9a13",
        "l10n\/mk.js": "8049c95b9fcb9f82c0089eba38cf302ea162d854b74ba1b3f273066f6e6ee7ab6b7c88e9b437597a59b0fe502d3e8c05a05f0cbaa897b7739332433bd75f161c",
        "l10n\/mk.json": "7c133d7230e4444e16f10f81fff519e32fc361e37a906fbaea4be31084105d12841212d6c423fafc57c9fcc12a9e86df33999312dc42f34476f14b5f547f0588",
        "l10n\/nb.js": "73452753a50481a61cf2ed253574bb2569cb08f758cd7859d16baac1a648f991dd476dced16df93a21d128f4da6f0fa96eb588f64743d74f6f99ed6f541db95d",
        "l10n\/nb.json": "ef28e7a66d2e1ef10deb003af599c38d4e035cbba859aae34eb16480a79da59bf1c0e23baf1ebe167904012a7433a183937d6923436fd77210683d8608a23d3f",
        "l10n\/nb_NO.js": "48aee1d7a62acee4bef3fa6eb1ba32256c4f624ecdbed2d51e84434104e2846d00087cfea0e5ceed3303a326906dd7c05ef5747b89c4f06f2769b63d27bf5f1b",
        "l10n\/nb_NO.json": "cb220c55630103cb1b5c8e757dccbc6a5696b73210510d3f33dd5c1b10c69254ef40ed1ce2d86294ec0e652c0ba8a2ffda5298e5a09c13d846aa2d97e7589d96",
        "l10n\/nl.js": "3a0c70bf13a69626b7acba392d51e79599e0e41c68a5a9b4e2064fd27e058a6e76be5250f868584c9ac6e94a1facac0674a061f4ec86dfa567df8586b337ab55",
        "l10n\/nl.json": "e1995ce06956d126a7ab0f44b72027e450f2f335a5367060f2ced08465a4f6f5c9ef53b5e56adcdf88a696154bb269254c5e5068a3ebe9835886a863865020b3",
        "l10n\/nn_NO.js": "cab808df0ad39da5855d95bfdf5db63ff609d9d4cdb130d3a838b23aaa510275b44b775f0253843c0fa0e7b4444284fd245b39b95afd424178e812984090ef62",
        "l10n\/nn_NO.json": "1278ff4404660f4524522c0f8f2c8cb925cf51f3266d344cf63990f9db5df8f453386bcd21a1e89e347768c5c28b486635e6c4c03da1c3eacc426b01f1f90764",
        "l10n\/pl.js": "e5746f8c9da430621fa703db7541d9cd52dd5f4a942d669ed518f073cb52c85f93b39ef66bbb3d08381131479271f0c668d39a60e3b3bfb24801340b7a377f34",
        "l10n\/pl.json": "996fdfded6a34752e83d12323f33f8c2c167179aa6ed9553b69c51c1538b829e3beee99f5a7101cdfb5264841dd30028bbc7103dc3e2237bcd96cfd113b10350",
        "l10n\/pt_BR.js": "2bc4cf83e3978d0c3c8156195c50ae9e3db189d5255f405ec24b702a96ee0c969a09b2dbb95e870ef2d5d141ca2f3e9936cbaefe24a9b92523864d83d91ae854",
        "l10n\/pt_BR.json": "4db4e9700aa009ca46b0b49ee185de99c6b98221e8e7333497b021217c42c2e7e7de35118d444322588a25ae9b520e3e809a78605778b60e382e4fca30c73565",
        "l10n\/ro.js": "d50b20a26783d265bc6ad36eca6032a79672e8ce60994b49403e74b1dda0f6f4b7d259b1f58d2c05c08bfd7d9633e8de5e0ab2915e01242e08cc9495cfb45251",
        "l10n\/ro.json": "ca0686d63e9abe36c4e12b6b73140719e85ba1d28776bad935822817585c4c8dfbfe1a80a32ffb4349082cc12b64a7b7c0be7cf344d6f9b095dcde538d7f9521",
        "l10n\/ru.js": "c104fce7dbb94f8244cff01b2405019f705f5ee732ca1b840ed21e14fdd97762cb981900aa0d76f21baf202ca9ebff901d2dd5f92b1ea89e5bd215a7fd9d3786",
        "l10n\/ru.json": "84898110feae368de54a3b72fabbb754a5bc9b2eadb964dfda8386edec7fb251b64fec5990dc5d97cedaa6f0b64798aa652058b56f9fd71fa14439877410cd08",
        "l10n\/sk.js": "112b4a51b80dc7db158647e16d01b9245dc9b3a7a0cb470261f529bcac1b78c731893dff2259107288f98c93515a77aeee1e429891ee89eb58a8165e74f15c91",
        "l10n\/sk.json": "5d9b8257fb3aef63b6d1c6cd26f5642b228260631763538d9b91a867fafd9cd911191b37a37be582ce3f7f32edff7f27dafc1276ff8f877fed17a16dff16474a",
        "l10n\/sl.js": "b13b7fd402ee44981e201ef427f37af9afa729c06995e79ce0114ca9933b3baf39faac14e9bb36697e091870c1b9f20af49d2410c8777693382f9e3380594036",
        "l10n\/sl.json": "a47288fa7f7d0ee81a4667e848cae5ecc9a4572fd4c69a0172e081cee186c6aa3218806fffded28b338ab73c15f99bc761c713f5b49b55de16d0dd955add5930",
        "l10n\/sq.js": "85b40ed68a38b71a1d2d14badf846140124cd20ef48ce4c8e6483c31cde5d928f7fd71cf8c47052a855bfa2364509380627e50b38c36f1ffe653a9543cb2392e",
        "l10n\/sq.json": "b1f792c41b9bbc871034feadb71de3d87ec6dd870b8d06d2926180a41136a17e241b29f2144d4facbe2bb0c34545ac87396605da261388c1daa3894b3fa4f3ba",
        "l10n\/sr.js": "fe0261ebd68477f451429e2a033b4da981917c02b9f6a4dc9480b8563c859ea2a23dac318556e369c0ad6197e5844a3e0b830c6d87a785ec743a4804a516a91d",
        "l10n\/sr.json": "388294537df37d022e707f3faac27cf466c589f54d09d37bbb7fe40db9cd3b229955455a1622722617cebfe689d7bd8be4c2a2e1a20775028a3797634e3ea02f",
        "l10n\/sv.js": "79e18615472cff13d77c17ad8c4839b6ff0bd8d4bf4445b0ecb08bb84340a78c0df96949bbf949abe9cb8800683d5437cda9c7089b816048b5c47d6e4d937567",
        "l10n\/sv.json": "4b26e06300dc062103ae319270d5abe177b8e6ea3c201e79cb90048069d5a3d7238341e804462ba3e59f357eca65e162e897eeecbdafd318eadba1e9efa802a0",
        "l10n\/tr.js": "2ebee162deb618044abc723c0c95eb2ac860fdd3858493cf6556aa2bf928ec05c301bc1d85c80e88bf96380aca2405ab170e33d109211bdcbf2e5a6239a08337",
        "l10n\/tr.json": "984571f584da68dee6f96226879fa7c9bc02ad2968a9bec13e5d3e38fe963aa8bddd6a5385f2bc7b0a0a735159ca1817bdbef64034d3521752ce9080f8b2484b",
        "l10n\/uk.js": "25700299692498d3c8a5f84c95b0c3661692c743769b1e26ec9bfa0aba42ea96489e9fbac301cf0d1e7346e241fdc950e3fadef888b43c00604e1636919c41e7",
        "l10n\/uk.json": "19b2fda36ee248823bc6f4dac3fdbb5fc14fe7fca0c930098581b2670ec52747c03cdf9fd8aed1921b9084e17681978f50c7991bb735529d44ff99818598a306",
        "l10n\/zh_CN.js": "24e0e329e8c4f33cba2244bab1370d2320cb41c4aa3721996fa75a2e0a4ceeb2b0b63807f3dc326ac9d4bf5ee6b3b55a45c605a8d606060fe85aad3685ad60bb",
        "l10n\/zh_CN.json": "43faf3f77c252e9a34a7bd5c0959b4d3003d511abd223d5cc18486304b7b9f7ca44efbcb0806af929ee254249e37f7f2dd6044f44c6a5251c800a388a6bac26e",
        "l10n\/zh_TW.js": "aeb389080bc224cae1268d0b02becc1eb9c64b80424c7646647302db8f610227f8aa4b5ba97ca9637a46e61e378cecfb12140605d559239014368f3c13554257",
        "l10n\/zh_TW.json": "df08e6523a8e892bda39ac68d28f0e3fb94bea1e13d1cef1ed26d4be11b7d24faa06de5df48c48a9ced82ebb7cc695474a7a2a12c2444fd4ce3a5d99d4e706be",
        "lib\/AppInfo\/Application.php": "f1783781c2090e7581024f678f678d6dcf85fbe8248573239d904723056b74fbda25331f3ab75477c9323d435bc68b7964c69ae1a03ec10e51a818c4b864f4c2",
        "lib\/AppInfo\/PluginManager.php": "6b0e6dddece99faa046acc487c2d3a0ad30b856b101cd3e914a7fbbe8c35482b0fe48120b43ae0d2b42027899cb0e52394bff3ddbfdb0dbfa8f83e1bc3f24abf",
        "lib\/Avatars\/AvatarHome.php": "099e7c4a9a7596b07b7b1ea2a68f546c09a7e97aa20c9fa698fc32342e41816d3d2ba831d2c65c64a044e69f27922134e74f97f1c54135a1d921b4c4f7d2c5ce",
        "lib\/Avatars\/AvatarNode.php": "3aa691f33a6c0c6ccaa6d54d7596175f0f34991597acf2cd8577dc2ef3c8a00eda5f222b89b742225225c3b7287990ddb50b99e41aed532c1a5fea7c3dd9776e",
        "lib\/Avatars\/RootCollection.php": "a4d3f44319f62af9eccbf13d38a5f065bbc2a772fad052ff30cdedc82bae38c124c16722dacf51cb89e30a8fe546d8d00490948776e64135d226488f24a4399d",
        "lib\/BackgroundJob\/BuildReminderIndexBackgroundJob.php": "0af021780132664b6380e4a0adce6aac4a49251dbce3ff43d6e30a48f8e37eeb547c514ded69f3b701384c44aaf43e1a1bbcf6ecde7bfe6cbd97d01bea100344",
        "lib\/BackgroundJob\/CleanupDirectLinksJob.php": "31f285d42c85f203610bc4e6fc509bec9239bd373e934e9131610475243133fab2b9345690b24acbd525c83ce91d761ee368c10d98c7c3c1e3481dd6f0cdcf06",
        "lib\/BackgroundJob\/CleanupInvitationTokenJob.php": "d7f7a1601383ea1aef6b0701ece68d17563a1f39dd2516fb1f7829a04cba377b2402ca91c6a37b725ecce103b2411ea3ce90872d5392ddb5753b67b5b28be82c",
        "lib\/BackgroundJob\/EventReminderJob.php": "90e5a4e4769f2efdc27dd9acd3beacb56feb761de1fdf18c39146f43db65422ca505293660c3bff7bcb88770772c4a6d36e75d1519f96ef0e063678623589327",
        "lib\/BackgroundJob\/GenerateBirthdayCalendarBackgroundJob.php": "32a30b46bef6f7309c60263ec8399d9a42e23402fe4626bb8ad851960ab5e43b8560506bc0cc360b7a9cdfacc5934a381f02d0d4e1a7a53ae47cef9825d5e423",
        "lib\/BackgroundJob\/RefreshWebcalJob.php": "d8183d795a6107d1f2de1b8e72c0ef2ed843c73aeafa3f4b882031d63f989c67a1a2dd656ac3f0661900084ae78b9066c653fbb9616b277c2e8fe15280df6235",
        "lib\/BackgroundJob\/RegisterRegenerateBirthdayCalendars.php": "0b592e4041fdc72e006d41899cbfbd5997f276fe343cfc5376d5d212301369f63f0a2abf40eadaad790ae3bb00762420102d5a76dfda7feb759eeba2a67bc2c7",
        "lib\/BackgroundJob\/UpdateCalendarResourcesRoomsBackgroundJob.php": "0d7e35c6870d88b574a414c572c5cc5ed627d4d9f219dd7e87a9d570b22efec12c8f266f7177a72b056efe32c52a12214dff176f47fedcee732f52c12ac1c88a",
        "lib\/BackgroundJob\/UploadCleanup.php": "d7360778b72752939062d446f30d4790ec07cb8ccee05c5e075b333fd6c2f9afa6a969b32710d8ab44a597c921ff2c074ef67d99fc22c554f725356527b0ed2a",
        "lib\/CalDAV\/Activity\/Backend.php": "42cb8810333b4cac769dbe34a6a375134566f2c51d85b486ef19303756fc0243d26c898f97286045930dee39ffd8227164d649e208c9562d726a5e9097d440c6",
        "lib\/CalDAV\/Activity\/Filter\/Calendar.php": "a0f2026918b62f27b18abcb8a69d5169c504c5bc6cab8f6a41f22de8a92393072cd715a2bf25549da4487def052849c4f39f0503c0ef678052a20a83b4b0f48f",
        "lib\/CalDAV\/Activity\/Filter\/Todo.php": "f749c32c1daa84cca6b0cbbac75ba7ce86028b6ee97bf4bf853339005234ba6423d26ba524dcdf4e385178e4b295a0182a72becc1a964579688312ae0355b366",
        "lib\/CalDAV\/Activity\/Provider\/Base.php": "9909817aa4ca59cab6a933dcae92ace096e83bc7aed9d3e7c67a62b75d2a9d8b501c6f2d5c3fd0a60242848530945da8e186e4fb948417fa65c00b24f97869f4",
        "lib\/CalDAV\/Activity\/Provider\/Calendar.php": "10d6294d582bd0c0d14536e58d80942fe90a2874154ac29f78aa68a68eef47bea3279b5f20a802e551822756c390a3fd43e19a0efd877a0c55e6a0724a9d2528",
        "lib\/CalDAV\/Activity\/Provider\/Event.php": "c8cbcacec4db76217e7998427ab1e003846843f352c0ebcc25ca7e6938f151cebb5674400c1e8cfd75f71678a88a45f3578ffe963619b8f7268273a167fb69bb",
        "lib\/CalDAV\/Activity\/Provider\/Todo.php": "316d40cd842954de6446053cf049449e2ac6e213975bb91fb03f1c760e97768b01e4a14f41981d973229d66783f15dba313b471f7acc2331ab6a8313c400dd68",
        "lib\/CalDAV\/Activity\/Setting\/CalDAVSetting.php": "0a6ca92bb90c8d2cd5911f9915abe94d8398dfcfad26002d1b3d36b19353fce3f4ea163a9ab9b86c729a628bbb886418e5175ea1fe74acf1fbf6d41442ee4f93",
        "lib\/CalDAV\/Activity\/Setting\/Calendar.php": "59a499631bf3350c718dc4ddbe64108b684795c944994fa6a25bd28c97c8632d96018a9f29caca36cda01caccfc94c0c01698edd53f5e13344abfb506edd3b70",
        "lib\/CalDAV\/Activity\/Setting\/Event.php": "671ccc6b0b10ded8441625d06a9e8e73477e2c5c1238758ad43755a37845f0c0ae98fbd636406e56f517eae1f862b8b4d71279fa3b21f9df0c25d8cd54cb1c67",
        "lib\/CalDAV\/Activity\/Setting\/Todo.php": "8b8fb45138ebc2ab868904aa40632fc10a4dc4f27fc7afe2001d30a434f52c565736a76b4c30cb76f2614381a8edcc952920803fe852cd3a34839e77402410c2",
        "lib\/CalDAV\/BirthdayCalendar\/EnablePlugin.php": "493538adf74f1904f604b131fd63daab9b8fc9ccd8ea36989df50555978b57bdbe6c315c498e7d249bf9ea8c02db6c1366964645e1c7bdbe6fdbd355c48c47f2",
        "lib\/CalDAV\/BirthdayService.php": "cc247c6b0374180b497d814f214a68e63521a314e1e4e05488cab4c32223f28818e1674d996c2ae51532a6d7ba8e13fb93c203ef2644e30e9c576e6c0f46cbfb",
        "lib\/CalDAV\/CachedSubscription.php": "ed30e4a531e8e5f0de7dba3c8257584f46b19c1c8eace10a4ed1e7b75caefd7dda41c3f9979af759c621d8120867f2cfc98c377320aa009689d21751ac5bdc09",
        "lib\/CalDAV\/CachedSubscriptionObject.php": "5284a6e4f079e0c22a2e816d073eb808a40c95b340dc9ff4a640a7bd66dcf4bceb079269e5e9e8900c734ab10c1560b9a174b24314e69bd850f3acddfc3852b6",
        "lib\/CalDAV\/CalDavBackend.php": "a0d8a42594e0338d93b344ebe299a616ba646a72e2ad351f0d8cd88a7a4498e8276ebec7ea2f13365681b3988a6ac5b0d945af17c0d650cc23a0f4c8f44d90af",
        "lib\/CalDAV\/Calendar.php": "b6f6cf70f4ebae964db65b6f9ae35b751989b7b4f9cbb651d139eaf42a8aabbf7bdee803d6eda915532965961a320489edf7207629eeecfc4c8e5631056a5ed1",
        "lib\/CalDAV\/CalendarHome.php": "a80ef40c63324ea2d07b724eaf721031b2cad510f8949167e8b0c29f0c2ca293e46d5fdcde6fe9268f080d3e8856f020c5743fe494e33ca05b0667d8b87d8653",
        "lib\/CalDAV\/CalendarImpl.php": "b4ab20b1f5105aa2bcafd32e6d7b9fc201a9128aaf0fe0141d57ae254c142b6adcda22a846084b8df1c0a227160cd9717d2229cb58042562b9fc89f8ad1002ed",
        "lib\/CalDAV\/CalendarManager.php": "a4d791848f59f47b9d5d42ed1dcbe54281045ce7d796cf8b14f87abec7ecd9ae0941774423076554377273cf350938c5218a2901f042950412fc6ce95d07503c",
        "lib\/CalDAV\/CalendarObject.php": "0b782ad22a86de4b78aa94b483350eec52788fe7ddf9e3988b7c7ecb37cc04d336bfa33276374189c1245d108834ca95122854b8ff276a3ba59d0bbc529faa06",
        "lib\/CalDAV\/CalendarRoot.php": "fec001c09584eeb4230aa49e613c65473114371c6ad17d4adc6ebfcc4d58e9afe95f828e2d2e51c00df98872b97d027b1c5d7d82788822e3c25bbb95605df269",
        "lib\/CalDAV\/ICSExportPlugin\/ICSExportPlugin.php": "da7c576f8667cbef2d287d9f6eea557affeca1b828779d517b8aee68b7c80f7ad7a686b659b43df797194b8cd4cca72815e561316dc49e258d128dec83536bc2",
        "lib\/CalDAV\/Integration\/ExternalCalendar.php": "4c2ed715f08195f881b08cfd29effc6422828d4ac67aaf0a71c61b0753905e5a13d661af42107835011646bfec2d8d777d3296a3eb1a117a8428557f58a41731",
        "lib\/CalDAV\/Integration\/ICalendarProvider.php": "5560a4e9e9045903713d96142b33964e803ee52772a74224d613942a2f712da658f607b5ccb04acc1ea24df1064269658007b29bbf8f769aaff1c3fc9da6483c",
        "lib\/CalDAV\/InvitationResponse\/InvitationResponseServer.php": "5a085730186380c2ad4fe5f78b2cc6e405f3082333df84be3348fc712507a2a409df3b5bbd38a549dd8717f47d0c2e72e77ce9a0b97de899beff66c08300e413",
        "lib\/CalDAV\/Outbox.php": "295dbc3b9e382d9f2e637d765b2803d74b3c38275f8dec78a1124069dff5e8c5532a538199761c898bcc9f3d87f9b8c621198e65520d13a3e20d76c4bedfa9a4",
        "lib\/CalDAV\/Plugin.php": "f1ee469a04cdeba5c2f519e0e30b040fc34a248ac69797e404ec958b6cf7ed407a4623aad7807ea5c37129a458e563c6def952c74f1db9a9d380a6dcbf193cf7",
        "lib\/CalDAV\/Principal\/Collection.php": "d918ecc6cd6a7b8d8f69da35fb76cf8f90a840f827f3007df9a6811eb2f682bd0b39f91aafcddb2c95f3a915a724bbf50d37b9f0ba757bc5db248f771f6dbb6e",
        "lib\/CalDAV\/Principal\/User.php": "cbd8ade3b7360936f9095117592a3a9176307b2b1efec9a4f970d4c89c513ca1d1329aaf3d284bf83a6fb01d5dd4b2250f76cb80578f29e8fbc6e990b65854b6",
        "lib\/CalDAV\/Proxy\/Proxy.php": "0b345c908ac0a166a521ed4139cda5a3f27b5da55c03b3120c84cd227599fc2e73fca90a537db6189b4d3606aadcc71df4ae9775be057eb3c138a58879f88073",
        "lib\/CalDAV\/Proxy\/ProxyMapper.php": "ab96208c7557f8cf190db222cf5f7f58a45666c0b05c1a608ab6333f2c1954a24e4ccf65eabef5ed917c0482bd08cb34d6e677ab0793ada20db42b652e820d03",
        "lib\/CalDAV\/PublicCalendar.php": "8d7b2da133fd18de415231f72c8fb5fc6abc8549c9ca9f08ed68e16847f009f08ac860bde6c32c9ad1934955fe0035cfea2bde607b8dd993e216914346805998",
        "lib\/CalDAV\/PublicCalendarObject.php": "abc82319be6024b043ce42a9c4541fd3ac6bff9ec5007b0bd10bea5a77bea2b2eb68805a1e83ea79dafdb0d6d7a25fbf2f9116bd232fcd41527c7633f13209ef",
        "lib\/CalDAV\/PublicCalendarRoot.php": "6e09736f7498da6edaf56539fc72fb937fbcabb4eda856c61d0af0abceb2076426be598613a162b7ceabf9bc88bcab69793cfed29b7e8e02520a7c6122ab43c0",
        "lib\/CalDAV\/Publishing\/PublishPlugin.php": "37a198248d9dfeb72c7ff839a65835def7a373e22b597afaf6da60673a90af182a41c1d515c494b7f79025abe53a83ef8e3a7ab610d36fd6f09a3989ad859d63",
        "lib\/CalDAV\/Publishing\/Xml\/Publisher.php": "b955073ff81b003214a79bb9b90f90f8f692494b2e09501731f37000edc48ca15c9cd5a6fcaf4264214220d750b94094d21a50f6ece8d0743aa4e8b75e27dc6c",
        "lib\/CalDAV\/Reminder\/Backend.php": "f2736fce3d5590b44f44ec3f88a5ef31bc332c1f3eac78d55992469e18dc31909658e23d78055bd5416e19c127d1248e90504e6065b4fb17408fa7add20e6936",
        "lib\/CalDAV\/Reminder\/INotificationProvider.php": "214cf04faa521f02dc6f02f58daa20b5ae46a72b3a247a8ea17d564069dec9440fb3f54143c89a227730535e63f26656f5b1606c1f1612dd212643be66ee01e6",
        "lib\/CalDAV\/Reminder\/NotificationProvider\/AbstractProvider.php": "03d7a583fc196aa3dfd9e66decc3ec0a6d4f5e85d5db16231ff35e81f250bf67b24e2de3723fb009191a5e97e93e6295c7082fa2c3a3718a429f760ffa40b0f1",
        "lib\/CalDAV\/Reminder\/NotificationProvider\/AudioProvider.php": "7adaa02442a99c39167cc04ade822bab02bbac12452af17fd26da7944e03c7fad8368b3c321445047e8a6aca2ba9bf8a6a0019f9154424bb816cad9cecc30e26",
        "lib\/CalDAV\/Reminder\/NotificationProvider\/EmailProvider.php": "2440a3b053a419bc548b7363da9273065daa8df72f33c6fc7990fe1b539c2c091016730aa81c5937edeb5e6e723fbba105846f6ff4a618b5ec5b072b513b6d62",
        "lib\/CalDAV\/Reminder\/NotificationProvider\/ProviderNotAvailableException.php": "015a2e699bb142650869d15f89305d50225561ff321ce3f1c798113a7a1cce73b67b0315b8620af528360919ff3b0e7f18577eb166401c249e856b7c554c53b5",
        "lib\/CalDAV\/Reminder\/NotificationProvider\/PushProvider.php": "b3a44856101960cde04f0b1660416a5b54a5bda092255b522a9760b71f9702e4400090b8463bb19fec5e94b2184b6a3265ed3ea20f4bcaa8f9a3c9493318a9b3",
        "lib\/CalDAV\/Reminder\/NotificationProviderManager.php": "9434d32183febfe4692bed85635acfed628680320edd667b8006cf3ef26d0474fbe2b134bba9dd7846549148e8e6117805a9f87c8e1c7e24db6875899b8083bd",
        "lib\/CalDAV\/Reminder\/NotificationTypeDoesNotExistException.php": "d981877000a5c8d4dc5350658a594a01d00daaed045a4875d71ff4159a03fa02b3205143023c0ca2ce28abcde13c4bad5733e0f961e90424804d5c2c384df882",
        "lib\/CalDAV\/Reminder\/Notifier.php": "ec7c7f7971e538f90e86d87236be2a0416ce51e04fcb41b219de0593a8076154175c823607eb2aa68b7282e16f3e71afdef8073be491a27023eef8ddbb039ec0",
        "lib\/CalDAV\/Reminder\/ReminderService.php": "1f308e44c973d7e71a7d38cde0d841f98be72884567312eac94f975cbc5de8ff913335825655ef72103135033d8529c520dd73ac9b45fa4f72ec405a2b901c4b",
        "lib\/CalDAV\/ResourceBooking\/AbstractPrincipalBackend.php": "25d25e388178c77b64b88c68ba22ba2e0820a7fb071fc75e458200e4891f136a6b58cc2880795d19e6a29d9f2150167a11ca1ca86637462d359d5e0397f5ba49",
        "lib\/CalDAV\/ResourceBooking\/ResourcePrincipalBackend.php": "0ba77d564e35b54c767dc5c31246ddbf8f54a22b85034a1a0e5b936fae7d84987dda5d74ae9135f29fa4900f33268f95f12fd5523ea8dbd0eb0400a24683818e",
        "lib\/CalDAV\/ResourceBooking\/RoomPrincipalBackend.php": "d8a58097aa5ac36b02cb544167bd514a139d940c854d3b5120596ba260c04f22042dfb33f9790d1bacecfdd4a691cd3f446d9551e51304762b8c1f1a1470d237",
        "lib\/CalDAV\/Schedule\/IMipPlugin.php": "f579d19d03b8ebcffa0155fc237d98ac0ea24e07bc9c0a49645ff2f13ae49ba70a4721f76373abda5a8dd61ca077f53bc9d89fd1395ec997b8a421abaef18d51",
        "lib\/CalDAV\/Schedule\/Plugin.php": "4eca0c401a5b9e30cd45729a49dd336fd4a02bf9bf7b1afaec9b120cf0b890bdc4783ca7a7ec413d87b13003dbd7e31814eb8631870c8eeb70722a215edb4e5a",
        "lib\/CalDAV\/Search\/SearchPlugin.php": "e505a3f3fcdd42b407b48b754b0280f468dc8054187fe8688d063c8feb2ef9db753f4bb852d786df303d09077a6748d6a631262e3bf363969c4eae77eaac66ac",
        "lib\/CalDAV\/Search\/Xml\/Filter\/CompFilter.php": "3c8f959648259ea42e92dbce8fc640e3c1b49beee046fabe7d244fce7a00573517a18c1e02d0dbdb13f20ae80218290ca296bae07a1904796c759cfd69cb2241",
        "lib\/CalDAV\/Search\/Xml\/Filter\/LimitFilter.php": "acd78edea2fc76903430820b2a4163faa5b0a7d445b340a35285117a5122c390009c18fbdfafdfe1bdec72f0294dbb8e68e29da1a63b2be5a09e44cdda420b83",
        "lib\/CalDAV\/Search\/Xml\/Filter\/OffsetFilter.php": "939e8f753c3f64008ae5fb3c9464e913c784e8bbf4405e7baf052c9a1def30facc1f1c41e302db94e6eb3856ab4818cf5569d93288cb90f9bcec5a9d2245a5fd",
        "lib\/CalDAV\/Search\/Xml\/Filter\/ParamFilter.php": "04cec8da1352ea732b5841d5b0f63a16d8f9d3f1d55850c82397d961766250d8f958bb4fa23f513c2526cc582abbbf29a22a15af9840baafedbe83f6785d77b3",
        "lib\/CalDAV\/Search\/Xml\/Filter\/PropFilter.php": "2913734720a3706e3caf1e8e92189b3a20bc3e6275f14ee5d2284ace8a8d534cdf917677295436099527307c6ebda35492e057ab42d047950c33a825d4c8bba9",
        "lib\/CalDAV\/Search\/Xml\/Filter\/SearchTermFilter.php": "efa7232f13c312ae75af5d69fab78c5a39d09fbaf5e691d2823575d640e57405f34bb9bf7599fe431c6bad7426983706ba9a447e2ce0e596738509c5abd1df62",
        "lib\/CalDAV\/Search\/Xml\/Request\/CalendarSearchReport.php": "5265d11e7dcdeef4821946fc8133f366cbeaefcfe8b0a9303a1fa4b46553b020b887aac761a2f6244443a1eba7030b5852b563ef8ba41dd7391d10f3cb2c3d64",
        "lib\/CalDAV\/WebcalCaching\/Plugin.php": "41c552569cf5717280fde66cbb9656a7919fa22c3919a50ae010f2babc030df029234f63287cf6e953868c22dbbcd8076cca7a8758461c04c2ed99be1853c009",
        "lib\/CalDAV\/WebcalCaching\/RefreshWebcalService.php": "e381809295b7375a315f5c58f56f6e1a43b04e48dc404a2fda67893adf016469b81d1c361528ad9a4c9219271e278e4ca73b5bf5d8fdef8a13361f672a31b641",
        "lib\/Capabilities.php": "fc84545b73107c170e3562419fd60a7b0bd0e254c43cc34126095d662c22f2706424c027b241457b1eaf1ae45480d9addc11e40173bfef2344009ba9ddcb5a4e",
        "lib\/CardDAV\/AddressBook.php": "6f1b9f83e2d7ec915d96d9aae97f711d794c16c7c0735c32bc8a9481d86ec18ac520196e1fd3b1303dba4dd67d13c60c5e78d9455faa0236a5a1008afc3de4e9",
        "lib\/CardDAV\/AddressBookImpl.php": "35e9ceb83a8b5b4c96cce2c2f156cc52d21407b237f6cbe8f2d06787da3e55bf8979eaf70da097594d9e45bf23fae24e717c2376bcb5582f62bddfab280648e9",
        "lib\/CardDAV\/AddressBookRoot.php": "872835fa1877490c74ad5fbccbdbcdba4e6d705553a08999299d3ac85d67681a90ccaade48824d4cb62729f74c8a2a78502c25995ea9647a15c98fd665df8b0f",
        "lib\/CardDAV\/CardDavBackend.php": "b50e326c549e37adcc5b40bb475e118cd7470fd7ddfbf16c9ea52a9ce891ed4304c8eea8bf9e2abfd173ab716d4ec0086c894a7f4b4651876a49dbb3c91ddb93",
        "lib\/CardDAV\/ContactsManager.php": "c80ae1406869e3144daa097b89c367e3727b275ada1613dc4217e245bc1be0de99613cdb000df84f7e953fc22057284cec241356db3ea36791a354f11f2df907",
        "lib\/CardDAV\/Converter.php": "fd757ea5ba4267fffc56f3ae1bb073c7af40bb3ff6ce39a66d0acbceb9b7bc7b3247630fc3c8dfbb646a47dd0e2e0cb2f7b39ca2d3549bf3755b625b60036d7a",
        "lib\/CardDAV\/HasPhotoPlugin.php": "4fa373bd7c9d02692d350693f54c3cf7da75ec7889e0ab9a3cd071db9e01ef85122c6258e56a0c91fded3399610d8b0a58764c3bc4a7a23d96c08b4297d3fd47",
        "lib\/CardDAV\/ImageExportPlugin.php": "ddfee6d871c26ed1bf346d7779436c8ce278faa9f1b08637ec62cf3c0d934c58f8f50ddd3d2633268e67da2b57463a09f313e4505fb28c23ebd8772ea1b258cb",
        "lib\/CardDAV\/Integration\/ExternalAddressBook.php": "df88f321b815853e6c11a53c9cde6df83f91e023082e971b430db05d40dd2cbb7d42600fbd56d62afa8a3437a197329eab81ba43ebabd69beafc9d38bbe39e7f",
        "lib\/CardDAV\/Integration\/IAddressBookProvider.php": "76406486958f7fd614360992ca86c62d1f4b7293081ca912f51757d79cdd1f5b636a5c9bf52f1960148edd5859f8f80c0ae281cc7afaa58aafffb3630f922c1f",
        "lib\/CardDAV\/MultiGetExportPlugin.php": "cdf9deada6e5b161a5969839b15bbcb5325da56f52ba39765b791d1a0ba14854baf8e24ea7a8396411a67ce095f2746dbe563fbbdf59101f193fcb819d516a36",
        "lib\/CardDAV\/PhotoCache.php": "104019179ad69af45d32e092b77a822dc88cbd78bb9e195f75eef51994c7eb7364f58b54c7ba21792b6528e814ff61042d7d2b347b21a94f54e8670661561dbb",
        "lib\/CardDAV\/Plugin.php": "67091b1bc9badf8a63332560bd3050d2b987b7b7c3dc4632713e86d059466f7387d900470a18a7aca1d14c43e191da17db101fda0da75b4ad1319739ebbeaaca",
        "lib\/CardDAV\/SyncService.php": "5857abe666285d08a39a1d86bb83732146b56f68cc1698b79cde5e7031ff45b2d09cec0e012b3b635c446da84ab6a091d20dd8280073bd8a113f021439136e7d",
        "lib\/CardDAV\/SystemAddressbook.php": "c178316075b779ab3c238de0d4385ff44e941d26ad22ef140dcd1634664124890c65118cce2ab1b82c176427239534da72e7dd35323a3df7ff39a522c81b26b1",
        "lib\/CardDAV\/UserAddressBooks.php": "d2cc99d43054c5d2cb3d40fe6c5b194628c1ac24964419f9edd37f273900f7507f1fd76b82f5c15e2e3cf6f76f33f927aa96cdbfd798760544f9caa25e375b45",
        "lib\/CardDAV\/Xml\/Groups.php": "735388a60ac13d4b700e35bc1ed37413d6b39f970809572ee5f5f376cee1a308b108d1b841182e05556413ec7d4816f833a897577d9bbb25ab924b5443aa8af5",
        "lib\/Command\/CreateAddressBook.php": "83c5233ea5372424270e0ee1fd7687dace7076169d19bb8c15da6cc5af158ed4c66f7fe1d0a01bda2c7b83924d489d38b79b8e7ffab19ec90b476f16485bdd14",
        "lib\/Command\/CreateCalendar.php": "8d53821d636407135336aa07830ed3ae866acb047e99adfaecdeeac58202e7086117c94ce8e475f2b85c30725309dc49c81268eb9c680a7a66580a3e59b9ed25",
        "lib\/Command\/ListCalendars.php": "3d97647132e4770cfec427a76545b28db16017daae5714e0ead59b2e119696c99b360cbbbd0e72a7a2c90eac8603d1c5d67e6bbe205eeb0f4ba185d141ce92db",
        "lib\/Command\/MoveCalendar.php": "a884feb8ed5fa98c4d7d72774c796d936c8c20acad9b76ecabe62a5167b7bb16eefae8ecc9ee7efc928355dc772004d24ddc02119ec4d4ca2315e6e984a61662",
        "lib\/Command\/RemoveInvalidShares.php": "bdb3a53f56e392adec05483fd35994867d42e8ccec5061980c39558b7d599f50b98344e181b32358e4840c8a6d0f075c1ee74c8f96fc79d7431513003b4950a9",
        "lib\/Command\/SendEventReminders.php": "c53d87b8d559ce3debe985e2ed4a453e4709028d7cbdb455040948c6b45dfac6f305c0ddee3a98395a6d6f7535fb6836af5bcac4090afdab95912131bfd8b365",
        "lib\/Command\/SyncBirthdayCalendar.php": "846b5a4ad430db1bdd91efe0027674d0842dc863a86051dc57a53d01cfe8cf45f9c9547d221cc7ea3fc9edbf6b86f3deb492640bb602e7826a0ecee471f9420c",
        "lib\/Command\/SyncSystemAddressBook.php": "34a153294f28b9316c2e69ac65197385407d8868b7d2a5ad8282d0ed0ae95e597153398eac1102f079da289fe562fbe39b669b91dba48c08a91780e2670aafe1",
        "lib\/Comments\/CommentNode.php": "7d7398273fa149ea2cd8b0b6f39f4fab699bd5d2a405acb4177a268114d219f66a73e391fb0de9ec652d6ee709433d36acaa3450fa107046751d8bbe2fd805fd",
        "lib\/Comments\/CommentsPlugin.php": "65173b5d1eec1d47d123ede248940b5ddf1ccf5edd3cd9ba6654444db912bb7df58e96fa954b7dab87f79d7cb0249e8a640b7337387b4fc02f264ffde742b455",
        "lib\/Comments\/EntityCollection.php": "42571be3f73f087a3d657971f8ea96add8caa175656b91eb76bbb9a75f7fc6daf98b8eae67bf0a03514f07d736e1e2e5cb571de2eed8b9d9b82a16ba9419b38e",
        "lib\/Comments\/EntityTypeCollection.php": "0ccf4ac3b110c20cc714b8d2b2607b706ec362fc5f9627b4a7d34d645141b41a2f09b6cb2c184e1069f60aca1b610af62ce4f6624fb226c8a912a5a4c6947406",
        "lib\/Comments\/RootCollection.php": "5333f2f0aa1128742a94d9650fdc283a59a09853388413714a3bfc9476e97a8d28badd5ad8747a741a462b12af62ff1a3c5c03796c8b52816d20b3b9b87bcc6e",
        "lib\/Connector\/LegacyDAVACL.php": "d84acdf0d9d463c745c21afecc534916f0a3f8291e3aece9f311a220574e14d197c22e0ec48c2e99b5a162ae7ee16da19ee6b9002e9042909183c65919bbd9a1",
        "lib\/Connector\/PublicAuth.php": "608c306b39863be581b127750fe0a1125f67cbab04dd2ce191e76875a2e84a5ccfb8a9fd28061497f77a9f7266a2d44bcd206f75c709470cc085977438ecda4a",
        "lib\/Connector\/Sabre\/AnonymousOptionsPlugin.php": "6f32073d56c89fe940c69f2dcf27484db279a14498ec24d3d1d1a07801748ae8e55b2f9924b793e4a01703558583eab6bd3e6c4c8300ec247db85f356f9334b8",
        "lib\/Connector\/Sabre\/AppEnabledPlugin.php": "2053a6327ea573c8bfecc347a179748967f9846b555aaf3e19ede5858c8c247b260ec429485af02a34fd3dcfa58e41ea4e311d4e4a2db6f1405121ac6fe813a9",
        "lib\/Connector\/Sabre\/Auth.php": "bb46cd6e2600272072d10fab3f19e36053cd5ff5bf47e3f81b78fa7bbbfdc393a9c9beefa2cf306030575c528ad0d151419eff57a0967c4599abfbef90f96ee9",
        "lib\/Connector\/Sabre\/BearerAuth.php": "dc03a1c30d06328bce4a472da96e0d487f941b6f81fb7da533545f9e347c3a887ec6c8cb4661a56b1324620b6b803e01beea917dc40929c1da3ced65db43f4bf",
        "lib\/Connector\/Sabre\/BlockLegacyClientPlugin.php": "b1163ad5c16968c334631afa3cf4c7e0232bee2d98333b100237b4e300be7acfc9676dfe6c107fbe7d51623b55c3fdcf2f0a7dfe7ade7b8eab5dd0962669beba",
        "lib\/Connector\/Sabre\/CachingTree.php": "dab47fe43c80f375937d852b1cda4bd8a153686df029b6a681be1623871afdf8d4a9fb9325c9fbc301fedad4fe39b9cb47a000270e185fb799a506061204264d",
        "lib\/Connector\/Sabre\/ChecksumList.php": "162cff006696df2bb15993bd957fb364f7908061cc6d6681dd6733ab688a4bddda4d6fb01b53ba81d1f61ddd3158be28277080de45e2b9bbcfb56b143c134e77",
        "lib\/Connector\/Sabre\/CommentPropertiesPlugin.php": "e625cf3c4fa4b752d03124a7b7672e22122c4a74b90aaa925186416c898d6e49da0b67696f15ac7eefe3f7979782a6d262b8afc4cdb11850007e091bcc3f5ddc",
        "lib\/Connector\/Sabre\/CopyEtagHeaderPlugin.php": "886259c2e099c1f458bb8845149696c31d3d42af2ede1692f2fa4e16f1d35f979473354093fc7cdca3173ae258acdce48ccdaa26de0e00eda15994a50730c355",
        "lib\/Connector\/Sabre\/DavAclPlugin.php": "753772735d2e8c68c223d7605a40eabaab8bdf47b1e062dedd6309f137c1274f399e5c25e001100562b0e1370717d0b6f46beab7e447d7bc33c85e28ed316ec9",
        "lib\/Connector\/Sabre\/Directory.php": "e22129fc37f3035d43bc1cc3e4a87a85570283f69653fd1102900711c65082e82fbab0b8894a5169772dfa5cd59bd85ce5ba2bb2fdcc26851283604e74abdd62",
        "lib\/Connector\/Sabre\/DummyGetResponsePlugin.php": "7fe558ccd1e46fe7b0b42f0b1ce4253b849cf6b6da7859f9693642905784bf0927e8b2f53fec2e2fedcf9eef3a7cfce26cae4c05f793e1bab2e8c94941954a7e",
        "lib\/Connector\/Sabre\/Exception\/EntityTooLarge.php": "a3076d9dd01ae3cbeb6d9542674bce1a0e6c2f2a7344086a041b2d62d89a21b3959671f8a754a86f8ee5f0a34626f9dcbf3e174d25f0775723dcf472e6de9cdc",
        "lib\/Connector\/Sabre\/Exception\/FileLocked.php": "1f4729b0fed152d4a7610af9fdae8aa5cf2d6fd6f37160981fa7a7b6ecc810d665842ff99200c40f4e9efebf87968d177f395398c3b1a16103af83c535453a0c",
        "lib\/Connector\/Sabre\/Exception\/Forbidden.php": "0b82045c30e31febcd2f8e92dc79a6ac9dfce4ffa3210c396ee8c87ba4fc581c27be01d69a2973ae41bd39945b608b24da970e648ac0a3ac127ab5125d4a884a",
        "lib\/Connector\/Sabre\/Exception\/InvalidPath.php": "7223c24ebf97da22bf36275735430761d2fcd7728c3a0824d8252de4ae83609a34b819a9dbb1c8ac2d2f8dbfa34e7ce0f58eed163486f141ff87a4d8a10a5b90",
        "lib\/Connector\/Sabre\/Exception\/PasswordLoginForbidden.php": "2e64553ccb5888fc92bb8400a5bb2dcf2ed3c6c525f623c4ede13bf97994c01c90a64bf1dcea9274962698efcd1ea6e680f23ab733846a1b9caa6b7f7889fd2c",
        "lib\/Connector\/Sabre\/Exception\/UnsupportedMediaType.php": "57691e32accb93af8538b9b9d3e24fd973f1f96690e8ae2e8650c6db627f7371d44697c32d0e9a5bb4153c062431fd28c5e5873c6dfa61df15ec071bf3da83cf",
        "lib\/Connector\/Sabre\/ExceptionLoggerPlugin.php": "77bb6d241831de482fb5ab5f5a844d69190b429214e213955c21d45c62a13275739a4718f129ac04bb65cb166512afa1ead090d632ebf98342304255cd340922",
        "lib\/Connector\/Sabre\/FakeLockerPlugin.php": "57b51f1c1ac8f031da5435b9fdb45d25513a7bd1329f593a19f2b9407108b35da3edf9f8f6ed0324c2613bf38b6b78d5c6bdacc9666f90cde938f04e0ffbee78",
        "lib\/Connector\/Sabre\/File.php": "22bbdd3fa903d7d967f05dec6f9d88a0ec3f58cc62b43723bd187cce5b8d19a762092dbf5d5fc5c653713800bcaee3c03c976c2c72a2b6e14de3b564decfa12a",
        "lib\/Connector\/Sabre\/FilesPlugin.php": "c8844a6ab0ef74e0f452d3f9220e3b9abd5b910db731016a56d0b65d7e008eacb330935e8b294f70f7f19a34756d7320976378c513630614c68cdfede5291be7",
        "lib\/Connector\/Sabre\/FilesReportPlugin.php": "d203688441945c9da62f7ccb46e893d160fc1338d8b1766c84c36659f481f1a58c85ca62ab28b678446eb8c3dcbdb0b1487d8975799e6469a02528777cc4a737",
        "lib\/Connector\/Sabre\/LockPlugin.php": "519aca183279d6c1078185c643a630bb9f0316bd1353e9c079495f61880089524953c46ba3f84f0aa8a7a1191098bc614022d9b3e96971e1cabef1e64c17e495",
        "lib\/Connector\/Sabre\/MaintenancePlugin.php": "8b109afbd9bc8dd0a624840a0a5b9f1cd35c9ef280484e7fed05df7a9821ce6a0c6bd3717bfe50372625b0ffe8f34874c3be5bf36c4990736ea58ba281cf245d",
        "lib\/Connector\/Sabre\/Node.php": "2e8137f07b52faf22925afbadf2fff1581a652e188f2cb18b163eef8f6da49eaf6bdb46c848f67043ba78e16560cc2e66e0f8d0aed01f4bc8b092c05c9e92642",
        "lib\/Connector\/Sabre\/ObjectTree.php": "03c7d824422c9462ba2e8c4c566fb0c9df0be1cbca656ddaf681d209e7944fb2599290a15ed5212ff165041ec9061e7d007cfc7d2f4a47abec261b7d73b8cca0",
        "lib\/Connector\/Sabre\/Principal.php": "14eebe89d9168a1de69f59a5ccc6cf0b5d93fb86a953b63151328567f655a0a91fa3e825a9eb413dc9a7c8009d68722fce789fe2e14c828e7cf7414420232ebb",
        "lib\/Connector\/Sabre\/PropfindCompressionPlugin.php": "ebfd67dc9524f73d245c9bd3c61d8dd59cb806f3bf7cc574d8b07f2f51317dad89785700d6d9df9a111c67ff957608e2b965f583f3ebd9b9f19bd1b89a300a1a",
        "lib\/Connector\/Sabre\/QuotaPlugin.php": "7499b79153602cbb0f00be8078cf7a91bd08fbb8ba78ff95cbffea3377c106d68cc94e2b26b87018a0435f41b03e062e850af56f041e13976510eaae337f6fea",
        "lib\/Connector\/Sabre\/Server.php": "aa10f208b8f8bd9bf1b9b3d6e7f6174ed24a198c170f1cdf0326575c5bd096acc42be3688bbf8a3147285a273f9ca750076b9c34018145a3777931c3de18d991",
        "lib\/Connector\/Sabre\/ServerFactory.php": "64a945a427fb85534b19e25121ea8a722b4898384614a97f6c13afa0817f8fd7067520bd36bfa1a4074b75b9786e8b03262a5f41fc6960de07ca4340a3d48488",
        "lib\/Connector\/Sabre\/ShareTypeList.php": "c3de66f17a75a7458227f99f5a918d8512f50c8f2b9e82ad7185dbd4b6edc385107004dab9afc86f0161352b4d8b1b6f87718d841123e3cd707720eb3d52e19b",
        "lib\/Connector\/Sabre\/ShareeList.php": "8f652009a9131d57dda3e16fa663e010f115fcce5e06edbe56c0db46a85eedde528ef763e9d3ea5d58695487e3c5be72269f115c1b06fe17681039225bf56b60",
        "lib\/Connector\/Sabre\/SharesPlugin.php": "e3a39ce125eeaefcfdd87a945707c63e6ceba4353e83fd545e5c40eb49d60e20c9a3ac5877f75c2522ab675b628b3305332c4f518a559b1b142abba1d9eae297",
        "lib\/Connector\/Sabre\/TagList.php": "07470d924907108974e33af13a08ee534fe821d0beb4d4abc9bef228a75e678384022ce43045db31117b66f08b1c1cf05b6e5cc43b69ad19aa5d94a97393a664",
        "lib\/Connector\/Sabre\/TagsPlugin.php": "a52187414fb7fad95e88a741cb5d3bdce78ae0bd60e126c9e92d5a0836e51442644502be6ff1b8f19ceb77373f24ec21e2ad96fd7c792c8e1c0cd09327ebb914",
        "lib\/Controller\/BirthdayCalendarController.php": "03bec47370e0698a0b4f44f5352a2ad06be6cbac4c3f9c796c11abcd94ce605ee53a5692fb37462b2d23179e940adc23c84291e2dae633eeef1eaaaf44ba1dbb",
        "lib\/Controller\/DirectController.php": "4591c4f2d2fb2546e726c1a5eede4228a564cfcdeee2bbeb4b48d56b75fe18588f871431b9435eb7c3a61d739b9021c1e1b8ada50227f3f517b55298802e5b42",
        "lib\/Controller\/InvitationResponseController.php": "5e5d0b6e8036b573d7968d0d8210d867a62c6f30b0ca1cfc171aa06b6b56bc234d59f5a9e9179bccf5d4852be9ac32b0bfa3df6a6cfc50cce1ee45e6c776d279",
        "lib\/DAV\/CustomPropertiesBackend.php": "eadd48018a2721f83afa5ad8e532501742fdae4da0cecdb23693fbccb7e187cb330dbd22ec2bbabc0033f6d07ec4d0e504eeffa664cabc541bc48de7a25d9e3f",
        "lib\/DAV\/GroupPrincipalBackend.php": "98a8f9ae52aac49042a3052c5c5c5622d12f4bab843b845029a767730f4ec6d496cafd07d54e9cd3d9f3aa65fd0b6a3abe4032784e58f7374da0102ca3aacf0c",
        "lib\/DAV\/PublicAuth.php": "39c4e6b21ce0b2df6e6a8cd3de5cc7728976aba49ef12dd2eff3a30f17a9c616b8ed380ff95f00e78cf0fb5da6527fe08ccbdb1f7ff46349e1ad99faff622449",
        "lib\/DAV\/Sharing\/Backend.php": "ce2f98488022600343b2a4737fbe0d0d4c0bf2a94c096edaa58106f049413a584037f57a97c7feab75ce8bb81a9fc178f1760d0dd77c27e33a83af6ed2d19a6d",
        "lib\/DAV\/Sharing\/IShareable.php": "98b9f59fae3a987140902dfeec799e7c54146c959dd433af249728bd3b9229aba7e3def4f2f6bd0ba1bd952de2ff466856a4c52aade6ad1ea7b5d203c9b07726",
        "lib\/DAV\/Sharing\/Plugin.php": "5a3d5f2bfcc12c4b8b71ee280526d98029ad4f83b64378357589f1b5fa0ac2d11418b04214e335fd77772644b37d8b9a6676b44bff29909ccab16f2bf6e2e893",
        "lib\/DAV\/Sharing\/Xml\/Invite.php": "524c89922924417927daca821e4ae5e06925f272df5109e4cb9e713472de6ff34f2bb7fc01868f324a43f14bad746d1fa301322f3d75633ee8c0a249266f025d",
        "lib\/DAV\/Sharing\/Xml\/ShareRequest.php": "0f202277b67f4be76b5f2bd34d22e2010f1d8fd823fb12a723717f66c2426ae748fd7057f567691c8e9c572022b8d328610911949006e305f2541c0f1bb52240",
        "lib\/DAV\/SystemPrincipalBackend.php": "d329765cb73c259c1b3b761018811277777557e67cbfdbadf81aa7cae44754a98f903335ca12ddd55572f165aa7f28fc8c17786a1e0863583f0793f78f3cbbb8",
        "lib\/Db\/Direct.php": "351d2ba6d12d31ae21142170c03e8a2739c85150921c1818dc00dcac09b7912234cdb9810404a0779915763c6e11d691a15c08f830ace909209b4295d3268781",
        "lib\/Db\/DirectMapper.php": "bddead15586a55a5387875eedd9cd373cadd9f1ca28ab4fdfd45c1984fd5bcb9913881e3c67513e6343bd725e7f298495c887cce5733a7e8af4c4d17317eff66",
        "lib\/Direct\/DirectFile.php": "8eb512c122810e56923d42db0dccd40bab5abbce8f6892c2f0af5a366e2d9f710b7f55612957005a96cb1b7f2de07ee1ef12106ffac6332ce4303b9f5392e753",
        "lib\/Direct\/DirectHome.php": "11fdb0d1ec37d6dc6248bfc9d9d6a63c3fb10152eb83f51a85f2336250cb36cf26ef6930d5ff5b929f5484b5c33e9743da9aa0cf24d5e67803aa402cf0a9bef2",
        "lib\/Direct\/Server.php": "3663313ed66737ddf469d9d912c91248428b3f2e48b2e3d4ac6231790f7db14c4ebab29db5570a59d2733d5958b094565e51980b2bf3c479ba42b3fd32ff3595",
        "lib\/Direct\/ServerFactory.php": "0fab1f915c8e9994369eac9ff0837b62d32dc27bcaa0a95c2c6a6230fe4ec9ef2da09876379b5057d0d6596d235b4378c6d96ef0c63526a6ea5c94b687a6e113",
        "lib\/Events\/AddressBookCreatedEvent.php": "ee2b022ef7cab595ef3031966f5612a496575c89eb1a21da08ba6215ff5f9236fc10f243f599cc403b62c4b5f2b98c40271e7c0df6e9b4424005cc22beb241c5",
        "lib\/Events\/AddressBookDeletedEvent.php": "ca96d0707ccc1bbb12cf9e25988612a93a1ab1713110d93164c84a38d567f63f3c76f0194c8c9baa896fb2d9e214edf7d91aabcfdd507557901b8dc27d5b1dfd",
        "lib\/Events\/AddressBookShareUpdatedEvent.php": "d7128846aa63e49b9c5abaa39cd13bfdf7d4e3fa502bdf369c75ffe824c642b5852e31f59569ce2782a4a811e698b5c1285a090a2285c89921e8e3abc527dd6d",
        "lib\/Events\/AddressBookUpdatedEvent.php": "6a5ae497c490752787245e8ff72efe1dd85ee52f7517ca0f6b19bdefc5a99c761ad204edd320710d15e915e5e087d1e77522633b29b3421bc472caf3cb09dc37",
        "lib\/Events\/CachedCalendarObjectCreatedEvent.php": "46788b4f6aec2b1006233e790c5760fada265c1d131c9c1948110c1d1f3d5e2af1e8cac57b95892221cc863b6023b947b4becba4241267556eff1f9b025ffbc9",
        "lib\/Events\/CachedCalendarObjectDeletedEvent.php": "4c7f2b99fa8e2fdba984e050e8a8d5dd0bf1af5a35133a1488337200b2efa99c2d0fb2bcfeda218c7f0114b2c6f0ff9e7d02ecc3b9cf25384d5aaf91e5a15687",
        "lib\/Events\/CachedCalendarObjectUpdatedEvent.php": "d4f28c85f3f1c6267bd02fb7c46e0848470233654113a8e3427ddef2905dd10c35f38bd753766c4d7a4d5c2f0d2284105af82c0c508f1d0a726933a8ca6c0fd9",
        "lib\/Events\/CalendarCreatedEvent.php": "913e903b519569da25525e23f0c813d02629c7c3a12f5c8a4ffdcfb795d3054ea585cfcc1650ecd248aeb37f724a98802d31fb718a3c64b6b3cdb5c9005be4f7",
        "lib\/Events\/CalendarDeletedEvent.php": "b2c4ae4221ab6b53bbffcc6a38c573e338e34f6c4051d1ef66203ecdbfdb1845b2d1daac54e2b2d77fb6b185570ae74f103176236ec0565d88178e66a10ba210",
        "lib\/Events\/CalendarObjectCreatedEvent.php": "b3f51f162935cec1c4ae77ff177398aff75daeacae0b1967a1fc8ad5d6e1b3f77b966546ba109f46cbd70031317d6842beada1ac2b697cdbd13eb8663f84e1d7",
        "lib\/Events\/CalendarObjectDeletedEvent.php": "fdea6219a7f1619adec35522762aae2f25f1046104f0a13f8d82ce7b3f6a1dc451210ef6d9c0a80bc4a59b7276a564517a72dd659ba183612dfee196547d148f",
        "lib\/Events\/CalendarObjectUpdatedEvent.php": "096a75e2c85818f075519da2e3b2520e4c88669e6a591ff9e4f7870343ba33a7446477845299866187eca02d87663e19056275f4887e8d6295111282a5abdfcb",
        "lib\/Events\/CalendarPublishedEvent.php": "c452dc460e40ac1ad1e4189bf003b948753cf17ed95a8003495b746238aac739fdd907560fa6ce85570db8c2cadeca7d58c395eb635a28d9d018849e416f163d",
        "lib\/Events\/CalendarShareUpdatedEvent.php": "98cf995d318913257234ef165c449d29c4fb3e5567484248e72ff2414a4ad5081fffc0b2efd1dfa89765dcd85e3f49371c88a3abb636f380e65eef4ec22fd0ae",
        "lib\/Events\/CalendarUnpublishedEvent.php": "a40604998239dbcc5ce84e506974c74f633a5896e65b7c0fb231106526c2574ba58cefe7f847aaed59f679ea0245561d9d88e5bc011b7ed53cc6b7544572bf8a",
        "lib\/Events\/CalendarUpdatedEvent.php": "b89b462027bfccaadbe5929aa9050bbce515a3e83f2cca90254baebca209b93e4d179790a6fa496f53574b77d6d95c1f2adc1b5f03a7c3072be935cf0a4a0371",
        "lib\/Events\/CardCreatedEvent.php": "b1b348b7ed3c8afc6b9ab92a0bd3ac0f9952034b9dfea1e18923a1f0a6f50a9cf53bec3da519dd5bfce240c4c8b30ee8da891d6fc90c6626af92ce8ea570e821",
        "lib\/Events\/CardDeletedEvent.php": "f192ccf43f3059a802bf8dc958e365a48b07b86e4ec2a14aaeee4e03b58874dcadef070ac59dc735ef97559df4da50ba2865874f65161422ede449a6b0bcee76",
        "lib\/Events\/CardUpdatedEvent.php": "c28b1bce6de113b1b84772a1d8bf84197494364e0c1fb736346b11d0f87f34f3d40a52628a439deb6cbf15aa98e8b95ab5626a5f8380f33aab59fddfff3c1b35",
        "lib\/Events\/SabrePluginAuthInitEvent.php": "0f2ff0394837fca0278fc89da5f57563413ad98738d172ce993d37292199d567bacb0a4c005e0cc91b16bbe0d80f74188cfb6c2ec4a16c5658778a65351e4514",
        "lib\/Events\/SubscriptionCreatedEvent.php": "13315cccd3ef41819d52b36c5aaf46faa49eb307be96e636302a3af8c5c3d5f37aebf328f7e575d134200bf0ef552dbb0103b6306fb15098c05770c809ab7b3f",
        "lib\/Events\/SubscriptionDeletedEvent.php": "3986c0b067bac997248a6e210b37db2188c869fb0f88fedb57d772140b8b727b47a7d93a0106cf1dd841a1188d4697eda3e521ad8da038d0361dc4b52797706c",
        "lib\/Events\/SubscriptionUpdatedEvent.php": "bc8665a32e232ddec92cc3c3365f7ae7a5abdf9c49db608b7f5d934430825c1c879954a5f00d366ae3524f7d1ee2f785feec16d18511f221c6099c67e2dd43c9",
        "lib\/Exception\/UnsupportedLimitOnInitialSyncException.php": "6dd9dbe8e9a61ee57af949d6ba2214d22c27cb6c02c6da272d8141158621b877d1f689504373a5b17ca879251c0984e1d9043d66fdc8d724cd64ad2faf7fec99",
        "lib\/Files\/BrowserErrorPagePlugin.php": "23660d5c62baab20f111befba0a2247b4b07911790e7adcc87be78bc3bddd71f8f4cf62d2c109c517ee93d491ac9fa41ad7ef3ecd167e704168026aced25c465",
        "lib\/Files\/FileSearchBackend.php": "54def9c98863486dcf08ab4a0ee59a3ff906c40e41f6d7f0d3022ec8f5cf55e3a5239037ac8dc4dce7fd4bb3f8e2c0623230de33e5e2452392e2470e59695055",
        "lib\/Files\/FilesHome.php": "8055ca83ba77108492710f7b3eef79a4583bf02a0cf41dc924289a2e463f75812832eb7710be1b62a72d3e42e78d733905bf9eb85eb1506178873e31c2d516ce",
        "lib\/Files\/LazySearchBackend.php": "818225fbff94e7303542e7e47871dbb33374db7880775026097896fa477763ab8645f0f8add5c03641a591ce9bcce710068a0e9f7961c4796bedfc009b318376",
        "lib\/Files\/RootCollection.php": "321ef3e7bb55a3f13feed1653dd599c9c86a397033d234b873c093cd80730a7389a13415ad5d3949a12d36754cecbc4fa2725e713b5ee05ebba045dcc0bc0653",
        "lib\/Files\/Sharing\/FilesDropPlugin.php": "c7c88276272c632f4066dd3a8d17597fa42b6ddc7384138b1917f5e8d6a419900b856ffc52d8db1d8d8355cfc206debe8f36017899baa5dc1c09148d1d78ad62",
        "lib\/Files\/Sharing\/PublicLinkCheckPlugin.php": "c79d02316bc4d2c9e177f38601d8fc15895cbf26c45fbbfec0f1c566cc129454ffd1cc712cd367cce84df310eaa1239251a7ca8e39b3cb8a61b43710041f1fbf",
        "lib\/HookManager.php": "b2d2b12496959882ac90c61ddda8aef10993ed231ccad598328f9de0836b8f4e2861e1284e4dc1172e84ed6fd429fe194f81db01d7ccac209f865e05f0003dd8",
        "lib\/Migration\/BuildCalendarSearchIndex.php": "a6e8c141ada8e431c23a1b3ccaa95737cfb5789c20bfd02bb3eb32fe05235835fc92226fdb0d82d4a3f9c52b4904bdc514dabf6ae6e1c2be8236c630e7285f2e",
        "lib\/Migration\/BuildCalendarSearchIndexBackgroundJob.php": "a8ff73e92f9e8c51954069e647e2697a3ba3b24c73c3459dc7fef1dfabf1dabac985d34d7c316ff31e3b817aa5dd307947affb1baaad2ecba831576c4899c2fd",
        "lib\/Migration\/CalDAVRemoveEmptyValue.php": "f34950472b183c61f7ce07a90edd896c9db1ea606f0a9c501245b48d6acafe9670a787eb8154cfed75c2e3da87216d046baec3f39d184e9f9c848969e86e25ab",
        "lib\/Migration\/ChunkCleanup.php": "e1d5749681954b828441ff911f95e6cafe8cbd86fa52fa65f08fe08424f88931bcbbc7097b8046ac33baa03a6a75ae5fb0af2caa1ca353e3617a23b361a0c059",
        "lib\/Migration\/FixBirthdayCalendarComponent.php": "95fcbc6a2131dbb9b31d6f62ffd37f3154b734dc62ae0a7d9305a2a5a192390c15ce4a18e8ab10c536148a1dc156643d06e33522e3cea092ceb73a9d4788d343",
        "lib\/Migration\/RefreshWebcalJobRegistrar.php": "b55627c93301369d08180746d61a3f2234491a38408c8440783dafe396b8d671af562fa2cff7bb89ab852d4c7823a86e3170a1b575357a602f7c98da55b024ae",
        "lib\/Migration\/RegenerateBirthdayCalendars.php": "f26101f28e9254d6ad2808474fe8743367b5a7ff06f13adb98496c542c0b2d23fca9432a100d35b7a836f7892a74c4178f10a3a6044eb92a40549294643e6b6b",
        "lib\/Migration\/RegisterBuildReminderIndexBackgroundJob.php": "343d5d06345fee8ab97254c076f57eda84615b6670d0db62bf5147f4a5fef5f592e0f2f7b0e5f20cb16900d2b3caaf2c1a7e05269db8d68af377498634f1a1c3",
        "lib\/Migration\/RemoveClassifiedEventActivity.php": "0d1f07f9bcbc5df7d6c89f47ac7eb52081f0a1721efeadd45758b8f7edaeb744077006cfa56b1f6d8e0af7e024e4ef22bbfe6b4937f24b4c71ed79e5be2040b6",
        "lib\/Migration\/RemoveOrphanEventsAndContacts.php": "eb115e78065658fedb3a67969b064e37993552138616bf1bf3e1c799210dafd623700efc45ba2d29949ad8d9cf7582bf883dcdf28a678ab99578c5697227461c",
        "lib\/Migration\/Version1004Date20170825134824.php": "b8fff843517e9109ad747ee4366a7fb347d1f5c1c7c70751c05597c437a7b0b7ec1353220574a0d68b3c036ce547cebc93b7e3cd059a3b3ed2e29e86e4078145",
        "lib\/Migration\/Version1004Date20170919104507.php": "cb61a17bcc557b292f0be62eec845d8c9ee4464d4ef491822be6729c719bbe29255685cc690871bfda440e7e80b4381ba2561c1bed4607a3a3f736295d855d1a",
        "lib\/Migration\/Version1004Date20170924124212.php": "18e5f14a93ada3acb3f41d98745235e6138a89f9865a534aaa37de4b95d71ed165fa06dd0693abe83e4ecd6df66b4cec89fcc05c33e4f1916f143e8a23124b74",
        "lib\/Migration\/Version1004Date20170926103422.php": "7eb5b732f40f70df85561b16cfd140aafcbf0685381455dbdf106cfb76e699c4c4acfb46bb0d8f543c59591a02d81200be32164816835bdac3711968395aa5cb",
        "lib\/Migration\/Version1005Date20180413093149.php": "64adec9f1e2979f6f8d6db14eac8d0374a6b1b4d24e028edc4f776ac9aa323d9a1faa82a6d5cac81a245bb98801af04d48c1fb692055a6133b7a3987b7ffef2a",
        "lib\/Migration\/Version1005Date20180530124431.php": "7c9f0e9ae24a64d4e21b0cd4d4dc1e9314b1b6ae2da84730d9106b894e2e2107bad7519abdfa33b59b00647a6e35bc5eb008f97591f9f9c2c0ad6e189784e86d",
        "lib\/Migration\/Version1006Date20180619154313.php": "e3a76da595478775f9a8ba165a3ea70cb83492230b3a1751b629abf85eb7145336682b1ed1b4c05fd95946b1ed2835c25251800b0b8feb199146cd019526840f",
        "lib\/Migration\/Version1006Date20180628111625.php": "af574e24d43533c12d04bdda3ff937669a33f9eb8cf6311b6913afc5c31f4197d4e43de138cea11fbbcd421808545ee4317ea08a1b96065dfee4a2b6f77ba792",
        "lib\/Migration\/Version1008Date20181030113700.php": "895e63b5f71b8a26d287b74990305f68c174e6f68f61c349470f5d032e0cc27e72fc5b74437c2fc28c851b4298c9c05d2bc363a3b111b87297008a4594e9d44d",
        "lib\/Migration\/Version1008Date20181105104826.php": "636ce5c00a9305a1e558bbb4a92098b90be44815bb86d5a9a4e4e9e9410b76f71e615f843ed37f66a961c010a359dbfcae547decb25ae026433f7c67b3ee4278",
        "lib\/Migration\/Version1008Date20181105104833.php": "c5366036bb43ba7f01747c1fb7eb5a62a323c5509f69b364db332100653914206ff7c9ec4a76a5c22054e94c926bb2b046dc689443761c83f2ba6ded21b791ed",
        "lib\/Migration\/Version1008Date20181105110300.php": "e47c72489994f36c574fb4f591836df6a7d5f6bb79e3aaf2e29b98337cfe4add5977a44d8f6261b6c57aad6e73ebb668b26d3487a187af38b2318fa0df553572",
        "lib\/Migration\/Version1008Date20181105112049.php": "49e14a9846b463cc33088ae6966e23ab721217aa3e5d91e75fd1101315cad3378caace845bf4a2ef03a6b31f29771323eecc98f4f1576dbeec7c2097a94f8ed5",
        "lib\/Migration\/Version1008Date20181114084440.php": "e95d57a14c9a8da12ceace24f6a68bf789e9a8b6d13008c40a5dbcb63a1ac91f69c3bf4ec8edfccfb3460e110f27e06690ebd8ea7b96618e0fc2cb3e313aa5de",
        "lib\/Migration\/Version1011Date20190725113607.php": "4b70e5342d42c8f49c51e044bc9b63b13f3d0f07a54abdce6c13d786f47d862522ef06feea114621738d39507e44da8eba2b5d53e0e5efd117cece2ff2a594b9",
        "lib\/Migration\/Version1011Date20190806104428.php": "22f389619abbe72f1dfa46ec86fcc2cf479a65ae4034eea3907e23db483024995a88deecd4653f004317e524f022397d734fef7a89751ee078e5eabb69d49af1",
        "lib\/Migration\/Version1012Date20190808122342.php": "5b3fc9bbb018f614126994ad89f44a3380dbf63c4f88a7d0faa3e5c9f8796cad1a90a0ce4eac753cfd51ea1273836ecbe74adc7afa0f8a4e1485bfbb015e1357",
        "lib\/Provisioning\/Apple\/AppleProvisioningNode.php": "a43ed14328126c466ee078e932a04b8915ff5d60e6758a249cc5c3e0e2e33e0755e47b7c87cd36f44224d1cec435e2c6edc9ec4b6811812cb398c407ba914686",
        "lib\/Provisioning\/Apple\/AppleProvisioningPlugin.php": "e63e0c2df6e444851bf7643bb82e3b37e43d5900f007861bdf1d51ab8a02c4e4156d1773c9e40e0fb179df1083ea7d7f5767beda49f77645fd13b84fa2d2f5b6",
        "lib\/RootCollection.php": "8b23dd193af52957b162db1aebaf48adc420af8777d746e1a5184fe697870e2f799e02e1c33066528e8917d3697a871b79d14c24fbe2fe9b5c9f47f336f25c92",
        "lib\/Search\/ACalendarSearchProvider.php": "b823cf14f3a7a58fecc6b8180ff3cc05f8d4f2580485dd340f43bb0bd8ff7ac6aa182a52696329d5b0b25d3fd0570836acfb5ab240ce55cc84c85d618083147d",
        "lib\/Search\/ContactsSearchProvider.php": "94ff18008d1753a5cec4e723693a4929233f11063259f8822a08f6d3db7f717b59f9229e16e606bd07d8ee5e6a68a904f7d1391a1a82d1c6685b2017b7f649b7",
        "lib\/Search\/EventsSearchProvider.php": "7f757a94d67ae8d84508f74549053d711424c48ce4297b1e780d587620a54ef5a79216823d5dd397ad4a002dad19253e5537d9dfc65b9fcb8814f456985b1622",
        "lib\/Search\/TasksSearchProvider.php": "5460147baed43d6f69b72c9b2cb7e89e077bc72dceb5068300edf3f91f01800295549494c8ddcfda7111f47f5787c900e572c0c535a940b26c8edeb97560deee",
        "lib\/Server.php": "cc9b760546a6caa35c7e08ce7820a5208e2fa596315359436ff5a0cdaa32f1958a188ab74efa8dabff7c2a9def03190bb4d40e6f0c744691d0da5add706a71bc",
        "lib\/Settings\/CalDAVSettings.php": "67063e880066a05c67968bdbb37a5b7890e85f8f522b97573fe3321c7e4d05194c7beb746dda67c0127201e513af023b301796e3b544d961590de3eda867b091",
        "lib\/Storage\/PublicOwnerWrapper.php": "5059293612e7180bb132f5bf765d6da89e3e421f490c6f27253643a489f7635c13617bdb6bc8ad9ac77654682810b8ffd7971bca32718a5c8a3c35d93a5cf17b",
        "lib\/SystemTag\/SystemTagMappingNode.php": "5025ce86fc91f67d536221d5898c8f61252282476cf7a29d1800abb3e6fb5ac8154f6d80829297a7ca90d21d5986b89b2bbc576eb8d7062ef6d22db1ec36a9aa",
        "lib\/SystemTag\/SystemTagNode.php": "6cd8a4bf7666fe9502a7536fc3371f117c8210c7321bcb138f233c793af71ca34477ea223a3f621ca84da3b1a7a1559020ca2029c1170e802f1e7472fef5cebd",
        "lib\/SystemTag\/SystemTagPlugin.php": "da70ad7ac4ea4efaef495ba3d52ff1a5416e6ef1e4502d70fe32e52d150b3dce6fb6d3978d60eda6e66963b6973a39462ed43f32a15c1b01c57a7067c6d417f9",
        "lib\/SystemTag\/SystemTagsByIdCollection.php": "7ab6d72ec9b784320a614152f7c3fea4921afa9737160645a0417a0b27b754f11b10cab05e17723b3a24054af8d9afdef54cec4adc53da89171da1311776dbab",
        "lib\/SystemTag\/SystemTagsObjectMappingCollection.php": "03888fadf4cd06748cabfbc669881b868610d1fc311a71a118056706b049c97cefb2ccceaa0a4ec8d718071d2575c03faa6fb26ab1bf9241c7e57a6fb32f01e0",
        "lib\/SystemTag\/SystemTagsObjectTypeCollection.php": "89dc46fb99d675f482667f47cd0d8e6c12d1f913c1f2bc8b2bd06a4c5bdd6aef2067529c43b100b8af58e07a48552a8bbc33da5583456dd84a7901018af6a33b",
        "lib\/SystemTag\/SystemTagsRelationsCollection.php": "4a7b884258483a41fae1e3837b02548cd4b4fea7849d597c1d8e1f4bbf0cffd906b528c7387beabcd16e3b9f45bf2f84dd66af04f48cf3b4a5056b14e226d3e1",
        "lib\/Traits\/PrincipalProxyTrait.php": "238e9c4c3155831d070d4ce20519cb4996c334be1186d7d93dda0ad5d528edbf55bc26ca46f331ff82f1d391e3c3e7f8c46c07979b5b5823ddcb02f4de5d895c",
        "lib\/Upload\/AssemblyStream.php": "a80ba71775e169f3aa93b30042f142856a854ce6046addc60c552e285b65b45ef2a35792a6f8237b983f02017635e88e51d097607ff92a481dea902a13c08036",
        "lib\/Upload\/ChunkingPlugin.php": "b610c0292501912f3ab15daca6984bbae90fe2926e23ce59b04005b7b06e6eb9b14c0b91bdfa991ca2ee96e7c789fc8e9caced430420ec1575680f2c6512c303",
        "lib\/Upload\/CleanupService.php": "9be09b9cc19224f31d9f812c7d9f8a52102605c0bb6d0420b4682a6460160fa463dac5b5f411212f95150804b86e5ae719e60219382803014f711d43ce5161ee",
        "lib\/Upload\/FutureFile.php": "9c89ca2c5d87529552626e5806f021777fbf9ef7e0456b6b9d64537b45ea4730afa7f105f549170cd102030895b37e5f1bd3851d95ff9b5f28562060b118cc30",
        "lib\/Upload\/RootCollection.php": "c24a456a64f37c06eaf93c136c269e3f21db099303d559b6bd84dd496ef305ef944770de4f9b4387366849a0c08e8e63ed45594f9030164160ed8158a5275875",
        "lib\/Upload\/UploadFile.php": "c5d0adf2f7844859bc1e120b4bc5a3f74210f4d5c7af4780c33d4b325907170288f7cdaaba17748a700df6a51ee68cc12d8b3e3a1a7ded55e053fd6601edf0d8",
        "lib\/Upload\/UploadFolder.php": "9505d7eda2be4bbca46464cf8e19d515eeeb5c7b0d354b637b1104591b4a6409b989265121aef4806814bf40f757d8d665418857e2c8004c13c9ac765f89a733",
        "lib\/Upload\/UploadHome.php": "0137773d3c9d36d47af57d4ee205ad5dc5727463921ce7752f23603bf151e5630430a6a1f2cab3c6161c4c518f1cf0d7cebe9a845ca36e17e594df44a9029d86",
        "templates\/schedule-response-error.php": "5198d6170d4ee56df265fa75f27ca6419d88d77147f4d1af38c80cb5c5b26106f31a86ae3f6bf612c70136ae1b314b3b5a956d451729635bf209393e0930419d",
        "templates\/schedule-response-options.php": "dc40b6aafd876f128574a0425bc0e723a55959cf4efc592dc265dec30e7aea3e8879a5bfc8d42e457ba5fb741438d66d6a3545ac0fc2f773d7e06280216d64ea",
        "templates\/schedule-response-success.php": "9387ef85e978d121244a3a7a63cae915fb8c899f12b167e2cd65e512bf61dc8f0278d108624fecdf5642f037d21d7fc4a29488f6e0695bcc30097a741797de0b",
        "templates\/settings-admin-caldav.php": "093fbaa7c4af18680505960bc7364c9fcadc268a513c13b9aba374da0d032f3fe9632e3d983f45a3a3de85f8d5bfdd5e8943e4a64bd481cbadc657bd801ddd93"
    },
    "signature": "NdJj83lUNz1LQ9xWTLMcF8\/bQfscvbH1edV\/gEZRCVjcoTjy9HuhqIyN4kjRByyQ2iiRZ1iyYYBSK76qye5BE6ZsOmOZfN1kBEyjZDx7m2IME5zwFEKxGe9srA\/cSumG35qrzFZmyVh9VJVbBRDWE8PspRb9c7wGlc0CztPRPxB4G\/Flv+2Y2+f322J7GBGztrbStksn\/Ke\/ljLoZH2jGiufGVtmks7f6dNX7Es6F7jnSnDbs5J9NkPIv5wYAuEB14Fv1qqSebOLlcT5+e0xZMfx71KSghRTY1UxPb2dIA2ECfSff1zQq69MqZ1Yka9JNlylau8KPgDXGQaQw0U70w==",
    "certificate": "-----BEGIN CERTIFICATE-----\r\nMIIEojCCA4qgAwIBAgICEAAwDQYJKoZIhvcNAQELBQAwezELMAkGA1UEBhMCREUx\r\nGzAZBgNVBAgMEkJhZGVuLVd1ZXJ0dGVtYmVyZzEXMBUGA1UECgwOTmV4dGNsb3Vk\r\nIEdtYkgxNjA0BgNVBAMMLU5leHRjbG91ZCBDb2RlIFNpZ25pbmcgSW50ZXJtZWRp\r\nYXRlIEF1dGhvcml0eTAeFw0xNjA2MTIyMTA1MDZaFw00MTA2MDYyMTA1MDZaMGYx\r\nCzAJBgNVBAYTAkRFMRswGQYDVQQIDBJCYWRlbi1XdWVydHRlbWJlcmcxEjAQBgNV\r\nBAcMCVN0dXR0Z2FydDEXMBUGA1UECgwOTmV4dGNsb3VkIEdtYkgxDTALBgNVBAMM\r\nBGNvcmUwggEiMA0GCSqGSIb3DQEBAQUAA4IBDwAwggEKAoIBAQDUxcrn2DC892IX\r\n8+dJjZVh9YeHF65n2ha886oeAizOuHBdWBfzqt+GoUYTOjqZF93HZMcwy0P+xyCf\r\nQqak5Ke9dybN06RXUuGP45k9UYBp03qzlUzCDalrkj+Jd30LqcSC1sjRTsfuhc+u\r\nvH1IBuBnf7SMUJUcoEffbmmpAPlEcLHxlUGlGnz0q1e8UFzjbEFj3JucMO4ys35F\r\nqZS4dhvCngQhRW3DaMlQLXEUL9k3kFV+BzlkPzVZEtSmk4HJujFCnZj1vMcjQBg\/\r\nBqq1HCmUB6tulnGcxUzt\/Z\/oSIgnuGyENeke077W3EyryINL7EIyD4Xp7sxLizTM\r\nFCFCjjH1AgMBAAGjggFDMIIBPzAJBgNVHRMEAjAAMBEGCWCGSAGG+EIBAQQEAwIG\r\nQDAzBglghkgBhvhCAQ0EJhYkT3BlblNTTCBHZW5lcmF0ZWQgU2VydmVyIENlcnRp\r\nZmljYXRlMB0GA1UdDgQWBBQwc1H9AL8pRlW2e5SLCfPPqtqc0DCBpQYDVR0jBIGd\r\nMIGagBRt6m6qqTcsPIktFz79Ru7DnnjtdKF+pHwwejELMAkGA1UEBhMCREUxGzAZ\r\nBgNVBAgMEkJhZGVuLVd1ZXJ0dGVtYmVyZzESMBAGA1UEBwwJU3R1dHRnYXJ0MRcw\r\nFQYDVQQKDA5OZXh0Y2xvdWQgR21iSDEhMB8GA1UEAwwYTmV4dGNsb3VkIFJvb3Qg\r\nQXV0aG9yaXR5ggIQADAOBgNVHQ8BAf8EBAMCBaAwEwYDVR0lBAwwCgYIKwYBBQUH\r\nAwEwDQYJKoZIhvcNAQELBQADggEBADZ6+HV\/+0NEH3nahTBFxO6nKyR\/VWigACH0\r\nnaV0ecTcoQwDjKDNNFr+4S1WlHdwITlnNabC7v9rZ\/6QvbkrOTuO9fOR6azp1EwW\r\n2pixWqj0Sb9\/dSIVRpSq+jpBE6JAiX44dSR7zoBxRB8DgVO2Afy0s80xEpr5JAzb\r\nNYuPS7M5UHdAv2dr16fDcDIvn+vk92KpNh1NTeZFjBbRVQ9DXrgkRGW34TK8uSLI\r\nYG6jnfJ6eJgTaO431ywWPXNg1mUMaT\/+QBOgB299QVCKQU+lcZWptQt+RdsJUm46\r\nNY\/nARy4Oi4uOe88SuWITj9KhrFmEvrUlgM8FvoXA1ldrR7KiEg=\r\n-----END CERTIFICATE-----"
}