{
    "hashes": {
        "appinfo\/info.xml": "eaa6655a895e75f58d8f630e181eb753766ab247310227dfd8ff0e915d643f72fd7537ce0e594528e4f27cd1a68b04778cd0dbbf018482de7f5aef93e0fb7576",
        "appinfo\/routes.php": "6c07792ae3e6f44b7584ca513d314263e14b1ce45161b8206eb3ee099aeef28d8115c301335524b29c28878d545aae6de84d7c90e349ad485f64d097fa4f98ff",
        "composer\/autoload.php": "9ee1809dfe48da7b5287e15efc8570b2c8822c6b18671d3de44adb759a49b9ea2c5bf98e642fd9ab5741c64f265d6c79e75afa1babd1dd8d15d45ca243f64efb",
        "composer\/composer.json": "ba5345993a33bc39efb45bc207143e532b29794ff47377dfe2045adb0021aefa69276d97fa983e260f4e1cd8af77ce6f2e6ba75797c5c812a0162ab8757a5cc7",
        "composer\/composer\/ClassLoader.php": "6d630ae5c62bd43ae490e02b0e1eab6f9a4b92364b617e0dbb4404ff11bc33db238568dcc3df9d8de616f191109853bf9d9a408030f1252fa7e420e5321227af",
        "composer\/composer\/LICENSE": "f3bb64009f41a425df5a9bbab53490f0eb9b74fa8d6aaa2f57efb928edc4ffff330260666edeaa04a91fed708c3663371cf01b284f3a08d6698aaef7a23f355a",
        "composer\/composer\/autoload_classmap.php": "97d9720ccfddf0a83670b026e836ceccc428b01ae0c4e9de93cb490a2affb73db2a2b31e8df3c549da5aa0f3d0cd5e64e9a23005caea2fa820d7578f5c113e96",
        "composer\/composer\/autoload_namespaces.php": "dd8ee31d2faa9014fe567e1f954b5e7f450cf06feacbb96d4df663c59b1a36a0b7d26ad41b46354bd14f282fa7899298137208d1851099cd3ada285650efd90f",
        "composer\/composer\/autoload_psr4.php": "d5aff2e1c636c9673c837496babc9d1b15b6a2d56a523b12d205a217f04402ab12bb4b5f554b3c4f8b0715be88f40637c9b11cf331e8621ac4cf514aaebb5725",
        "composer\/composer\/autoload_real.php": "196addabee79473726f5285fdd7439425e8f18a7588ccd8f038e073911818a0ab3f84f95e19de31c2b94b745efcc4b106e017724fa04d769641371e73a190b4d",
        "composer\/composer\/autoload_static.php": "1eabf858cbd7a8402dfa3359b0e003575ee799133d2cd48befb99fa43f8904e8fb5d44b55905731ea7e6f1777ea6567769ca0a1a4008be54c714ec1b3f0a6a5c",
        "css\/settings-admin.scss": "ed79c73c170f1d5086b23942cd32496a05f6b5729f30b04ddd09bbbad3c74ee924ff6763e4fb5291038d5514a46081b710d02bd6e7ce6ce65a656a3935f98b6c",
        "css\/settings-personal.scss": "b1a794e93db53f818069257249055035da7a633a272778f702b5cb00eca07284c3965f104041a62c30529f741a5cfd9a143ee46bac82a5f217ae04213b696ff8",
        "img\/social-diaspora.svg": "a981d843e7cbc5e42cc2777845a0f6a9dd75b650dee6e51316719a0be6bf761743b4230686e16be2664c6e03719ad7135fd59bea80934ab7de575c60f1b50862",
        "img\/social-facebook.svg": "6b2abb7f65dccbada831e4249a05ae3cdf0e12aaafcc924b8ae033b8722fd41129801e611468d9c070eed00f340727f19cff296ececf12cd3697a44dd234355a",
        "img\/social-twitter.svg": "0eee6ba445c8e11f9f54ffd38b2ab5a2834a026bc6d0161c41926e02d599d15f11756330900cf4599e15aca7171fcdfdf28afb05e725b48d2397302a63c718a9",
        "js\/external.js": "a950ee991706308e0fa27c6c907cf14e8187f3d26c5170c99ecc89adc8f3421df4a1888d82a2e08a0f71f158451373f6757f30640ddeb0e3958a4a98612d7b8f",
        "js\/settings-admin.js": "7de337135e3f73f0814b7c63de727d7945b981e294251bbe41e60278daa3ded3033a904b565eef946ccb79647ced49d0e9d4ec2940782577d5db848b16315c4d",
        "js\/settings-personal.js": "318b4e6efae4ad1b59c182483e116de3ff0baccf0898bcc5ef96ef3e51086414f7ff063777a47ff2015fa76eb5d5d10d126fcbd8b2e499c8f0e09ec670f01b5a",
        "l10n\/ar.js": "9ddfb5ead68cd988ea755fff8c7377269ab3694f8a63cd9e632e05e03e6bf07c37993c6cf7f9e1e82d1714c2cc8ee68ee346048db573e196479a79d872ac3935",
        "l10n\/ar.json": "a4d3762f099de5ca6b9e6bb20d4d91913f2c74340d90332027552a5822048ce60e3142795e778e9a7106c6adfcb5448eafb55f13f8037cdf9ecd9a5bf85bb33c",
        "l10n\/ast.js": "0d72bc1e1a46bb0544bd57057673ec7da657b7da57de998b92590cc1f0a70d2a728020b010c6ac14f6f1f6ee23a6a40e9f898e973b03c73927c163c5ec60030d",
        "l10n\/ast.json": "edd0886603620ab05129ee654ae926bbd25d5d24cd04a4dc871f0547ad8f5ec8d064f084fb6fb6febe2407b71ee3722bde0b4b8f6b3e133b4775e5cba18d6132",
        "l10n\/az.js": "eebc8348317504dfbfad9675421cc364b1e109f3860be4a8f70af74b9f871ecc0b311f6a943a5c1afab77813302708c075a9e3b52715ad9ee213fc099af95a48",
        "l10n\/az.json": "10e9920893a747042f72f6bb761eacd89199a9feaeabb11ab0d22bbbb1f996f304900999da947cf26fef4aef0efffc2db1bee0b87d16483818c1e640ac74d4e5",
        "l10n\/bg.js": "b4409a6152bc6a51183e457dc221ea6a0bd01bb50adf53e32533d520df8c05913dd09e532e8486dd212da45116bc997995979eed819fe31d933b6a5976bf8c09",
        "l10n\/bg.json": "ee631a14468378c09b4a02c510fa875bde361e44deb2c45479ff04caf148d6901c3a2f26b37209bced17ff5e7f5687c4ec0170be3214ac5fc40d6a12e22aaac6",
        "l10n\/bg_BG.js": "c42d79dba0856461fd619cc7d58ee0fa7560c3bf42e43eef6238e3ef997d06762b2178843f24fbd5fc349d3234dbf7033a66b093e818b636760f955d46feac12",
        "l10n\/bg_BG.json": "ae0c31953a6eddedf44aa7ecf07a8ee41d968f07b19670210d03782a131733b418f596dda3d5815257a5f20833c7c3fb7dc5d7c53490aa1d35686d5f3567f5fe",
        "l10n\/ca.js": "be878dc4ef79af2fe1699412d77af72886255f0ec4c45d38a8f7b59ac9c0be5e172f9c9753f4f8ed9c4e4517dc38f34324b8703eca2659bba57ff992ac0fed1f",
        "l10n\/ca.json": "b3ccf2ccddf6cde997a8c0fe779a04bfe2f1a23c04541ca1e295e588ed80c7867eafd3a9b22f400e25292c3de1bc1f4f50de4de58a956dc8833dcb63a9d81b92",
        "l10n\/cs.js": "7a37b278ec37c8631a408824675ec15986f24ebb3029786180770ca5d849b13bd4cb03b2173a76aed893cf9d4f064cc5649c5aadd436015e5e4d7973f677005f",
        "l10n\/cs.json": "28c81ba191b742f5cc3c0e31e7d76dfd14aac6c7033959129f2b1165d4f045dc6d1e1c7fc016c52d06b8c5c1b60d203c0944caf28bf3a8c470ee47b5234ae263",
        "l10n\/cs_CZ.js": "9f27eb53033a4b0895339bc6036ad33671e9a2e9e11d0b87e8b3a54f7ae7a2dfd2b946ab922a528c41f4624fdc416c17e36fbaa79ca29bc7bc2aedadef134b64",
        "l10n\/cs_CZ.json": "68c30e6552f83b2303435abefc55deed9126ac38e327f2596ce9a7d15bed3bb591bece3651a4f45debbd8866730bf9f12e91739126e107deff6ae4fd1ba868db",
        "l10n\/da.js": "f10507ae8f59c04bc7b88ed480253fd856ad683b071057274b7607b2baabf43db9ee5a55c1bc3c98e8b47baccf2aa2f0ad11baa8af92a317bd28b49d467e75d8",
        "l10n\/da.json": "1a91c3691bdce53e5d4be3ce46ddf2607244d0fd30901c1d606466cb3610e5b2482d44052ff6b5fff3fe1c6113424925f86c0451bcf8194d5ed05928bef9d6f5",
        "l10n\/de.js": "6e1c8c0f0e559772d9204c57ee1466caa1abccad9459d9d6f61e81ad905bf4fed510c83c6cbc4bbc798b9986feb32ad4bc5afa9021e78ca8378016320da8aeed",
        "l10n\/de.json": "1f654615dbc81dff47c11e3401dc518036bd4a9203d18d4d5814667245e60b968f6053fd57dd7c02853fcac16376c7a88b8b6098361cf637f86d4f43531f3c7c",
        "l10n\/de_DE.js": "0977a0c863795a01b373ec69c6278577b30b732b9610b8965a30490b665d2e0fd6c27a091f94bff06109aeeb1d720760b353ffbd375c0407757db309fc4d0e11",
        "l10n\/de_DE.json": "e737f9abd4e01901ab8f8f448c57efe8763453d2d87dc18c16ab8868425a4f4f110919e43bd399e0a88f8f44ce7ee04298a1330c4fd84089432febc8145ce7e4",
        "l10n\/el.js": "b9008c86b188261a9ad4b9b813321bf8f45e37ec1734df3ae9dc59eb4048d3477873182650b8c94d61b50bfdc36af05b7091029543ad975996f8fd93dbc015e4",
        "l10n\/el.json": "117c1bd58b0b9c138bd5741b0d1769ee8c0e2201229ed4c7b810e158b0f185936b2cf9b2539fffd6a5b51ff30cdb688a70278aa57fc3d475d92e2447006146ea",
        "l10n\/en_GB.js": "e16a95da785d843a52a4530c483af8b0740cc8aff1ff69230ae12d4cf054a806f50e77e7356925e7fe6d991b14d4a816040da093ff024af5e3352c8d4c199453",
        "l10n\/en_GB.json": "4a76c5aa3af37e6a674311b16c7f57a864962d4c5de67f430a90f03c7ff22d6c8a9d27e0a76baf6d982c49b6e6994b58b18511fc5bc6167f6e7a1ec462ba265b",
        "l10n\/eo.js": "af00d1a025281de6e81240e53e27c7fc15a33ea0964e9687e25f01164ec2f6c5708a0fa51a367f980dab887ad4be4e05291d84272646436dce8d39da04b0c857",
        "l10n\/eo.json": "5f1b97bcad3522f4aa3d8e15a23b33c64e239123fcdf8eea4a9970073ad544ebece137abf344a8d97a79ef8df99f75f34696cda8c8a75ae0970fb36646bcda1a",
        "l10n\/es.js": "b6eb86b4a786e31e84825a59a4049a0bce007c7e58f5f7ce55cdfc5c25ac874884a66b903a88e71862a270230e39ce41d19393c1b6525e0956979c4f4146081f",
        "l10n\/es.json": "78e0c31b320cdc44faa22c159a320e5920b52990a26416aed00881e301fa77a67a2c937545ff1583b7884d01825fba818806b616b5be010c0ed89e2fa3cec2e3",
        "l10n\/es_419.js": "9e01a63eb69583a95fa2ab9369192c5d2e1a71fcb04ec891f0aea2bc6fcd43df71b5057b66dfdf6989805f7c760dc1ec9f8c431f7801512c3db1e0d4f6d5d6a9",
        "l10n\/es_419.json": "1185c52fe38fe96dafbc307b928f1436b2f3d8bff12cffe210b6b9cf74d3b4fd4d381ce8e79be65e0ac951d912a1f59c835e6aac91d60bd23df0aa352873b737",
        "l10n\/es_AR.js": "72f1862423361f302ee8f578ef4824f5a04df2b922a8a0612609c75c840d6c526e35a2bf1fc8f011e49fbc4559da91fbda991b6f62f5d7dc488d23195a1f1c77",
        "l10n\/es_AR.json": "4e8c3bc1962f44bc1b24f4b522920329c3b4f88702ffacb25ea0afe90aaae33aee31d6e4252c28ef57adf180b541dcd8c3a4d346baed2cc212b46997b88427e1",
        "l10n\/es_CL.js": "c021a544765b67b9832b67981dae9b816d7725bf97aa41d66e233aacb5aac4da2d1158cbd778bf678c10b1e46382dee19cbbacac74f97ed9a06ec946ac80d80e",
        "l10n\/es_CL.json": "b316e400161869687e1cc6f9271441189d4fa22d85a4701dfc3b8e34e9b0f83c2d3f80a68c105bc917a8c542d14d49ee0e8153cbf2e92a3562c46903b318e0ad",
        "l10n\/es_CO.js": "c021a544765b67b9832b67981dae9b816d7725bf97aa41d66e233aacb5aac4da2d1158cbd778bf678c10b1e46382dee19cbbacac74f97ed9a06ec946ac80d80e",
        "l10n\/es_CO.json": "b316e400161869687e1cc6f9271441189d4fa22d85a4701dfc3b8e34e9b0f83c2d3f80a68c105bc917a8c542d14d49ee0e8153cbf2e92a3562c46903b318e0ad",
        "l10n\/es_CR.js": "c021a544765b67b9832b67981dae9b816d7725bf97aa41d66e233aacb5aac4da2d1158cbd778bf678c10b1e46382dee19cbbacac74f97ed9a06ec946ac80d80e",
        "l10n\/es_CR.json": "b316e400161869687e1cc6f9271441189d4fa22d85a4701dfc3b8e34e9b0f83c2d3f80a68c105bc917a8c542d14d49ee0e8153cbf2e92a3562c46903b318e0ad",
        "l10n\/es_DO.js": "c021a544765b67b9832b67981dae9b816d7725bf97aa41d66e233aacb5aac4da2d1158cbd778bf678c10b1e46382dee19cbbacac74f97ed9a06ec946ac80d80e",
        "l10n\/es_DO.json": "b316e400161869687e1cc6f9271441189d4fa22d85a4701dfc3b8e34e9b0f83c2d3f80a68c105bc917a8c542d14d49ee0e8153cbf2e92a3562c46903b318e0ad",
        "l10n\/es_EC.js": "c021a544765b67b9832b67981dae9b816d7725bf97aa41d66e233aacb5aac4da2d1158cbd778bf678c10b1e46382dee19cbbacac74f97ed9a06ec946ac80d80e",
        "l10n\/es_EC.json": "b316e400161869687e1cc6f9271441189d4fa22d85a4701dfc3b8e34e9b0f83c2d3f80a68c105bc917a8c542d14d49ee0e8153cbf2e92a3562c46903b318e0ad",
        "l10n\/es_GT.js": "c021a544765b67b9832b67981dae9b816d7725bf97aa41d66e233aacb5aac4da2d1158cbd778bf678c10b1e46382dee19cbbacac74f97ed9a06ec946ac80d80e",
        "l10n\/es_GT.json": "b316e400161869687e1cc6f9271441189d4fa22d85a4701dfc3b8e34e9b0f83c2d3f80a68c105bc917a8c542d14d49ee0e8153cbf2e92a3562c46903b318e0ad",
        "l10n\/es_HN.js": "9e01a63eb69583a95fa2ab9369192c5d2e1a71fcb04ec891f0aea2bc6fcd43df71b5057b66dfdf6989805f7c760dc1ec9f8c431f7801512c3db1e0d4f6d5d6a9",
        "l10n\/es_HN.json": "1185c52fe38fe96dafbc307b928f1436b2f3d8bff12cffe210b6b9cf74d3b4fd4d381ce8e79be65e0ac951d912a1f59c835e6aac91d60bd23df0aa352873b737",
        "l10n\/es_MX.js": "2f1e09c145a9ef421e1dbfbbe9decbedce6c63d9a918a5e462bfd11d139e2e3805422d4368c65d63867f47fc6473eb708b041715b1edaca04e0014c8b0de8220",
        "l10n\/es_MX.json": "3738aa9bf45d667b522908651f58ee04067d190e61d153ccda478bccc7b2f613644453d6d5828c9bb174ff88c29918f12d6e4243a789c9432d63ca7f2aa0f9a3",
        "l10n\/es_NI.js": "9e01a63eb69583a95fa2ab9369192c5d2e1a71fcb04ec891f0aea2bc6fcd43df71b5057b66dfdf6989805f7c760dc1ec9f8c431f7801512c3db1e0d4f6d5d6a9",
        "l10n\/es_NI.json": "1185c52fe38fe96dafbc307b928f1436b2f3d8bff12cffe210b6b9cf74d3b4fd4d381ce8e79be65e0ac951d912a1f59c835e6aac91d60bd23df0aa352873b737",
        "l10n\/es_PA.js": "9e01a63eb69583a95fa2ab9369192c5d2e1a71fcb04ec891f0aea2bc6fcd43df71b5057b66dfdf6989805f7c760dc1ec9f8c431f7801512c3db1e0d4f6d5d6a9",
        "l10n\/es_PA.json": "1185c52fe38fe96dafbc307b928f1436b2f3d8bff12cffe210b6b9cf74d3b4fd4d381ce8e79be65e0ac951d912a1f59c835e6aac91d60bd23df0aa352873b737",
        "l10n\/es_PE.js": "9e01a63eb69583a95fa2ab9369192c5d2e1a71fcb04ec891f0aea2bc6fcd43df71b5057b66dfdf6989805f7c760dc1ec9f8c431f7801512c3db1e0d4f6d5d6a9",
        "l10n\/es_PE.json": "1185c52fe38fe96dafbc307b928f1436b2f3d8bff12cffe210b6b9cf74d3b4fd4d381ce8e79be65e0ac951d912a1f59c835e6aac91d60bd23df0aa352873b737",
        "l10n\/es_PR.js": "9e01a63eb69583a95fa2ab9369192c5d2e1a71fcb04ec891f0aea2bc6fcd43df71b5057b66dfdf6989805f7c760dc1ec9f8c431f7801512c3db1e0d4f6d5d6a9",
        "l10n\/es_PR.json": "1185c52fe38fe96dafbc307b928f1436b2f3d8bff12cffe210b6b9cf74d3b4fd4d381ce8e79be65e0ac951d912a1f59c835e6aac91d60bd23df0aa352873b737",
        "l10n\/es_PY.js": "9e01a63eb69583a95fa2ab9369192c5d2e1a71fcb04ec891f0aea2bc6fcd43df71b5057b66dfdf6989805f7c760dc1ec9f8c431f7801512c3db1e0d4f6d5d6a9",
        "l10n\/es_PY.json": "1185c52fe38fe96dafbc307b928f1436b2f3d8bff12cffe210b6b9cf74d3b4fd4d381ce8e79be65e0ac951d912a1f59c835e6aac91d60bd23df0aa352873b737",
        "l10n\/es_SV.js": "c021a544765b67b9832b67981dae9b816d7725bf97aa41d66e233aacb5aac4da2d1158cbd778bf678c10b1e46382dee19cbbacac74f97ed9a06ec946ac80d80e",
        "l10n\/es_SV.json": "b316e400161869687e1cc6f9271441189d4fa22d85a4701dfc3b8e34e9b0f83c2d3f80a68c105bc917a8c542d14d49ee0e8153cbf2e92a3562c46903b318e0ad",
        "l10n\/es_UY.js": "9e01a63eb69583a95fa2ab9369192c5d2e1a71fcb04ec891f0aea2bc6fcd43df71b5057b66dfdf6989805f7c760dc1ec9f8c431f7801512c3db1e0d4f6d5d6a9",
        "l10n\/es_UY.json": "1185c52fe38fe96dafbc307b928f1436b2f3d8bff12cffe210b6b9cf74d3b4fd4d381ce8e79be65e0ac951d912a1f59c835e6aac91d60bd23df0aa352873b737",
        "l10n\/et_EE.js": "972c61db27e30583ab1f4752271138649b068d3b22c38a1f02f17d9ff100d9405e061d868c32717740dfb1e838ec6c3dd016d9f278531f7f42de36fdd542c2d1",
        "l10n\/et_EE.json": "650f1235addafa8640b0ba4f80eeaf84cd6383d5cc58c9a0ba29ee93cb3d08fb930409d934d9484c9bb0091b671f466b02ca05a157bc2f7d173355f6e5879e1a",
        "l10n\/eu.js": "9bed3acba8db37eb8a3c5231ca762d7a12f1b6222929dffb64f41ed20b1030a3fa0e95a9670775d51c1226dec1b284f2c575a438eeeac047a85f8d01644801d3",
        "l10n\/eu.json": "697534e447899e6373e0bd4691c7d9d900e35d738771cb0efeec18bdd2cfc7c43907dddb85199a2fda35c15cd6c73964a648775937781b795ff39f892567baf5",
        "l10n\/fa.js": "620a3737cd26a0ec59884495ba08d72a364c83bf4865f8768960f35b796c33183d28a655208979809976b343cd85fdaf54f372435197e9227bce125046cf0b41",
        "l10n\/fa.json": "44fa2ab72961e4657f676a6e2ee6db11c158aa0e93fc1e33a9b8a1eeed43d9e5f36607bf3937f3318b3d83b7cdbfca59a6dbf0b56929c2608600a4da9d6ce020",
        "l10n\/fi.js": "9119b30cebe4380c35867bd14ee29d5be2d6d417f9f652a1aa69343ca3ac6e7303eef28d51d77c1eedcdad9f2f321538e37cdc06f2aad8feec90c174122cfb0c",
        "l10n\/fi.json": "e55618ac177cc25b4230b7f550ae8609b6b22578bece6beb9c3809e7444c2aecfbe0b16eee6c1628cc7c882049f7b9a2b6f112fa4d089355259bae25829ff8e1",
        "l10n\/fi_FI.js": "8d4583158df86afc84db2472567be5d11c8d7858779da3d228fb909b0a68dfab1e001035167b5638f6d54c6a4267b21d74944c30702e2856847de5e48300c1d4",
        "l10n\/fi_FI.json": "521a7376e36980c92edc4af44b01117a708d3c148dd5356ebaa710b1932c6a0af61a8c2ee3a8fd71d1c8ed438a7f3bde0642dc72018044de80c61329f1abe449",
        "l10n\/fr.js": "66b14a262ee3d961c23822d64d279e33a318fdb63b979d112acf8873d884ce3afafb57d87867490e28b0efe7b4e7a86b32d7227d194e009f9731a4e3fe119147",
        "l10n\/fr.json": "b690f8af2bb7f2ebcd45f66588d4ab35c89d7d666e9d65cc2c9136ab3743aaf44cadf8014d5d5cbf1cf3ca342fa721e3a3b703d3233168edd548aa2ea84e1d72",
        "l10n\/gl.js": "cb4821081911ebfe5e1f0e28cf2da5f14b4feedaa3aaf07be95ca5b55fe5eb32c56e5ca69381f96c679599d98a59e897aa14f4b5b392c6d7c3e19b3360ffca7f",
        "l10n\/gl.json": "1720053ef4ee3336068e604be1feeeb32422bc0543d1c6765d98db817e37dce3a07c1910be155b25305fc5f8f95f4d02e36f3298cab795ce563ce0001ef4787c",
        "l10n\/he.js": "41eeec89b3cdce40a55113680c72a4ff71492c7d1ab5b7241d109a54d2a86342d943e483d94e0c7b344457cd268d4453939458be48c4d042e8104fb867ebc1df",
        "l10n\/he.json": "8c298150732e10de635ddf635eef7a4b01d5353b2576e2af3217c4b16b5ddc1878eea768dcd6df2c7aed86a311f888a495baa57d6a5cc911ffd706390e1e0819",
        "l10n\/hr.js": "bb68ebec4c68bf5dbbdc533173ffa4dc9f09c3d992ceb4789a2517645d525bdbf959c4b4f40b2a833a33f4b1929971b655f897cacac07922998ea7376d097ea5",
        "l10n\/hr.json": "f5dd4bf8826d256b3a5a7136945c5debfeb9cdc5ea3f443f09fd7a117554cdd175496cdfdbe498025e27f42c1a2b129208e158a83219acd7ff5c5db8fb0e06e8",
        "l10n\/hu.js": "45b383e75aaf4bfdfb1bcfcbabb267a2c57d2efc977a0fa3c882ada7d110703e631e003d51bc56e4bd595b40ecd611a73b7e277e4e30558eb0e8cc8b5407bd6a",
        "l10n\/hu.json": "7d0fa08cd1e98e415608e8c5a96416cd254485028d7ec92c74c7f2f97d500f96215e626db59315d76e55422301a219b2abfcaa592aaf019404c5f0d7b6aa161f",
        "l10n\/hu_HU.js": "b6cc856b366cd74a25d38b07448f46cb912c1888a339ebb910b76bb24938ac7ac1837c6e91b8911bfa8e4ca7d3f837d19452a6ebb3dd0b5d220ded305ac9a93f",
        "l10n\/hu_HU.json": "f395a64a199b957754f520c36a0a010e652064ca9590beb8338de22bef3adbea67d73cc7ab427d7f2e7517fce0823bf968cc75d91877b7de5b6e5eda2da8a660",
        "l10n\/ia.js": "5f7b3be1e778dae354e18a86cf69f7d4248cc926715e6bfad138f1944bbe6df6a7bf942211b95e3f81753ee0a8b32a6029b0b612517f8b0113d63341358f5a81",
        "l10n\/ia.json": "147c9816d3a9000016ab0bb511484ccf83837cca235f90d059ca92fb2cf3ee2ce16876c7659ac8e27f2f4542df4e221e4fb75aec57265dc9ae1843918d4fbad4",
        "l10n\/id.js": "5be2d50664556647e6ea395b41dba372e7fe3e8e1e694a1c4c2cfe98d8bb8a38ae0f7f6017ad2a5b1ecfc90f52a0736a1c8b321c02dced73baa5183347d265ad",
        "l10n\/id.json": "37bde6d70679a924af4b968f330954fb566fe9dc717a8cd46aee210a1013a2f5a7870aa0a93ff94aed679921c421c112e073718732a7a7a886a5534c89b5cd22",
        "l10n\/is.js": "606859da223d82a08f383d1e80bfbf338b159f84d4e54fb7cc471ef0671750f52d7641fef53c6afde33fe96b66a5db09748a88892b5c2c6c2832744942e199b8",
        "l10n\/is.json": "8b3c8283e742904356e55244aabb796317c39d878c8f9be7d83530146a76f4cdb7cea33ae4b4ddc45b43b860d44c4be95e7715283634011bec92c01a83af69fe",
        "l10n\/it.js": "9bb125942ae83d36f44d1469f7bce8e508b3624c031053822f4b13202a6ccf09874a5b022c754b8480e3e3eaa8be8329bf8f40cd216f0c7d06e048f5c9459dea",
        "l10n\/it.json": "c5bcf460a7ba7e728da6f9388ead8e50aa1be7c6051f94b40db1f399921a57287796e9fc148cb3fee0e3247cd7390e49b2e6f2e1a5077d101c871028232034f3",
        "l10n\/ja.js": "821dd6d6a58b3828d0dbbb09686983ef00c32d27b7c171877e93da9e40b39aeaa43c3bdc8d655bf6c737c1a99b4bd8d5ffe7f5290f2ac02eb87def4703dfffda",
        "l10n\/ja.json": "50efdaeffed2d38b93cf3bf0fcb9ffd59e8468c923828ff6246d2cca4f0b1f01d42c4104bec801363531c9c172b19ce4fa5118db773e4d8abd4c547b18890447",
        "l10n\/ka_GE.js": "9d7c06a9d307c3785a83e0472569b62d928b6a4f46061593966783bfffff98b2b0c82d8f8195a119ae8d27dfb0155b74f00ab784a5c04f89a2e23948d0cb08dd",
        "l10n\/ka_GE.json": "03cc43d96293877582b226f9cc667809e316f74aec6959cbdedfc4b85895e8d095af7b2879c34238f5a5d7c0fcff309c94678e427760db2fee45e7c9b1782b67",
        "l10n\/ko.js": "4c2b6d75edc566911eabf381982220569fcd7d15c3c4e5e7ad8296d03047b6da7b2ca45753b2f0d1399d9a900287919646d8e210bbaa2c66260dc1a440a4863d",
        "l10n\/ko.json": "4be131372c41004d88aca9a7dbc0fb7df11f12ba5fbc31f5a41309b24b01693f6749a76318fde32a9249cc4aea2ac125084cc42aeaa9a6b3d36ba0d36bd6c944",
        "l10n\/lb.js": "46a71d16aa64836a1a2511aa247f90a06e321689696b585880efe0ee3777a7361d38dd14d02294106a7ec839cc0968cef138c3436e555cc5480f4e36e9172dda",
        "l10n\/lb.json": "5bf7e700c01df3ab995dfcc57d603fa8d06291755eb21ecd1a6e479f9824ea734b4516e42c3a34cc14ca962df9722585d5bf2620818b1ad4ed61784269cf2953",
        "l10n\/lt_LT.js": "4e03eb12b26a1b7cef7096f0f8972178b962f46b9ede646fb5f45964eefa00580b971234220a2f12b5841025f7b70ac80bd98e0dce1220b685d94d98ec1aec35",
        "l10n\/lt_LT.json": "2702a7fefd36353568575ce736f6e2f7fae278a8810237231732db6472dec4b639d73aa5a88d954b17ff9fd8a1e6e668c8b50511b6bd20e1e1f55829c487e3eb",
        "l10n\/lv.js": "889e36a7670dc3bddd04eaeae08eeadf5dcf1de8773a2dca105e4e21170b40e117ea2f5a7ac13804e81ace8a61c0b0b334bc2a1c3eb8d08cf81971d21d80f7ff",
        "l10n\/lv.json": "c2e2076dfb5beb264b9520c48b2a15c5bbd43f9d703b27ea40a0ff8c2146a8916c7bed8dc065b80b838ba91fb28449c89cbc99161d88ba86e1fa4f5477d19bd0",
        "l10n\/mk.js": "d15176d48cb7ca21f50342878c1ec0564c1ae3081449789bf7b5e8f89afe91f38d428caec64ea774b422368367f99ce4890ad15e4027e74216e8e355afe9508f",
        "l10n\/mk.json": "6c95282b6bb828fda266bd38cce49149f9fa7372bfe313d11cfa6bff8df82f81b43d58d9bd75ff105ca8b7d534ef0f223271c56224288321fb6edac2ed5b573e",
        "l10n\/nb.js": "0e7f513393b676dab8fdc4fdd48dacbc89e33b37a3271b6e30b7a59b10b4ee37d242e7c030b4f53c74d16a8f4b937c423afd9b557ef9f66dc4a277d29b53a0b1",
        "l10n\/nb.json": "5526599e5dbee808d540249d8dad4dd57ababae0946f3864ffd8b00e09ffb01e3e5ee6a899bddf3cb411ebed511b456f917af236551e3a10df907828b8219b5f",
        "l10n\/nb_NO.js": "39c3bd000e8619736b871507e4ae1f949ee0c6d443332880cebe2ecc0946265824aad3fab510a8b06c0b05ab3679b52ca350dfc543ed7f3b8297d6aec119143e",
        "l10n\/nb_NO.json": "b157cdebe80d18fb2dd13f143a31d88058f9bd1e16f2215131360286e10dc3dcf57f4970ec78af973c5bd13ae2d8eaab4deb69cee383d406eb15b05d17687c97",
        "l10n\/nl.js": "250253bb3b5e3b4c2332b80134efd6daaabab812733d1e3e355e4c83c4624bf6d35f07a4add91e1ec591e413a66dec9c1ccdfbb2489b2436fefdadbd5d2a29d3",
        "l10n\/nl.json": "e1fcf7097d32e9f1be77a123ad06497c146fc6ee60717ba528a9045c3e47249e48fa622b003abcb2d0c154dcc64171ad40d257eaf30ae0db8c040a332364c763",
        "l10n\/oc.js": "c88203ffbfd3e77a60551d165d324fa8a7c27145837241d0b5aab81ec3f565f3c8f685f2fc29aad964d230df6fc17787b1fd025ddb93fa788a66f8431091dd37",
        "l10n\/oc.json": "903df71693d57895b5f5ff3e9b813e837bb14f39759260b0f5c96806c2be2664a858814591ab4f0ad9d4551c45b5cd65be2771ae10a3f9e5587924da8c1ba1c2",
        "l10n\/pl.js": "be0ec6d3ea18340b97ac1216e8797a719088aae51b55ce94207b531012fda70745cfffc2924059749f0029f640c1cb65c84400324c1b7d789aa34a8b3b694a06",
        "l10n\/pl.json": "9d63493f0b0c200fdbfe2c5a80246f62a48290548846ea26ac0ac8fc3d5912cc0fa05a17836be558349022523a79005ad8d71bbb927e1edccd424cf6595f4cc7",
        "l10n\/pt_BR.js": "4f70a046e90aa9f29ad58bb8dac5b453286b9e20d3aba6cebada97dce58b14bc71b0d8c2749dd4ae840abde3a2963ee2e9ce8081fb96bea55f70240bb9ada94e",
        "l10n\/pt_BR.json": "3ae97ddbbbd1f26a06c5236e5e1ac06e7e39564f72ac99e80f3cd0c66f3e09b0e886f5e4fb59a883812ed768a5704c34d49d8ab97ef3ff200331cfc57d97b53b",
        "l10n\/pt_PT.js": "2ffef9d27573a569375d0c6d267263171e094748b024b8587b6458e525bb6337401332135614eb1e399a8ffd696fb860bf24ad4e35bbf69a25f2764a2f426816",
        "l10n\/pt_PT.json": "dfdab2e7f3360bb8efc3c86e09b9f1e3c82378ba4fb0e6bc61a143242583347a0fa17290d755c6d03208b15c742f1a27f2cbbd0cb6a45121760a29ffc545c454",
        "l10n\/ro.js": "e5adb03ca12dc7e6d4c264cb0770c67602f8ba12f99880c7d28b1ed6267bef8486262e563addb4fb721bbdec3ff48d0e919db33bcdea2e19288fdf0c64622308",
        "l10n\/ro.json": "ed88bfd4298bdd336d88e18be213bb63430d973771a236614bc89c93902b6162a73ddbd1f1da7fb75f1aed85bcbeb42b8ae6b7d6c62519531794af6932df532e",
        "l10n\/ru.js": "b31bc47865923e81b6bf3d6df8d668002bcf930b431326aa27969f6bcf3eb2f63c89e7bedb8f37d250a3f8c56bd2931efedbdb84a881186fa00d58fceff2ff08",
        "l10n\/ru.json": "756d53742935ec0eb42d2314a1e3229c0f889dfc245bd6e9f7919ac9165556f9566e25505c08d8dc58db6076ac086d10e2e5a95c4e1fda365b84ff611673ce14",
        "l10n\/sk.js": "4c0d71dfbb6826bd000742c571bb030450516166c21fb9a786c4730c7e2243878e9814f46eb7c931365ae935fdccea8cd4b0c7e6841baea84d7aa9def3fa7364",
        "l10n\/sk.json": "41f2d07058ef82ba83b66e7b347aeb78e658abf8d738a01a54b1b2621d710b914def3671625d9bdc8cde2f45fce712b4bb0596969a541b5907bb4ba3044172fc",
        "l10n\/sk_SK.js": "588aa3c39c21ccc93222638d68fe9439395b4d3439bc4c4539b47659e137987cba455b38ced6b69db7783f4c2967b41f5a957aeec3350776e3727964e70d3cce",
        "l10n\/sk_SK.json": "956968b9c6cdd1b76f66e7a5bb2435a2d113cc6ce4d9f1ac252fc6b816ba587272f28fc62e41972dd3e5a7087a25ef13f919302aff9e2e519f081192626b9901",
        "l10n\/sl.js": "c734f7686dd1171b7c3ab1ee7438173cb60b867e9c3e3c82a6b2d578235e7c24186f1e5bea3d19b3788a63de7b9892a7c0f9b487b1ec6ba530115285457fac72",
        "l10n\/sl.json": "c255055010a8a506666845783b08c16ce5adb0799d2ce1f9cfd06ee9791c646481a476a35a8db2810375f843c9549ae57d6559b4b14e15a92ca03abb36e219db",
        "l10n\/sq.js": "bf4e1cf0c7579a4b125b641df73acce4fb3319607950c22786475256e9194a15c37fd615bc41c439ab59613af7ed02b944b6c551a64065cbc6c1585a70953949",
        "l10n\/sq.json": "baf977af3042a7c08402c97c3760f7c06288b3afdcb9e992ea192a62b0a5ad2eae073ef80ffb898359fcaf62329cb6da43fff53ef87a85c84ce45b4b10c892ea",
        "l10n\/sr.js": "47d3ffba405f42c0aafe256971a0ead1ca39199225fa4ed03af6d7c72ffb833cb4a62ba1d5e916e2dc145e728f7c2816e888e3743c72e2a3d3c7257d8ef5cb3d",
        "l10n\/sr.json": "89d73b2bc932be8b73106b1cf159f647e105129f938f7b7f4e9db39653a5e200587bb0ff5f7b4fff3cfc486785d048c3fe398e88194ea2d0e74dfd2f5def98c3",
        "l10n\/sr@latin.js": "314b1ea9eaa5d8951a822984ade670cddbeb638adab781afdf2271a92bf3977ddf5c911505e55b601ac7f88c958a363a8984c52b8c0d2ca983121c7223bc0985",
        "l10n\/sr@latin.json": "de8ddfc64f18e9739354cccac558ebd8c3891c74dad2fcc82d1011e02def1c44f4694ce5212b30bfdf786c284b9817ddcb641092df04fe8b341a9ce2c95ee019",
        "l10n\/sv.js": "1f7d4d268c8ca83243eea84bf8dcc70be77ef274d6b1cc1fee99004e882c7735bff893f52a4eff76ba65fdce08e20f3bcee1c2ae84c45c76c51070515e55aa59",
        "l10n\/sv.json": "7e5105b46e6dee0ab467090fe06b2bf86407795747f756f76844a8728993d7a3a553cdadd0aebc9d295f2a29ca5717d986dbdf1f009445731773c8f4825bec9c",
        "l10n\/th.js": "23312aed607a9788692c33c5be3926d5f428da19e0dc7b085e113d08e182fa2e18b290ebd75db59d11b88228820705ec344ef511a26ed95ed821409da713e463",
        "l10n\/th.json": "aa5086d6409bfc4f4b5c505644003839be6c8f411f48544a3fc009e0fb0a536ba90fdb0b75955781b55fce059f42e98358a56484318cb473282c93ab3a618f15",
        "l10n\/th_TH.js": "8d7111f7e2eb13152c262f99916875909742bd1e940cf052706042a7e646ce36a81fe2b4225c36df33afe56c73e353623f482c4bb7d89831a09d0fce61f798cd",
        "l10n\/th_TH.json": "9d2c440dd328db5aced758314f0732ee2a24692b63972dacb618f463a087475bb458a2e232487ea66a1dac0beaba21c06d198c5a3e1f3dde6bce4eada7a5c7ec",
        "l10n\/tr.js": "ee3b8c6f0821ef6d7c1b15a9c1aac2191ecadde312071544f1a20a700cb202ad9f6ff40418008e03e508a0eb3971a3ef3652b1014a2a8d9dc3b5806b097bcd9b",
        "l10n\/tr.json": "4933b10eb538a4b6ac3aaea22131a379862761b2adfc11e8177a844d746938f0bfa6d573544825be0ac8b9dc76d28b4b4b27c275645a6a91656113044164356e",
        "l10n\/uk.js": "0e5dc4b6699e42076863190e8635d8e465c244c958f919a241122b83fcbb40d86103090f4be7a528d1619663b13d36663f23d57aab4a41bffd40b33366fbd4f5",
        "l10n\/uk.json": "eab3a9c2b52f8f1f60f999179f9a1e471f3a369486a098f2cf8301d739a84a8f5091543198e46ae4b752b80378a76c1e58711848331670538c9c7a31977f7d46",
        "l10n\/zh_CN.js": "ce289d9c177c92b4d4831a206a4d8d25ac362cfa2f72186256ed28b3d142270ac1fb8141cbe3dee8bc3267131708da38c8e16b143b5e0574461bc7bf30fdb5c5",
        "l10n\/zh_CN.json": "5d6f062a3b8e7c33b6aa7516ac75e24b5cbaf491bafc1e1686cb52243959384d95d35b972557d9f3b6ce1734fe5e8bad65403a4540241053c6a1942feef639f5",
        "l10n\/zh_TW.js": "b182654f5155d5c750a70e76bedc11e2aebf995522b7d503986300d9996d4a73865b78aaaba6cb8508ea21705a8dd04adbc98d3d95c07b75b00f10e57f0df0c4",
        "l10n\/zh_TW.json": "2259723b1ad06d7c4386135be6946b9a880f7715c75affd412e13b5b8c718663869a1f432ae15a6486e4142301f83a80fc37822842c2e75282ded39cf2076f02",
        "lib\/AddressHandler.php": "46be57d332cb526d278ccfc6837ceaaad5b02a9851d47a975db1094cd90f615e8bf4aba4ab00b527c3b56ecccc106bf86fc80bdea5636d483f2877b64d8c623e",
        "lib\/AppInfo\/Application.php": "eaa8dc42cb5c1e7a3207a424fc5672fd985a311e3b3e6263444da41e787f754d2db8200e5ac345ffe158a7abdc0f2e2dff58df64472ea315d338268d36d468f6",
        "lib\/BackgroundJob\/RetryJob.php": "c3fdc44847384a18c78ed8920a253e2ad063ceed90644087b2ba0ea94bf0a02e7133e7e38a96f39ab904bbe45320e53fb5f27e002ae6ed3207ee4385a1b33699",
        "lib\/Controller\/MountPublicLinkController.php": "711a10b2730c76cb6e12ccfd4b733ad0975bf817afc17d7baa66f17d619bd164dc568d133995ba85654cfeba6bcba74f908c016e2900517335b0c2acddce1294",
        "lib\/Controller\/RequestHandlerController.php": "bdf3c71bb7a17dd205679cec76907b44a75f5c9e28ac6b147fd9ba37e621287f3c3e7bc7f1e6dfffdda8583c4c3d72856ed0bb9eae49ed32b36a85e0136f5dee",
        "lib\/Events\/FederatedShareAddedEvent.php": "68fb191f77290a0e57b600fc7305bfb54610b04a9abc3d647002fa061d19ca1dcd1948a619b4c3949833d6fa0928930482ee089f1e51b9d5494e544499f5e224",
        "lib\/FederatedShareProvider.php": "990eda9ca38d72a0f9c8e51982bf9438053c6c3fb0114ce6d8cc741a945a26645ee5942c96ce10a673bf06e1fcf204f91575ac67b0195c5b64a5cd13eff0bbda",
        "lib\/Listeners\/LoadAdditionalScriptsListener.php": "493a34b756ea76572c46d9e890bece27a1780b6e1f96a56cc2c0bc2b7c3ac28540f50552fd441205b427482e88ba3191ea69b55e3c43f85412e95c02da4c1cfb",
        "lib\/Migration\/Version1010Date20200630191755.php": "06a8385ed1519d95d144941f76fd03fcc5549aa9214f1d4d191eb986eeab9b33a8d07ebccb42d31fe70310cd392cf4aa48367a3f4a45bf5eeb51e944b6f55cc6",
        "lib\/Notifications.php": "6404a3ff3f43358b52230dbc6ee2b9424d298461827fab5a80f4ee1b0d22661860a05806679e3701f87f2f9e942372e5862ffe55273355e2f0f9ffdb15f1a16b",
        "lib\/Notifier.php": "d12226d8647e5560c3ee0839beec7947e05e55c6e79d55cafcc6599932ac1ecdf4063fedabde306fbda961144cd929666e5522f166fe71ff0d4f086fad775e39",
        "lib\/OCM\/CloudFederationProviderFiles.php": "a19c8c9aecf52d596a8010f65fa2786cb4fe5cb134eb614b6a413cf029dceddedf0e976ce77ac0fb9bc070b5a13aecdb4d33b919a3729b944e094df077e7a04f",
        "lib\/Settings\/Admin.php": "8040c04246284f3888684ca643e76ec7865b64a2d1911e8fbc739d76f09ff9e654ba3a9771f7e3d4b1516def45af7c59021b4aca4d9620a28de19c1216a03a19",
        "lib\/Settings\/Personal.php": "3373808e452774495f3b8f58e9a9a470b52dda13aa770c30e3469ce3f2fa9319611d18bccdd984cd326a64a224f69d6f782cbd9fe705aeb8fb83e931472ba723",
        "lib\/Settings\/PersonalSection.php": "cfcd35a7eeb4edd894af9a5cbc614b3f59f65d6cee5f933533f85be655206a68f1946634c8004d5da3ab90ab53cc492ad671a1717c0b26840a1eaf11c9810784",
        "lib\/TokenHandler.php": "6db159796770f10d745e00184f952d363a3afda07a1d9facbb687a6abffd7666749ac81984a0169d2a35258ed9dc9c79460e777b4b0eff57609cc7f039a9055e",
        "templates\/settings-admin.php": "2564377dfe19c4b4747fe59a83f16b02f41c63c1b0bcf8eec5f59d13fb08ae0f2dadd12efa2c60ed6cf6a7ed2e8e51e3dd7b7fbb10bc04982c77557eecfa2ce2",
        "templates\/settings-personal.php": "4c44ff44b5cebeb92779a27ea8b8926204ad5c49c30b7a518fd8869432310e29f86d519d33da9133975fadc3108ad8a2b14d944568527d29dd2ecf7ea72633c3"
    },
    "signature": "AGr6pKbXsewi1dZECKt7aNW5Y2AdCF0AL7B0hkUl3ExXpSOeRYRQrjvmtp34MOMwOCJMryzJNecPidUxbJ2z8\/nJddkONLq996kCS9IYrEUFVNb9KoukQuNCWejUdpJDpCWIjf08HUNKAUB1MARq70jlUkfNsg2VTb0OvhF7ihlTp2PjpBS32EchgncATHLO7dnX5nT4bedyNLr0Qt71mvVZOIAdDZGmWcpakJpE+7hjOTwTgRFgS7sfub4QNe7uX6uWRWym9LeVKaeUEjmVrjpNIKpojBGOazrHpWyccq6NIFa9cfm464MvHSJ9E4RO5wWAmib6lW464cI6PHWInw==",
    "certificate": "-----BEGIN CERTIFICATE-----\r\nMIIEojCCA4qgAwIBAgICEAAwDQYJKoZIhvcNAQELBQAwezELMAkGA1UEBhMCREUx\r\nGzAZBgNVBAgMEkJhZGVuLVd1ZXJ0dGVtYmVyZzEXMBUGA1UECgwOTmV4dGNsb3Vk\r\nIEdtYkgxNjA0BgNVBAMMLU5leHRjbG91ZCBDb2RlIFNpZ25pbmcgSW50ZXJtZWRp\r\nYXRlIEF1dGhvcml0eTAeFw0xNjA2MTIyMTA1MDZaFw00MTA2MDYyMTA1MDZaMGYx\r\nCzAJBgNVBAYTAkRFMRswGQYDVQQIDBJCYWRlbi1XdWVydHRlbWJlcmcxEjAQBgNV\r\nBAcMCVN0dXR0Z2FydDEXMBUGA1UECgwOTmV4dGNsb3VkIEdtYkgxDTALBgNVBAMM\r\nBGNvcmUwggEiMA0GCSqGSIb3DQEBAQUAA4IBDwAwggEKAoIBAQDUxcrn2DC892IX\r\n8+dJjZVh9YeHF65n2ha886oeAizOuHBdWBfzqt+GoUYTOjqZF93HZMcwy0P+xyCf\r\nQqak5Ke9dybN06RXUuGP45k9UYBp03qzlUzCDalrkj+Jd30LqcSC1sjRTsfuhc+u\r\nvH1IBuBnf7SMUJUcoEffbmmpAPlEcLHxlUGlGnz0q1e8UFzjbEFj3JucMO4ys35F\r\nqZS4dhvCngQhRW3DaMlQLXEUL9k3kFV+BzlkPzVZEtSmk4HJujFCnZj1vMcjQBg\/\r\nBqq1HCmUB6tulnGcxUzt\/Z\/oSIgnuGyENeke077W3EyryINL7EIyD4Xp7sxLizTM\r\nFCFCjjH1AgMBAAGjggFDMIIBPzAJBgNVHRMEAjAAMBEGCWCGSAGG+EIBAQQEAwIG\r\nQDAzBglghkgBhvhCAQ0EJhYkT3BlblNTTCBHZW5lcmF0ZWQgU2VydmVyIENlcnRp\r\nZmljYXRlMB0GA1UdDgQWBBQwc1H9AL8pRlW2e5SLCfPPqtqc0DCBpQYDVR0jBIGd\r\nMIGagBRt6m6qqTcsPIktFz79Ru7DnnjtdKF+pHwwejELMAkGA1UEBhMCREUxGzAZ\r\nBgNVBAgMEkJhZGVuLVd1ZXJ0dGVtYmVyZzESMBAGA1UEBwwJU3R1dHRnYXJ0MRcw\r\nFQYDVQQKDA5OZXh0Y2xvdWQgR21iSDEhMB8GA1UEAwwYTmV4dGNsb3VkIFJvb3Qg\r\nQXV0aG9yaXR5ggIQADAOBgNVHQ8BAf8EBAMCBaAwEwYDVR0lBAwwCgYIKwYBBQUH\r\nAwEwDQYJKoZIhvcNAQELBQADggEBADZ6+HV\/+0NEH3nahTBFxO6nKyR\/VWigACH0\r\nnaV0ecTcoQwDjKDNNFr+4S1WlHdwITlnNabC7v9rZ\/6QvbkrOTuO9fOR6azp1EwW\r\n2pixWqj0Sb9\/dSIVRpSq+jpBE6JAiX44dSR7zoBxRB8DgVO2Afy0s80xEpr5JAzb\r\nNYuPS7M5UHdAv2dr16fDcDIvn+vk92KpNh1NTeZFjBbRVQ9DXrgkRGW34TK8uSLI\r\nYG6jnfJ6eJgTaO431ywWPXNg1mUMaT\/+QBOgB299QVCKQU+lcZWptQt+RdsJUm46\r\nNY\/nARy4Oi4uOe88SuWITj9KhrFmEvrUlgM8FvoXA1ldrR7KiEg=\r\n-----END CERTIFICATE-----"
}