{
    "hashes": {
        "appinfo\/info.xml": "1642b6c16bb8fd18c224b7e5148341b4deb4a84b2d18f0e8bd5ac016a57431a58e3c869b7a4d7e25e7e9b4f29a7b83aa7044d7db148f632dc2d626657058b5e1",
        "appinfo\/routes.php": "6e090b5cad4df9f95d0ba4171e19df70e563a84d899c530fc1cc98cbaec7f3b9fc2cbb5ec8a8f3db3f366f777807909fe79a6ce3384d64a899df173d1e626956",
        "composer\/autoload.php": "9997ff15ccac1ca04760c6e4302f8caa9dfc0153506b7e8128b854ac95d936e232286e64fbed84de345b2de114d0fac84bb877fa8e736024e563a03a06f945c8",
        "composer\/composer.json": "b06eafd5bdf4068c4c6643c29d3db3a254ce432063712cac6cea094df0673be8a5f2e9345e825e0aade75da196188e5d7ac7d6293255918f0f6a4a17c90a32ea",
        "composer\/composer\/ClassLoader.php": "6d630ae5c62bd43ae490e02b0e1eab6f9a4b92364b617e0dbb4404ff11bc33db238568dcc3df9d8de616f191109853bf9d9a408030f1252fa7e420e5321227af",
        "composer\/composer\/LICENSE": "f3bb64009f41a425df5a9bbab53490f0eb9b74fa8d6aaa2f57efb928edc4ffff330260666edeaa04a91fed708c3663371cf01b284f3a08d6698aaef7a23f355a",
        "composer\/composer\/autoload_classmap.php": "67077bc94bafa7e42e767025416cb5582ffb137de1a52e256d8965dae5b7a52b94ed86f8371e5733856372985197ab29e5b0892b141119c14df1cb50b93ec396",
        "composer\/composer\/autoload_namespaces.php": "dd8ee31d2faa9014fe567e1f954b5e7f450cf06feacbb96d4df663c59b1a36a0b7d26ad41b46354bd14f282fa7899298137208d1851099cd3ada285650efd90f",
        "composer\/composer\/autoload_psr4.php": "69e339c4c612d551fc5d5874b0da7928463f809a6da938629bd92e156f65f165d6e3495a673ce928b2e741863470adb88f977fff6ac6aae2182dbcc504ec32c0",
        "composer\/composer\/autoload_real.php": "f325e789b1e0e6c09df67895baed47214da93c7a18073b2de58364a1431a77dc6e2cffb475c0118e219b85ffb50280a009578f2a75fe84ed8f178bf6ee404ff6",
        "composer\/composer\/autoload_static.php": "0c7ffab2034ae81b9168cc5a611742632327955c3998475e6fb98f599f8770d9007ebb9df86a84ee45cc4add3a9e556924e2850b41d9a1233df9389c2eda6b3b",
        "img\/app.svg": "2a2a026e32f55d1e5c55be958e86de3a3519fa644c59b3dbd39caeb95cbd3b9bdd86d01e43f0a45b0409238f4f2f720b42c068910c42ce1cf6f8f1b1ec78df6c",
        "js\/files_versions.js": "c64a3c0b8d5ab28b30f1ed908332b34b4b2625b6524c6cc6e66b5616f28d524b64dfe64f274269ec1318dbeb65571208d96d17baf90d7d10d5569450de18424e",
        "js\/files_versions.js.map": "6b4f861e4254044b45edb5b1235db8b70e0400b9c5db126f592f81e738d316decb8c91c8677336618f101436909dcadaa58e6bd00a0370951a9f67468473e00c",
        "l10n\/af.js": "82f12aa953a0607828f61594226e1b8e10c77374ef6d8340973e25b587818bbd1b903d478958b9325a5c9a37c3ba9129229f101224e7ee0becc9d58d36b71da6",
        "l10n\/af.json": "eba0b3ebc39f2cfe3b8289671e54a0462df8e75fd52a2607119b37c6307463629373d81db449415057918da432366da7ddb30c7d07813cadf2386517a0065a71",
        "l10n\/ar.js": "d4e0f0b9e3952a2f0a7ff6a3e4e930010a74738370e186c7377f93ba8aba9db97d615b2e3a8e0b2e43c8fb7d81c2c40454987d6c753307fa98961b61d39b81cc",
        "l10n\/ar.json": "0225e5c3720b79daefa52de46edfd96ce29e227cb4ef7dae1bd758357fdf83f7b24381a6117ab9b928370bbf7164739465091ab55a54bdecc2f6a76c29c82369",
        "l10n\/ast.js": "fc43d62e2f4dd7a97872d13e380348c4663e82d435391f78df54fafa9c0ef8f0bbe539b7371991f95213c7ceca42c47566d3ff1e186470054f39cdbcb9f48321",
        "l10n\/ast.json": "5a9ceef604acf5705eecf2f95d1fbe70a3fe614e67ce41543709640761342869cc676a925fb302cebee060accf744ad5669c70b735b7cd6abd82ace36595d9b3",
        "l10n\/az.js": "33e113201aeee734c73630191879ffdb2463639ffdc8cd4981771268708f461325f4108c55cc7a6fa9a2f036ed4599b5d3776c2c4b1c2b3b4a6d67c590579b75",
        "l10n\/az.json": "aada572a684504057c6729a8efcfacc79ddf5a3b4e78f36dcfca6d6d2760901e63d23d6ab130043d389aea3e7ab998bf0baf39aa423a95a277ef01a77d67a9e7",
        "l10n\/bg.js": "f517415955f68d62d7fb758fef1bd3c672d26f5b60082627169b0080613140ea746625f0c2384015e56e3f49e3670a3e458fd6e9a73666bd5855726f01285c41",
        "l10n\/bg.json": "aa089f3ae116f14251ae67f9496bce1d7c35d222834f0b73f8408115c77353c381d84a3b2bf01b09b34f91a8c687da70f2e705d758f919a15cab0c1fe3476ba4",
        "l10n\/bg_BG.js": "ac2c52e73441d4160f6cb62367d52e0a05fbe6260d93312af4c0f15e0a0abc0c29d363b1f4e71d0c86fbc45b6c3a37cfed0f7833fc2b82fe002adf74a68ceb4f",
        "l10n\/bg_BG.json": "f8f1747ba16427d1c6418dd4e137e2cd693779b6a4b6e092a2d260d9d63582c572a31d1181db9c088f3badc273b7cda5d46a615f155353528998b980f7799bf4",
        "l10n\/bn_BD.js": "5c5e1f2afb5ec1850dc5544134f23835e3e18af34ecf25e620e9d72f8479f7985d1ee284db2c91e7477bdc6011365532cc525c392f690572a89d12c41374274d",
        "l10n\/bn_BD.json": "cf520b02801775799bd56484c9b0e80ecf49f3f16700f902cd1a103107c5412dab299d67912731f23abc1abe180de3efb950f9262000e089558e3b8321d86bc8",
        "l10n\/bn_IN.js": "09f151844fa6651b8b63ecbdfb7ba9d6e181d4b39f8e24995be953e2062a464fcce7c2ff4818b2456528c932ded60274bee55f6f7e97c69700f658262227681d",
        "l10n\/bn_IN.json": "35fa51f16d8441ea34603f14592b6889ba86afdf7804b3218dcd8df8ab4f427a5e982ace39de6ceccd98a481a015005bf34f8535f7d507f7b7b28915ad643c85",
        "l10n\/br.js": "a0433cef17e032cc8a30f27b71a094785f1ade10255477be211fb98659295b5f01c7388712f894761f3b360a54776fa2c790939bc76b0f65d664bdb37dbc0ea6",
        "l10n\/br.json": "4b5e44ad544e4e34b9d50804e5c965dcf5b65da1fce90f82c816f61f487a6d7275b52e47e3b01d3127581d997029a57890dcd3b5d0737b31f25a5a5f22e20261",
        "l10n\/bs.js": "6695dd4ead245b8b3b09a5715605f6b2a10074c863f560fccdd16865b983e1f6824058b20b1e00bc0bc3337d346cb60ac36312e13ea0ad72e958916a5b368c70",
        "l10n\/bs.json": "73ff949fad32020c21b2b7efae1f231e4cd23864ee3759f724ea0901b378bb414a390756f80e8e11245e35a85f18c175aa92361c745777f17b6a8147e7cae65b",
        "l10n\/ca.js": "c9482b50ac6009588f0289fa50f248e118adaaee7a0cd31427d74d94994f066c40821a7e426e77aee4569a0e252172075dc133f13c631ea2b12e11e719c7546c",
        "l10n\/ca.json": "9c64c5ae7acac560bf90443c44e3bcf0014468f1860f1fc28743d602c84fd08a77a50e9306371bbe2341f434ae848cebf8813618bec191f90e11c260cc3e8921",
        "l10n\/cs.js": "8752f474f38c47d0b241fc4c1553f28c0a1e175c81ddd94f7fc8bc7be1719e91cf95326a0b451a0f35165e4ed18bb57fa20ac7e7e8da285a9f093230e14eec61",
        "l10n\/cs.json": "7d06165312e74d894e11432103e66be80965c0820fd09c93557001fbe428542c64ca89cc9f6824df92e21cfca6d0b94a1e001fa0f815273d444f0d652f774e31",
        "l10n\/cs_CZ.js": "e0b39cc8c80ed00a75350ddd80c45ab56e85e7138c1a7c28bde7d08a7db8bf375ee2419407eeb78b4e839d1e69140a1e2ebfe560ddef8361edeea2a4002d240a",
        "l10n\/cs_CZ.json": "bb4db3d8e27a35a97a686c8e36492f79f4205cccc383688a7936553aa4e5c224b31110cf6fa8034dad1492eb1a7eae93df0a1af8cf572953be91ca4f1da5a9d7",
        "l10n\/cy_GB.js": "02f88055db023f005bbecf95686438dd30491d4e3040bbcb925737cdc30e31e815b850d8ec7d350fc6294288e504d507119fb36a9f9dc4903e6b0e8fa099e5db",
        "l10n\/cy_GB.json": "5deb2e052eb54705245afa1f718747f25f79d6e6a69512f94bee36d7baf8fdf16cdeff58501bb264dfb0cba8a8eac9675dbd36d9b0d427c1329cc06a66f8a02b",
        "l10n\/da.js": "032cce2be70416974a959d7cf22e9915ea24587d7689f025c8022d4cfaddff17f4b033f7c058eebdb0fa775e5b1f790f001735779c3f4b5e4ab6c37e3cc603b1",
        "l10n\/da.json": "4e69966e9ddb2ae122b05a54047719c38217b3752b51f2b7f370427484caad2ef53aa76a5d3da67b5bc36b55f1cd875b3a30812037662ac6def35a31b410591a",
        "l10n\/de.js": "4a5488fa5bb16416f8d5cded15d68eee20a40ea70c8adbfb9b799fc42f54ac9d813e054aecdc6bb58997a2e57fb80044f808dd934235db206c387fa3ee02d0cf",
        "l10n\/de.json": "a56232f0586cf50854d48e715873a7666369e5c391ef79285d883c5edb92af22ad7a4b5643211af1d1eaad789cce8a110975b08d8b3044831368c3860fd8211e",
        "l10n\/de_DE.js": "7be85078adca06f4c47f088fde303c30f3c5d6547e1b0cbaf124378178cdeaaa4c656be65aa4f5f60da4d959fe16b8a980c578c662a6d0e5d91ab618a96d489a",
        "l10n\/de_DE.json": "2d823e5ea03acbd0f6bbb5d5319473bb461ee375627a2d9bfd9154e1e00596d06e55ff45fc3bf17d3301b9e4b1809bd8e6aa01064078dcc0ee97f1ba5d88b098",
        "l10n\/el.js": "d5d550ce62bd6af4e68b755a20f1621fb965568dd4d4f40d0c916bf061cc81c5f1c2abc85a0e698e432612447af2e525ff036d1e8485b682d59c983251102e5c",
        "l10n\/el.json": "15eb1ca9900ef2605668b213e188010dd67c028c287f1d2f349324fd425ce2f7db1bfe2c2058425b403dc5c34cc6e64756bf3f08df9fff22de88d8c94f33904f",
        "l10n\/en_GB.js": "98f86cce90513f63f2f6fdc7ce9c0100d965223236f6e55ceaae5294b6409d1e8a5ed5738f3e904f6ce1dc1360e9c38c414d2d04e8de65c41100c3250b68440b",
        "l10n\/en_GB.json": "2d25265b299955a9d86ca3e4397ba426b177b849cb4f93ad133ab43ea993606bca0545648dd3d890b16acccbad9581a188b112fbb48d68660dea2da9838bf60e",
        "l10n\/eo.js": "a514cbd33058d4b9579e8541862100ac26910f7e06c5ef5c37de2b8b3e8c366b7b8e5025c21fbc0da3e596751d557940565b9246f2948906d223e8a900f99a94",
        "l10n\/eo.json": "88096f9ce7ca9680fe322c36911f09d0a426dd3805098cdb3432e38bdfbc3393f4cde59a8882140645f5311fc9476c8be913b9c2e8a5df39443dbb621746f6d7",
        "l10n\/es.js": "ebb37739a5257c7ac7e90e9b779d891eab13e95ef6b6e6d1528776a93303eaca4ab7e571f19abfd7246bda7d5ef4d9dac648344e73fa2d352192707c0cd3924b",
        "l10n\/es.json": "8e8f7c50e43a594af3cbcebfa8dccb233f1942f85b0c5fc29b976f4844d3910c73080fe25a691d87c7d74cf85fdf316dde2e4bbdb6d0d1974cd756dfc8d3d5cc",
        "l10n\/es_419.js": "e96823f5d6aa9cedfcd040c72aa576c2dbe29806454bee411056f8f82a6fb80342bd55665a02ebb5dfc242fb64beac3ff9671c70a0c610ca062b315a896d1576",
        "l10n\/es_419.json": "9c0819116a9c92b4b2c9e26c98196f92d0d9f29a573c0f9b628aff5838c703ad8942d32b701821c95bbb60312dd423a6c3d3a2e60cb8687634585cb4e9f500fb",
        "l10n\/es_AR.js": "490070a4f3d8ae91df9b5c95112c360ae0b1ef3fc032fb5c10fcec0e24d2690028b46b4fcaf00eaa5b4fa4c4edc23558917886188c371f2bf4a6ddaebde5b8d4",
        "l10n\/es_AR.json": "86eb07bd5c8cbad00aef91d8fd42ac141229875f6f500a60da47d60f181f3b3e27bccb3a9ea6198c16008a71e4f0c01680b07dbc1fb4de9dab1699ff15f7eb99",
        "l10n\/es_CL.js": "e96823f5d6aa9cedfcd040c72aa576c2dbe29806454bee411056f8f82a6fb80342bd55665a02ebb5dfc242fb64beac3ff9671c70a0c610ca062b315a896d1576",
        "l10n\/es_CL.json": "9c0819116a9c92b4b2c9e26c98196f92d0d9f29a573c0f9b628aff5838c703ad8942d32b701821c95bbb60312dd423a6c3d3a2e60cb8687634585cb4e9f500fb",
        "l10n\/es_CO.js": "e96823f5d6aa9cedfcd040c72aa576c2dbe29806454bee411056f8f82a6fb80342bd55665a02ebb5dfc242fb64beac3ff9671c70a0c610ca062b315a896d1576",
        "l10n\/es_CO.json": "9c0819116a9c92b4b2c9e26c98196f92d0d9f29a573c0f9b628aff5838c703ad8942d32b701821c95bbb60312dd423a6c3d3a2e60cb8687634585cb4e9f500fb",
        "l10n\/es_CR.js": "e96823f5d6aa9cedfcd040c72aa576c2dbe29806454bee411056f8f82a6fb80342bd55665a02ebb5dfc242fb64beac3ff9671c70a0c610ca062b315a896d1576",
        "l10n\/es_CR.json": "9c0819116a9c92b4b2c9e26c98196f92d0d9f29a573c0f9b628aff5838c703ad8942d32b701821c95bbb60312dd423a6c3d3a2e60cb8687634585cb4e9f500fb",
        "l10n\/es_DO.js": "e96823f5d6aa9cedfcd040c72aa576c2dbe29806454bee411056f8f82a6fb80342bd55665a02ebb5dfc242fb64beac3ff9671c70a0c610ca062b315a896d1576",
        "l10n\/es_DO.json": "9c0819116a9c92b4b2c9e26c98196f92d0d9f29a573c0f9b628aff5838c703ad8942d32b701821c95bbb60312dd423a6c3d3a2e60cb8687634585cb4e9f500fb",
        "l10n\/es_EC.js": "e96823f5d6aa9cedfcd040c72aa576c2dbe29806454bee411056f8f82a6fb80342bd55665a02ebb5dfc242fb64beac3ff9671c70a0c610ca062b315a896d1576",
        "l10n\/es_EC.json": "9c0819116a9c92b4b2c9e26c98196f92d0d9f29a573c0f9b628aff5838c703ad8942d32b701821c95bbb60312dd423a6c3d3a2e60cb8687634585cb4e9f500fb",
        "l10n\/es_GT.js": "e96823f5d6aa9cedfcd040c72aa576c2dbe29806454bee411056f8f82a6fb80342bd55665a02ebb5dfc242fb64beac3ff9671c70a0c610ca062b315a896d1576",
        "l10n\/es_GT.json": "9c0819116a9c92b4b2c9e26c98196f92d0d9f29a573c0f9b628aff5838c703ad8942d32b701821c95bbb60312dd423a6c3d3a2e60cb8687634585cb4e9f500fb",
        "l10n\/es_HN.js": "e96823f5d6aa9cedfcd040c72aa576c2dbe29806454bee411056f8f82a6fb80342bd55665a02ebb5dfc242fb64beac3ff9671c70a0c610ca062b315a896d1576",
        "l10n\/es_HN.json": "9c0819116a9c92b4b2c9e26c98196f92d0d9f29a573c0f9b628aff5838c703ad8942d32b701821c95bbb60312dd423a6c3d3a2e60cb8687634585cb4e9f500fb",
        "l10n\/es_MX.js": "d3bc5ed5fcbbc60b7baa68a173661742142531852183243723ad4f87058b6a2ee580b1408ce2d7028f1cf590518f0d99e2dfda4b5b5c99927de71a9f015f28bd",
        "l10n\/es_MX.json": "96e5e0f750b70f77bab115eb661d8b9062bd36a0300468d0ee15512916f06c96d0abe0887bb27c949752a35db685803dbd453fd48dabe3eba915f0ebf122d79f",
        "l10n\/es_NI.js": "e96823f5d6aa9cedfcd040c72aa576c2dbe29806454bee411056f8f82a6fb80342bd55665a02ebb5dfc242fb64beac3ff9671c70a0c610ca062b315a896d1576",
        "l10n\/es_NI.json": "9c0819116a9c92b4b2c9e26c98196f92d0d9f29a573c0f9b628aff5838c703ad8942d32b701821c95bbb60312dd423a6c3d3a2e60cb8687634585cb4e9f500fb",
        "l10n\/es_PA.js": "e96823f5d6aa9cedfcd040c72aa576c2dbe29806454bee411056f8f82a6fb80342bd55665a02ebb5dfc242fb64beac3ff9671c70a0c610ca062b315a896d1576",
        "l10n\/es_PA.json": "9c0819116a9c92b4b2c9e26c98196f92d0d9f29a573c0f9b628aff5838c703ad8942d32b701821c95bbb60312dd423a6c3d3a2e60cb8687634585cb4e9f500fb",
        "l10n\/es_PE.js": "e96823f5d6aa9cedfcd040c72aa576c2dbe29806454bee411056f8f82a6fb80342bd55665a02ebb5dfc242fb64beac3ff9671c70a0c610ca062b315a896d1576",
        "l10n\/es_PE.json": "9c0819116a9c92b4b2c9e26c98196f92d0d9f29a573c0f9b628aff5838c703ad8942d32b701821c95bbb60312dd423a6c3d3a2e60cb8687634585cb4e9f500fb",
        "l10n\/es_PR.js": "e96823f5d6aa9cedfcd040c72aa576c2dbe29806454bee411056f8f82a6fb80342bd55665a02ebb5dfc242fb64beac3ff9671c70a0c610ca062b315a896d1576",
        "l10n\/es_PR.json": "9c0819116a9c92b4b2c9e26c98196f92d0d9f29a573c0f9b628aff5838c703ad8942d32b701821c95bbb60312dd423a6c3d3a2e60cb8687634585cb4e9f500fb",
        "l10n\/es_PY.js": "e96823f5d6aa9cedfcd040c72aa576c2dbe29806454bee411056f8f82a6fb80342bd55665a02ebb5dfc242fb64beac3ff9671c70a0c610ca062b315a896d1576",
        "l10n\/es_PY.json": "9c0819116a9c92b4b2c9e26c98196f92d0d9f29a573c0f9b628aff5838c703ad8942d32b701821c95bbb60312dd423a6c3d3a2e60cb8687634585cb4e9f500fb",
        "l10n\/es_SV.js": "e96823f5d6aa9cedfcd040c72aa576c2dbe29806454bee411056f8f82a6fb80342bd55665a02ebb5dfc242fb64beac3ff9671c70a0c610ca062b315a896d1576",
        "l10n\/es_SV.json": "9c0819116a9c92b4b2c9e26c98196f92d0d9f29a573c0f9b628aff5838c703ad8942d32b701821c95bbb60312dd423a6c3d3a2e60cb8687634585cb4e9f500fb",
        "l10n\/es_UY.js": "e96823f5d6aa9cedfcd040c72aa576c2dbe29806454bee411056f8f82a6fb80342bd55665a02ebb5dfc242fb64beac3ff9671c70a0c610ca062b315a896d1576",
        "l10n\/es_UY.json": "9c0819116a9c92b4b2c9e26c98196f92d0d9f29a573c0f9b628aff5838c703ad8942d32b701821c95bbb60312dd423a6c3d3a2e60cb8687634585cb4e9f500fb",
        "l10n\/et_EE.js": "0ccc9d50c7aa9634fd3a98513dc8c32f22d4e3fd96038dbb917ea804168825e88679651038b267623100d4c812b770dbfb502d892df298e686ddd32922e862cc",
        "l10n\/et_EE.json": "4da56a7d1a96f5c1d067e68fd01ff8730daaa366a0733b13240154048ce1a1e105fd88df925689eb3c7990ecca1f151f097a205b2b60c4feece01b7c468b899d",
        "l10n\/eu.js": "914437e574536e633875a0bb1b11d130b7378625934fd795050991a28d587c092d957dd67dbd896548a95293adee9cf3f913683e54174e1128a67841a8b757fb",
        "l10n\/eu.json": "a2abc2925881f48848ebfc788f5ea4dc98c476360b12bee22d68b527370f82861c2ee52989e8badbf27bde811ffe0a844d07b35c10e0ef0b61edbbaa6fc360d9",
        "l10n\/fa.js": "a8a392324dc77545154d7c09a2dbe17da74f4c5fd9dd28ff3b28bd02c134ea02c08ff602bfd6cb84f259d31f644b9f71037155ee4aab2d2457df241e075bf894",
        "l10n\/fa.json": "4e51fa8051becaf79bcef3341b0bc9262ac9bfbee8cc4210b479ef3e75d8e7de21c32a5705a39ca76e2b41a83d4d782a6a0535b10cd1048d6da22a6385e580f6",
        "l10n\/fi.js": "411c1c297d38ccd68766d43de95aa19467597da59f9bad65531354e88b9b5cdec87fa1b746a0e3d87ddaa591067573d64dbdb6d23ca8594c3562470cb3a27697",
        "l10n\/fi.json": "8fa4c842660c20700c15783c4e61715bdee843eda306249a6fcbae6b9104d7687e512e3d003133e6d988c16d814d0821eb31d7034ff6463bb989605afe75c6a1",
        "l10n\/fi_FI.js": "29f2e631e43d3cf19cd8562b159c579c41fc7960ea7ec86ce1b3885a388b54313bfd20f971f31338f7d37b3aaef3a7d9a1c01e825961f7d8136a0850cf86cf67",
        "l10n\/fi_FI.json": "fb922179ad966e03a6f83e6e5eaa3fa3db81f48ddb3215420de1546960947a8ac496a8b1fc6dc24b20cfa800279faa50174a65bd9d3f6406f5403e192c62fd36",
        "l10n\/fr.js": "15a414ad516e87650e7efeebc16a2b7c8064a853aac2efe1148dee565442fcb7f0e3f0e36ccfa62489f17d4729f8efc64854ce7efd6ee5c8837c1622343e54c1",
        "l10n\/fr.json": "0ee59db825acb0c499ea031fd91d5cdc1e13796ab35ae6f7284a449815ba4381ce8b6d387ce4ffb999838d23bbea18eecad50d66c5082462afebb018fb63550b",
        "l10n\/gl.js": "890d4050f766497b2e3c80e84e0bd79bff80cfc5e1c12da356b421789e01ab61ffb9a38856a882768e6d87d325c2d6497099c1fa9e0f923a9e6135cd9b13649e",
        "l10n\/gl.json": "da33ac047e0fc9eef3b4ad4fa7e276396c1af82cb4fc4323fc76beda51972607d8cfe3308f98d9817e7755e724570f2412070ccaaea43042db114b66f384e216",
        "l10n\/he.js": "86f930d916a0d55f35df99b036bae525215577f5bf6dd93f83d477abf8040b83ec989675759d20c0612587e961c79bfe3300520cb27d83d34f8c61c871df62c2",
        "l10n\/he.json": "70baafbc3791bd72d796100c29b9b7655e0d558091fb9caf0cc6c97501423dfca7f04ef925c39a96c3c7019ad92cf22ebae5b926c5013f398bc78ee78deec551",
        "l10n\/hr.js": "d17dc600301ed81a4fa6bc6e33da89c120d06b8b7aed60b99ded0b06519463fdd9c32c63cb9570c5e285734f04d57fb1c5edf3c52b4d095aaad673afa0b575b9",
        "l10n\/hr.json": "1c849610f5427867bfc7ee39f9e34309e7684564a5c825ef808fbf7dd1c703903e8b61c1c39c19e593e99b80e719be7844ff48b484429a8b50771fb3a22d9f39",
        "l10n\/hu.js": "1f31dc39546bd7af6b7b45cfccdd5c7283ad2d81ff16a208f255b08bdf21f820fb82dc9c504accab27ac500bcb6be577830c4dbae794a9fbc372f178b89510c9",
        "l10n\/hu.json": "067d678049b2b3a37126e63f914ba2658bdaeb72bab785cbfe6ad32ab29ffbea50b0cc6dc915ce307d846da9c879a1918ee9b174418a125f6bbf92625ff33fb7",
        "l10n\/hu_HU.js": "73c8084f104db74abbc31febf59d53ef27ab1c0ff7336279f34e993ab0f970922f1299615a548be4a8456b9baf92d36891613d6488a5bff4c2954335f789c8e9",
        "l10n\/hu_HU.json": "59eedd8a1b0068789595d985974841b8094efe704f1d0c248cfb300cdbdf392335e87741c8d1967d48fcba024a256aa192cc7323ed700738e8ab2909a75a424e",
        "l10n\/hy.js": "909de656c1654a1898fdf03aa59267ee72239326c3ebd88bb856ce2d4a2bfac50a530805cc11b3574a3656001950a379aa10a381b5389fcdc339746754bc56e8",
        "l10n\/hy.json": "6d16d33b880635731c3797fb6c84392dde59ed0037c1e80f9a96f5cb9b32c6063d3987156efcdcbc540925dac7ea86fab22598e43518bdaf446ad8eb029befc0",
        "l10n\/ia.js": "cf8ecfb610c1baa0d4541ea40abd6416eb95d755a8e432ab1135ca5487fd11466e11a947e1c1067d69d0667af57d0dc0f35707844b59c3c47e9e5850939f4d59",
        "l10n\/ia.json": "ca4927466bf565533382d07209081e083bf727be5fd5984652301bb67a74265d01d2e6b4733c17d4463e836543f02f50af0b0eb79a5efc7308a3bafac7277c07",
        "l10n\/id.js": "49d4c84f80a618c85c9bbc2480b08b3a620d24fea1cbc25c2895252aa91891dd6352518a668db38a56c0b324b1a8142d280ac7fc9d8bac4bc15d383346a0af17",
        "l10n\/id.json": "ec559a6e6d761b2b9664eae36e2bab3b207974bc29684e32558177e60163f702096968dc339eaa67c6ea9566729a72cdcfaf7c37bdc39f59d28a28415119de51",
        "l10n\/is.js": "8320031cab97c06fdf083edbb0d4787bb8697840ad1ef961d5a19500b1fcab061ad10202c18f67a32b1a998bd7fd6cebd5aeb1448000f52078a4f9f456a25894",
        "l10n\/is.json": "b07abc34c7929c5841d5122ce4c3b129abbb73b4d9f0e3db89a7d604b641d17fb3849f3d754551bc1adcfb1c9561bf96d2e2aad9d3b0a9d60d5bb9907e7e1b04",
        "l10n\/it.js": "9c34171da2eb212095e63f32acdb885f6f8160b064d63f3734afd4446f32b9d9912a3ed94e0d671dd2b48205904ef13fa9e4debfa03a1b04df5885bfb4a0068a",
        "l10n\/it.json": "f7a65aa9b74bbe41529a9b688654e28529c5de8e91a089096227c4de109d82deb4b5931bed39587e6802cf0fe7fb57358d15561ce2c0efea328296f1f4aede41",
        "l10n\/ja.js": "30895e29806be5ca8ebc1241221be7cf6e2d7ab8362cd267d509a1ec574c245aaf151b840d89eba01f0161130fdef8bf14c37f919f47c67da9809b389e5535da",
        "l10n\/ja.json": "67360189411c4fabcb6c7f51baa234355fc2383afe0cc7dd2113ef6feb30c58ccf1ab2579b34444bfaa869f9d608332f7da09fe3fdb247fdc314cfaa6f7cde1e",
        "l10n\/ka_GE.js": "babd787e76c540f21109463c72a12384123ddbfe5ac8d18043ecedc06d2330695b6777b74bcf51e7ab32f7813052ac523896af1e9cbe8a415759813085ba4ef0",
        "l10n\/ka_GE.json": "7973aa0753e36e6612e2ac04c5aa42f01da1172edbed29685a0394f4879b36962caec07fc48cf30295de1c25dcb13ff20efd2e86502ded4571ff1e708556a2c7",
        "l10n\/km.js": "f982fa966a9e03f7fbbf8046a669b669d7b2724bd7317e820b0af24c292f8a1f79b21511135135fd6a195031af1d9e5b82353acaabccaf29dc2e0499bbc469f2",
        "l10n\/km.json": "6bd1c94a95763dbfc627eb78309dcf464e9f55e043e42a39d1cc43dc4a7969e04e7014f736b435fe7a725db83e93ba3a2843b68628136a77b993850aafed2858",
        "l10n\/kn.js": "9a1ee47baa84faf35a77649d484f685a8b46b5f49c5cb8a87f68c972a8671a2c34ff689fb82d0f47ffe7a6c411e83010c6b8195ae441028bfb254150ba67c83e",
        "l10n\/kn.json": "eb30ad1ff7756bbe0eaaca5868d88be02b24ca86924d2e35c331d016fcb5d9a5e38c75c768b773987e80e40bf9dd28c1c52e68f63c86e87d15963d6b709427ba",
        "l10n\/ko.js": "e55e98d5c68be592fed0b7742e2dcc2efc1fb95e81e597b17838afb5133fe9c319d8a4282b5aac9c90fe988121692544b63f2c9c423c8e4c8a3fec4a08348d05",
        "l10n\/ko.json": "14050c4e05ea3c9956aa0f4395b555b20196939f5913bd4a12aa71e5cbdb3d4d4d947572a06d2ff46157f76e18fb3fb3a870ca9185cb96a51ac50259143a034b",
        "l10n\/ku_IQ.js": "6717244300c031f23f633908475c64f834d5f1ec8d9e76d52fdae66ae7ecbf1b79a7ee2125fe90e3b3c7614f65d1ecd931a6d79613647269f62b0324765d0fba",
        "l10n\/ku_IQ.json": "b99f8c54034b84059a087b35a8430f5d289dab211ce04e2cc33997fe09687b3c9d471635814393b6f5e7346b2c45048ee3ede340caa1837acd7d1309309092c3",
        "l10n\/lb.js": "b4b13475c8308bbcccffde2129f25b057b4ce06a83b21aa58e0af510188da20d46b269f982fcf0f6190303be4de0269568cb841461d949853a8859ec535064de",
        "l10n\/lb.json": "dfaa78d78c683a0451f28726160ce6105e0b3fa9038eb5a3e223f79fba6e237b5006060c084ae592870490ea01b331082eee6ebb95974015df3bbb1fd8840b83",
        "l10n\/lt_LT.js": "d83c410d435b332ae80a149de6833991dcbc0ecce68c3c5c2900d3bacc88c7b6a5aafc28c24adc22e7d1d5d55063a651d4889b426b694bc46532f59169c2a71d",
        "l10n\/lt_LT.json": "03fb07c19e26e3af67a4944a756f424ad61b53ef745e7e87c645ebc2dca51eb067313fb9f3dc7b1f767dfb06bf33ca8069730065fab4fe772bbf568676f4b26b",
        "l10n\/lv.js": "51f4d08a82c62f478e6887c6fe779d0d6a7880d39a45acb1dff976b4fb60db2d9c48f8512301d7c6aae6955745b955de5d0ff49a8b925303ae3b6c696f663bcf",
        "l10n\/lv.json": "97d53b23b77363109b43398be20827ade37244fbbc1fb079225b85f6d68697b9a4da8c7564fa8355aafbedb6914052d8d37be27226fbde6f9424ae962bd551bf",
        "l10n\/mk.js": "f9c81b6a7cc4a19593f3f9c6e2e1daf6a41865f185c0d0c727e68292213e3a928f5b3e65a55eb239ce68b950938f0bf239044ebf78f8b0b4dff2edd437cbfe69",
        "l10n\/mk.json": "e8ec351f300f4c4d288cad70622a027ddc3a9b3cd08b76a45f2189f570387bad6f617a7aab89d62f222b1752c89734dbc586d02c8b0d356e97f079629f6cc4bc",
        "l10n\/ms_MY.js": "b74fee0084498cf0b80c5ec4c8dad7b4b42c5d2c9e242653911ac2b1349b00315ed3176be6063ec2cf62e06d2da5b38a650eafe9e287e0d2cfe148aecefe821f",
        "l10n\/ms_MY.json": "a4077ef5294cce4f5b3ff6e2091d6ae21dcaf9d430a2ae4d11e7e53b530998fb772a500d65fa67e3a7fe64d15dd1731c9a667a4b3ceed4681779acb7eacd94cc",
        "l10n\/nb.js": "41dde2f2c8f0a953e254517f5435720f63363e1173b6a350f849d58f5cf094591092f98dc1db57d486f1014fd5103914802cb1b8e71debe223ea104bf9d33a57",
        "l10n\/nb.json": "0b1feeca69fcc2444a7ad7ce9d4ba2f5375825994c70a13ea1eb42ae46f2e6c1c8678eff81b108e4cf5d7f283a53555f824ef0534e7a8d4d4a987153e2461c88",
        "l10n\/nb_NO.js": "5c61aaa5b0201958454fe77ea6245bfb85ae6acbce0b5f8945919184a28ace544319a3b7a8984baf894454e6785ac7bfd220ead7afe7bd5d811f78ae99c46da4",
        "l10n\/nb_NO.json": "6480e7ed1cd54da52b979c09d9197df70280af20b8b83ce43042bc0f2f96e1f57a940113bb6504683949b6611f733d9b8779caee70d7e22205e6ea0de8858e12",
        "l10n\/nl.js": "4b7d802f0377603206a5ca460d7c22a1fb92fed18a4555ffe075d8bafb908581de40b464d91ee5d7fece4eb393fe4b81b67689cb258e13ab4fc10a71935e2257",
        "l10n\/nl.json": "add89e27e11dda9d5f40039a11bdc49b63645ab26f21b3f1e2cf6599d62c6bcad5fc41ec848bcf9fd83aac9de2e3412ecb75a292b48d55707ea0522dd9fa4597",
        "l10n\/nn_NO.js": "02e3ac45e9f9c911963b7c96f0ca0a1ff9d4ea3069e34f03f2df3b46ee0f5642f09cef26d6a20fde33cff9792cfa3524f4346bc26d14f98f2405887403a5f3c0",
        "l10n\/nn_NO.json": "f3fbb33b573c80375f589e67429809e733e336047a74b3b32e693f386028324da22b9e5a4e486ca7f0d3981e24e6c7034ffde64a1bd73dcf75f2e28efe7083ed",
        "l10n\/oc.js": "5b302270d3f2eb6ea458c67a85b136687aec5d38865f679fe48d7b4ebaca51a844cb9e4cdff2882b57e6e3f5079e5ef82207e5d80af1fa0bc2b600c3c2a92470",
        "l10n\/oc.json": "0db5ad5bcc607f3559ce152bd184d1d323a6ab74688f59239fb2195bd26e0a61b6a735f48b1cdb04db8b75effe5df503d45654d75810fcb3537b443c256fb160",
        "l10n\/pl.js": "69d2cddf7a6298a7492857a60cea5473b197e29d6e2b10da7635ef5bd383a22f57017aaf116fa1ecc3d7f3e18be3d71804aebf8b56b7a429a6c0cf57972ebf77",
        "l10n\/pl.json": "a3ec99008a9a8ad0f10c16284db0d90c15aeb49720c1238c953bd16947ea443243146e266244f8da48387db3458500ea2c86569a88a2f0126bc8bfb2ae87926b",
        "l10n\/pt_BR.js": "0fcf45707046fd52cb4bb1db4b55c6ff0d593619e0fa4f047d7f8aefd23bef2764f743e9a9407190987705738dce1f9261a5541d3a9b261f3e8e7d3660d5a7e0",
        "l10n\/pt_BR.json": "ba9f230876907156ec67901e002c0530266a1dd372362e55c0adedded41d83e8efb6d5242cc385094f47c343b2c5419a714cd92b4a41d5e3139bc1fc889b0a07",
        "l10n\/pt_PT.js": "1302c3c5b37777e726950836143283812dd91733e518298716cb60dce8dd41c0ecfd8e55d8095d97ca09db0ea2eb0ec409dadbedcf7a43d0315f6e6057c10fab",
        "l10n\/pt_PT.json": "3a0bf4842763b720b5381928ee61c261e63a6b94bef8771f8ef881449c8b2df460c4bc46d0bba3e13984ac518e8eb8c8f92654ca47f1ee818f353e21af003ab5",
        "l10n\/ro.js": "0cf8a1c0e19d94ef3e1a9caec8c29ee172bd9275558c698d7265206e72626ad2bb6b2483293504f4e9a66265a8e98de61d0f355b92c7cfa943c789ec7df078d8",
        "l10n\/ro.json": "5cbfe5afccc851fbbaa59af7e4068ead63526b10e534c4a099a9fcce5f017471b88ba607a6386b65b78eef7ff6bfdc5ba3bc6e72763f2b3f71715bb744b63440",
        "l10n\/ru.js": "f4569dde4178d10e58a7c033481b2656703bab7d2631308713bc1882935f92910451a3155442409668bcc760dd1e9304fe4d9b4fc8b7d8078d5bba8201c5b7c4",
        "l10n\/ru.json": "c180f82dc6d3db462ea120f44eece716164ca73c76049fbc54a13c4b5679ba5ac4c99e8bfa51132ede5a040b9b4df64e7236750a0437418abeaf6cc2c031db15",
        "l10n\/si_LK.js": "5dd90a6a3cf24d23f5932206df3d7ef0bb136342e57d7bd956490db36b1a05e69e1945cb6f81dd21dd12ff4cd858e0af795830a17421623d08a1942daa1cfeb2",
        "l10n\/si_LK.json": "750e0a8af5d684120ecb84f3bbc896f97a86188634b3351543df15f15e9d49610211540ba37f5cafd41d965b797b81a9b46212975ee2a6d7a892e3a16f32ea7c",
        "l10n\/sk.js": "c02adae3cb7096275672ad05a14c091bca907156aae3a2fd9815e43962c0cb485fe5cedaa137ccbf0087005b543126f73dd5100183975d96c7bfb80b12fecee9",
        "l10n\/sk.json": "b3f3b0e7c652d45bf581be388b2884e24cb8a315c6cb21021f7eee29f6c2e10cca015f7c92a8075a8ab3bbdae9b2e8f1ac46ae361999bbd67135cc171ef80433",
        "l10n\/sk_SK.js": "11a1c8face63c1dac69501eb4b521a6a238b6df42c36726a2bf5a6fbf78d99802694707e6c200ddf3836c3642e04cb58d1637a4539256e9dc71facf832121de2",
        "l10n\/sk_SK.json": "3d7cf3cdad22364138690ed24ca57ea8383ee61cf65b00863386264ca5d86b729269addb042adbd81f552634c406a7dd3d2b525f1047fab259c73a8cfed6967d",
        "l10n\/sl.js": "fa38e99f16dcb1df96f14b5fcb4c1f5b86ce11601ca87fe927b08971df74901671c04bab67cd6658b07b5ce2515099c8dd9f21b5bd6ffdf9d8087019b8aaf80d",
        "l10n\/sl.json": "7d486915557298314e6d73643839bc171fc506ae8bf60f8e7636c8e3337d3d7b07ac4e78d6242f731b0a56b4e718fb209d8cf4f6dbaa43dbbd9c5a9e2493762d",
        "l10n\/sq.js": "a6a375b53ca3e3b97e96ebfaa0c9a1e6fecd4f9cd0dd0db5c93e56bb3b9f976ca2464934a027a1f6f3c2326a39331eaf332446d8cccc014bd5c412d4a66446a7",
        "l10n\/sq.json": "da396d3c30f62cdc5300744568a47ee984cff42795856b186de250d06c46e472441825cc935570368ddbc6aba20cde8fcec1692f217e3321d62cca50265806b3",
        "l10n\/sr.js": "6879c5fd11b912689960c349647a8b5867e8f589f01e0af0af9434a4e9f7597cabe68a26af3ea8d833eaab990a5587e827660c6b671e1e1df20576e6b94da362",
        "l10n\/sr.json": "4e7c59e3becefaa180a96ac55d2776c064155e22e2e204200911bee0f81c3b3092661d24df6dc5ea0650cbcaa0e75168698efd25c849c8dd49e4b77f2b215941",
        "l10n\/sr@latin.js": "83d50011e8cf0e5c934e5fbe09968e84ec22d08c2dcfac27fc017f739d276e9ab4be72a9682d07af1821d1683c658ab68496d1ad1007d4b2cb50e9ef0eb496b6",
        "l10n\/sr@latin.json": "ca435c043cf75d55b8adcad0d6bd49c910bb2f1fa028d2b2563aecc4403d508e0a685db98760017b0dd0079c46e287ddf3e1150b994a6ee18c98164bbdaeab3c",
        "l10n\/sv.js": "4ca543fa9b4a4076becf83ffe4f42e2bd56dd977e842f7308a5b01c9aeb4d076245f9c2648846fc13317c6cecfe54ce95d72a099d252fb533b1989d26d991cb7",
        "l10n\/sv.json": "bbd237452b93d844cde28ef8a5af13c9998124f2af7791ee7ccf5c3e347f080b92cd8e07235b0629c459f42622d602e98b811f8133c63845ed1e831e4c6a9686",
        "l10n\/ta_LK.js": "3bebf7de37b91704b77c9ed1f0213eb33d3be0d4bac5a1410b8bcecf0e6c5c73e99b21214c8110b3f74981760aabe3baf6f3cd9c3da2cbb0e952a48719803caf",
        "l10n\/ta_LK.json": "27d83d0472da319e885023384db22ed493668b3d7d0fa3651b5a9c8eefe9b94c250c76b5ab321d23e405a48f485684040081dc1b5e2c22646821a3d344389195",
        "l10n\/th.js": "2d257c0ae4401d9edcbde8aad462297ced399ed1b170361363e63991493cfdca58c568b029943e86737038f473c8cfdaed9953c108ff2f34421bc2c48c620e93",
        "l10n\/th.json": "79a13c22caaedc04b4830c3596a6a329a6a002d7e8be6dc1830bcef575d116b89b5ec124c7caf12a5f01a8e6957a26213138623bbe47246d99113e2023725a9b",
        "l10n\/th_TH.js": "7c2b97769ff2b20e7f63915e2e507a176564448579fab4b42648360dda712b70326a45479747bb195a763185e30b56b752e1c5b7ff91cb08862e57cb7d7128aa",
        "l10n\/th_TH.json": "bf7ef2bb09dc4c9523c2e76adcc356c71925a5a7b7fec9d5257d3b585e17dcc995f2039ca88016602053836c951142535d0cd0221346d581ea7194a278311731",
        "l10n\/tr.js": "a91756e1dafef7beec5d96d60ed7c44d6510055b26eb9a79899417d7709cbbd06b780ad375f75fcb53925c9646dce53b11dc252705c043ff9d0f764c6f817bb1",
        "l10n\/tr.json": "1d037400ab37213af05810fe7d159c41454444bf54952ec229a2deb5b85ef5ab1923af70e8f4358e29247ed301d54f27c415f609d6d2098c2ba3c591b6b91839",
        "l10n\/ug.js": "01c969e66bda0eadb4e760efb464e25dc59ef07be7f72da05cdc602bb92044820d08c20cd2a66242eb8b56f26985768c85c0c9cc3c29ad0e5a5c14c49baec371",
        "l10n\/ug.json": "0178f758d554254d6941e70981e487b210363feb2afe316aecb9e6a5856605a511fddea98087da6b76be3850cdb0e1dff61d495580a8bdc6d3fbaa3c29161f1e",
        "l10n\/uk.js": "b93e2a7c7675f857cbac2c8e193a4a2560311469de9f2a43af16b69d3f3f237014f08ec522144d04218b53cfe326910c6b630e8052b2404e0147a54448955f07",
        "l10n\/uk.json": "e3236ea1a2ac797718366f6c8450ad10f9a69d01ef66be2341ecab6466356f9e272dcc76d05a19be4de2e10fe14743398de591b6fd5da02c0195c90ff0c26c77",
        "l10n\/ur_PK.js": "6effa2e2718d38ddf1322605be8f128abcbb0a6041aca4665c21d6e5b152734802f3b634b9d6792738a98cbffe7b98d3034f6902c447e7b854ada7b33f64211a",
        "l10n\/ur_PK.json": "3f4506b3b15cdf0033d64fc444ab470bfe3245609baa402229b5d9c05efc2c8827d43d576dd35801babf8abd92d52ccbf38672215a047e7349ec960cee66aa7e",
        "l10n\/vi.js": "6e0bdf294cd3daaaba06ab67aa5d22c66a86706ab5cfdc19bd690ba04e1d5b1cf8cce03045528b0eb7be7716d9f04c532727ba96b4332622cfa83b2aafc9ef99",
        "l10n\/vi.json": "79a6e31c3f86dda02f46c7a36b624b50d477c9a7be57cc33c68311570b7293d388564bc2452a28196a5188d1c69b94b8587e3fb9101e34532892f83850825458",
        "l10n\/zh_CN.js": "94f02c50588f15e7ba827917e6465f3ebc67f0649004eceb3b2d490674cc0245e02336765dea038e0e50fb127fd46df4e32cc6304719d6045b5744a2653ab20a",
        "l10n\/zh_CN.json": "25ce3e3759cb2c47ac7c05623bcb40660802258b7bf2d5044e6fefa75c76c1124385b366feb5c85593cdf5c1246373098c9e77ef8b825217dd7d48ce3eb379a1",
        "l10n\/zh_HK.js": "f987f04480552009b868b4a8db3b79a672922b2343b79411a4e50bcaf21704150f06bb081a1ea46a67e61650d1fc8cea6f0b8d383b004c7b6d000008369a9693",
        "l10n\/zh_HK.json": "dc98eafba9135b68cef464db2d94c7554fd586e4a951f8f771c8b392866a384ab6000779a3ec0e02bcedc03d6531b42a0a767c6943ac9417a0a8c3fc9c6e0ff4",
        "l10n\/zh_TW.js": "6bd8ced8159c294abbf82b769a3714a32e474a4a3ea71288c1ad17296ee64770ceb9940f177ca155917d87c65275c34fffdb289696dbd48ad0588f8290442ed9",
        "l10n\/zh_TW.json": "5937814fb99d7ee4d98cf1f4f9fc2c46abf514eaabad57f7c0c2cd2812c13536b68b4262ddbfa1126c854c61c2bdf60fa493ee1897837f7bad0f95492d7dc32a",
        "lib\/AppInfo\/Application.php": "2cbb3d82958761f948b1a6e61faef1fd89a8a1f400b1e607da44c30e97d2929dc0fcfc989f318fade2468d76c738bc93d6ff5c0d978277485ff05d9ddcfb30c9",
        "lib\/BackgroundJob\/ExpireVersions.php": "eadadafc36a1e86dfe50ac0a1fd4653b4a4b7d4f83caffd7d5ebc8fa245be226a097f2d41b9cf939329dea98ea9feef8821582f0c3960c3de47a52d1e9fa2582",
        "lib\/Capabilities.php": "c69ab219b91fe85e85f99934b5d1aa00b66e564b5b465cd9769d7ba163f6f2c4df1731dca6dbe88eee8b277fbf66ebe7d068c8f04563b6dbb0e2ea9144c0c8b7",
        "lib\/Command\/CleanUp.php": "3e09539db8ffe666f04e39d8d0aa6986665b1ac4e39c20f4c993b04d18d3a4e7514fae678466e380ea9d8b74104229fdef047b12638442bd8b8300e0f7bde08e",
        "lib\/Command\/Expire.php": "cadddf3de068de7a830506e7b4936671f84250e0fe083d66056db3ea2e32c2644f396e7f234108ee04f843f0362d8c7cd66fadb8cc49df25c6222671fd9dc641",
        "lib\/Command\/ExpireVersions.php": "cb9c69ff2fe0421637a415da07af80d8a3d8e1cc923f8cadd87f9ce75d685ebf6d39407617ad153b75a6d51b54e1fd59d12574e5c2215879d95f29dd67461682",
        "lib\/Controller\/PreviewController.php": "bc8effd7c5e24631d44caa55421ba925a9788076c977312152b4026b2cd40fe133c36bf20e80080358fd17ddea49a35abb5c00fe288a49304add39326805186b",
        "lib\/Events\/CreateVersionEvent.php": "4b6155a212eac8736c5a9d8fd55e4da9f98427615ff7e5fc0fe670980fd3678a134ef62ba0435d9afdef566b9a08fb082b5d7653869d903751a44276e3f71f37",
        "lib\/Expiration.php": "e8f68a5e955bca634822b6f1b16c73b84ca06f27aca625872758c7e4a7ae59954674f04b914e7872ec457188abb743b4f428e7af199e9ab29c9720304946ee4e",
        "lib\/Hooks.php": "28271499cc9abfe0ab5af89199db8b81d72ca0309eabd71049b9375e068ed43a2dc335c16727b2be22d8b4b683b062a7664b83916696105f481dd9afa3cf816c",
        "lib\/Listener\/LoadAdditionalListener.php": "adb94ca73f4accc89e8bb278a76fed5d7189721b23a1e48011a2b9c6ea46b5f14b3f3b20e9928a70f3da35521aa78fd94b6f5da90e2a961449c76fe794d422aa",
        "lib\/Listener\/LoadSidebarListener.php": "eaa790051c0ac8d58d46c807aeb2da8339ab54750779ece68156ff4b668b270a05810592effee0b1d26038986e2c68f106e464564460ac3eb990593cf2630230",
        "lib\/Sabre\/Plugin.php": "8ac71c7a497f8e8d2e86a6758bfe0583fce10cf1bc01732dbf8558ecc956c9b046c61e5159bf3fbf8f4d671aa1fcf9940eee1514cff64955f614c7a2b31add5c",
        "lib\/Sabre\/RestoreFolder.php": "b4822c59d4ac11519e9cb3630f05c89ad4e630b7d31ab5f47ba2e5a186354e0294b3957515c4038978704349791d3cd86a624911781206c051c90c382b469235",
        "lib\/Sabre\/RootCollection.php": "0ea208ca109bd9099b68b903f669a3652991b29eb6e9e60c2a6b03b9b97eeae89589d77388de45c4da82ca3b2b7726edfdc64e89d0a47d492e4a3c6b934b9853",
        "lib\/Sabre\/VersionCollection.php": "5f05070e94e971308e6438938003c5d8d26a9e41fe47a8ccc5a31d7eba4073b2321bc016ed1668538c645fbc7f8f40b1ad5437264f4dfc53b322fdff9a5216eb",
        "lib\/Sabre\/VersionFile.php": "4c399c56dd61cb150a6e5a2364433086904599e7a1621bb2578a3a92e3302aff5fa27f248a9352ae2a5727e9a2cedda963039f28aaff7136e4bbceae518d6392",
        "lib\/Sabre\/VersionHome.php": "42af6a7f224a41a754163cb765f8992596c0972c5ac75847b11dbab979fc2e1e3da32b72d6492f983b0b4474e6845d895c64c657c21b416800f720b562415102",
        "lib\/Sabre\/VersionRoot.php": "f9ceb4bf540076e757c3ece954bacbce87d96a4f79ccc952b09f8ee4a5a4b081268cc55109bc35c126f74d45a0060b53f6a545dcc9f92973ba50c1941b5a386e",
        "lib\/Storage.php": "6440191e39667f94f9d38650ae5c2ee356661b12f078241836eef1995bc64f3c526b5012a6a7a059d00004ba3e0786feca07141893191d4ed6f7177aeeb3affc",
        "lib\/Versions\/BackendNotFoundException.php": "4b26365ff2517021850e1c38a2324f4ae828e72eb9572b370d50bc739c7f51efc543ad7a26d28de43c6bc9bcbd9471afba9d5644adc4852b7105a1290b03b811",
        "lib\/Versions\/IVersion.php": "7ed8fb5049573360e1d020d319786b2cf393fdb15beb97ff8809ffd725dda09e19ec8052267c72772ef9f33d18166fe3c3d404d73a5aaabaa2887e9f08fea96b",
        "lib\/Versions\/IVersionBackend.php": "df2d71d2fa3b23248aea038838ffb00d58658ddec7752923d8dd88aee4e91f8daa9399970e12b4ef48e6159418f7d3fe982a0801408b6bc61c52da6466bd7299",
        "lib\/Versions\/IVersionManager.php": "b105fff4a63118de7e478f1491e2f9168073f99c6cf5b9ff88ebdace29061eb1c3db931d84dc4772c59eea8bf7a264648f251eea51e7c7ae70d898cd339ed445",
        "lib\/Versions\/LegacyVersionsBackend.php": "2a2136ea9bc9438a3224276580df103a6797d84155c4e653f245edf36adc7b3323d991dddee2893e1946f2867644bfa4f6201c01ee0759606de73d5d998d1a3b",
        "lib\/Versions\/Version.php": "5031283459823fe8408891bb8fe4794d27193b56b173699e6744f7b3d5dad3211e45f64f3b3ccee997160ea8e82d5e163afc519fa0cfcba96d86623d6cc6011a",
        "lib\/Versions\/VersionManager.php": "1338a6a94cc53a0a9f03e9ef7a5a6fd0f5db665628486bf003e62cc8705661765c959343b06b3ae22580d348d4e3dd8f500af648d8f68c4a40fb003b34ac5e3d"
    },
    "signature": "DwKxcgfWpT7rm04tihJ+H6eZs7tfAj9IV2vJ\/hdHwORbx8CSoNrimqTD188tkWY83Q\/+WXWaMbk0zjSXcEX3RltdQmtghzfFHey0ZU3KDkVCq9i6oFQJlB1C+mWze4JMddrZ7p2bXyCMa6LI5aQq4TuV40PX2lIn+Mej69ScLcaN8bBCDXBtepevzUaSIG6TdNThQ\/g5tb3iPUNI9II9CXDOZb37\/B5KWmoi3nJNEk9zXPvq5tO8p1cSjF6VCMq8DUhyiO5Zi7ViTHVnsEiThp87JYVUjIxUsXZvlhbddmB0sxnJGqJ2wq08ywY+gpqLvS83XAUw3FxoZJyefeO0jg==",
    "certificate": "-----BEGIN CERTIFICATE-----\r\nMIIEojCCA4qgAwIBAgICEAAwDQYJKoZIhvcNAQELBQAwezELMAkGA1UEBhMCREUx\r\nGzAZBgNVBAgMEkJhZGVuLVd1ZXJ0dGVtYmVyZzEXMBUGA1UECgwOTmV4dGNsb3Vk\r\nIEdtYkgxNjA0BgNVBAMMLU5leHRjbG91ZCBDb2RlIFNpZ25pbmcgSW50ZXJtZWRp\r\nYXRlIEF1dGhvcml0eTAeFw0xNjA2MTIyMTA1MDZaFw00MTA2MDYyMTA1MDZaMGYx\r\nCzAJBgNVBAYTAkRFMRswGQYDVQQIDBJCYWRlbi1XdWVydHRlbWJlcmcxEjAQBgNV\r\nBAcMCVN0dXR0Z2FydDEXMBUGA1UECgwOTmV4dGNsb3VkIEdtYkgxDTALBgNVBAMM\r\nBGNvcmUwggEiMA0GCSqGSIb3DQEBAQUAA4IBDwAwggEKAoIBAQDUxcrn2DC892IX\r\n8+dJjZVh9YeHF65n2ha886oeAizOuHBdWBfzqt+GoUYTOjqZF93HZMcwy0P+xyCf\r\nQqak5Ke9dybN06RXUuGP45k9UYBp03qzlUzCDalrkj+Jd30LqcSC1sjRTsfuhc+u\r\nvH1IBuBnf7SMUJUcoEffbmmpAPlEcLHxlUGlGnz0q1e8UFzjbEFj3JucMO4ys35F\r\nqZS4dhvCngQhRW3DaMlQLXEUL9k3kFV+BzlkPzVZEtSmk4HJujFCnZj1vMcjQBg\/\r\nBqq1HCmUB6tulnGcxUzt\/Z\/oSIgnuGyENeke077W3EyryINL7EIyD4Xp7sxLizTM\r\nFCFCjjH1AgMBAAGjggFDMIIBPzAJBgNVHRMEAjAAMBEGCWCGSAGG+EIBAQQEAwIG\r\nQDAzBglghkgBhvhCAQ0EJhYkT3BlblNTTCBHZW5lcmF0ZWQgU2VydmVyIENlcnRp\r\nZmljYXRlMB0GA1UdDgQWBBQwc1H9AL8pRlW2e5SLCfPPqtqc0DCBpQYDVR0jBIGd\r\nMIGagBRt6m6qqTcsPIktFz79Ru7DnnjtdKF+pHwwejELMAkGA1UEBhMCREUxGzAZ\r\nBgNVBAgMEkJhZGVuLVd1ZXJ0dGVtYmVyZzESMBAGA1UEBwwJU3R1dHRnYXJ0MRcw\r\nFQYDVQQKDA5OZXh0Y2xvdWQgR21iSDEhMB8GA1UEAwwYTmV4dGNsb3VkIFJvb3Qg\r\nQXV0aG9yaXR5ggIQADAOBgNVHQ8BAf8EBAMCBaAwEwYDVR0lBAwwCgYIKwYBBQUH\r\nAwEwDQYJKoZIhvcNAQELBQADggEBADZ6+HV\/+0NEH3nahTBFxO6nKyR\/VWigACH0\r\nnaV0ecTcoQwDjKDNNFr+4S1WlHdwITlnNabC7v9rZ\/6QvbkrOTuO9fOR6azp1EwW\r\n2pixWqj0Sb9\/dSIVRpSq+jpBE6JAiX44dSR7zoBxRB8DgVO2Afy0s80xEpr5JAzb\r\nNYuPS7M5UHdAv2dr16fDcDIvn+vk92KpNh1NTeZFjBbRVQ9DXrgkRGW34TK8uSLI\r\nYG6jnfJ6eJgTaO431ywWPXNg1mUMaT\/+QBOgB299QVCKQU+lcZWptQt+RdsJUm46\r\nNY\/nARy4Oi4uOe88SuWITj9KhrFmEvrUlgM8FvoXA1ldrR7KiEg=\r\n-----END CERTIFICATE-----"
}