{
    "hashes": {
        "appinfo\/info.xml": "48e54b49808e102d4c91e88a16bef7f4c2f340157e9abadf08ed82ddd6246b39183dfcee2ef84e1ace96c4efb03c8c90bda9ad598c540bb84db7ee25c1920e5c",
        "appinfo\/routes.php": "12e0ef8f2a887aa48786504721d8a4d59bd77021a2839ec0479877a4583fcec16ca4701eebe15e23707adf1e84079b379d942ea67cdbd4dd6eb12b0b8626357d",
        "composer\/autoload.php": "0e3da70b426317279d9ed332b09f83bedec6717b03147ebc5c7d4bb61d6008a99729f64c431bfc518dee8d9829f32a40867493ecf56db8f52f7e0368df1a4865",
        "composer\/composer.json": "7cbf047bd6dba96c6bb5d5227352ce20b83875ef633dbc044f761dea5072df00c5f72b53ef7cd25da54f302a89bbb22efbfa854f669f68ede914d81d60455317",
        "composer\/composer\/ClassLoader.php": "6d630ae5c62bd43ae490e02b0e1eab6f9a4b92364b617e0dbb4404ff11bc33db238568dcc3df9d8de616f191109853bf9d9a408030f1252fa7e420e5321227af",
        "composer\/composer\/LICENSE": "f3bb64009f41a425df5a9bbab53490f0eb9b74fa8d6aaa2f57efb928edc4ffff330260666edeaa04a91fed708c3663371cf01b284f3a08d6698aaef7a23f355a",
        "composer\/composer\/autoload_classmap.php": "ec68e430eeaa6e0f1462b058f25f3b622e00c5d9a8ca3eeb555cd1e2985c6d1169f0167b5271d32ca2c98a8fb97c97b82ab833aff4a4cc96e77f2d10611426a5",
        "composer\/composer\/autoload_namespaces.php": "dd8ee31d2faa9014fe567e1f954b5e7f450cf06feacbb96d4df663c59b1a36a0b7d26ad41b46354bd14f282fa7899298137208d1851099cd3ada285650efd90f",
        "composer\/composer\/autoload_psr4.php": "4eedc0a600534d576a940febd27cc56ed5a07dba6fc061cb25e57450bda1513071d22ff7084ac82519a62e1c6d51412233861399720a56f2f74c07aa4d5073b0",
        "composer\/composer\/autoload_real.php": "0cbb1de889bb2ac6a3cfae1e832aef684e9100b8ca8a7adba28d4f7000317720c225c76e34ab06a63efa7a7166ec7ea313d330ac808dd05d2a7bb76fcaef4dfa",
        "composer\/composer\/autoload_static.php": "5144fcf3bc1577a42b85d879e414a2eec501598be037af45bb36cb27a9f0c24e952343aae7a1a059102aefad50e8a636d1458c96d8e3547cabdbdfd10d9ffbae",
        "css\/style.css": "9921123def91849cb7c23e91cc557122bf6849fc3c37f9c19847305c4a4c27f921612d564d02cbd62bed4012d38847210e3daff8d8c0a2bdad842297215f01c5",
        "js\/settings.js": "7117e4f8c63dc9f2e31c593751eb1ecf547419358fa35d62c9009c803bb92aac7e95048d1d3842e7531360a51b80a7181fb04786c7fb76ea328fc32de70ac57d",
        "js\/settings.js.map": "a13abf67f7b589280fcdcc7c050c210399f1d4a16baf55989ff13d3ccb855f66a788a1bbe84bdfc25aa15e09f1ed29b008366b82a5d7ea19c3c039783c8d7908",
        "l10n\/af.js": "460a13a0fda0d07423e233a3ff3e1708d1bbd763d01b927c9625da7cdd29ba34964e4ff846ea561bc68d709b6cb43c861769b6dc3ce52df06007167ef62b2e14",
        "l10n\/af.json": "0e3034e06414dec239c3296ae0afab6c40e8d67f9123c7f6be5c51b6a57f98dd419f2d53b85aafda0377f6c5afc558fb7e1a0cc54e86da96d57c06afb8bb2084",
        "l10n\/ast.js": "68dffa05680a6c7f27e21282661792900762db94a77e707a8475c6f7b98069ec2801a7ad3322406d6f40119e6a9f02a4a7cbd3253bea268110323835215fed80",
        "l10n\/ast.json": "406edd4204498aa2f292d22a2752f1b39d2289126433c2acea7c5f807cc011adb281ee15a67471ea527ad00b6f35d233b15924daf64c966b0ff3e3843816d8a4",
        "l10n\/bg.js": "418ff76aad64dafd991ca5f472945afb708547f78df454dc7b22c0233be1c7dd1a3ff2fb75392e95801f353228b950368205466ad62ffe87c9f17c51d1a8405a",
        "l10n\/bg.json": "5308e3b9fab1540a02382ec4e3e861e5e09998632721c0ae8840880e9fc37fa86364643b58200cd4d216b13e155131f479b5f49efbc82ac90d26c1a3e4e36776",
        "l10n\/ca.js": "44b99b8c8c4f1c7b9bb8da682d24ffb83516e6463c8e6aecb51ec3af92a086946f217d5788d13d8d3a447dfe3e15f1f4e99f829010f25eff6136665af9726e64",
        "l10n\/ca.json": "1526a5c13dd0003a6d5b4d03a5777f7b462e4264b9e1beef6a155fa74f16632af90bdec3b2eea1ba8aa0517153a30fb510aca70142bae9640ed4e417715d1969",
        "l10n\/cs.js": "33464d33c9b4ffcf6569c9446c9b764fcb29054469f959ce333f2f1f8e2f626f514e5f84b2632621d29110957d6b22af747d6df6404a0b98fcd7eac94209f5fc",
        "l10n\/cs.json": "11549c794309b3fa40bd8f0731a4ad347437670a8bd676b58dca69ce23fdd714c3dd93637f81209960c59acf90e2251a58a3b88142690f4baa28c86a69685950",
        "l10n\/cs_CZ.js": "58f57db26713ac2de441d38937fd0a1906617e5964c9e534a1972b190d8f42a444455ee3bc07078a0ea0a666de0cb4121e5999a812ee00371d6d6f29d4f87d9a",
        "l10n\/cs_CZ.json": "ed4ac7dd7613db28304e27ea73566ec494040e4de1c5ea1eb67dc3af8a620af35fe75127f2a99afd43bfd2e9100e85e69672510f1082316be139538e23f420c1",
        "l10n\/da.js": "93d40953c6751aa1f7eea4b4d189c1a130f2ee51cf9aa684d0d6e04c8c9cb6262acd26d69c017afb22871de7635b4e85dc614aa200d97f3a05599774c5af6205",
        "l10n\/da.json": "af02708db3cd656630c7055a124f6aff21b5757cb21cc68474bdb6c0958b930d6f86602ee86ef398e015bebfe68731afe03c083598541f4f6b035fae29962c01",
        "l10n\/de.js": "ba3a8339fa22bca8e924a8c82d3252cb1fd0b6376b9dc05d29856aa769f1ab77241418782dfb59182b6ea7c806f574fb45c0d11ad9f3475adfeb5229a8e8293b",
        "l10n\/de.json": "b53ea4ed8931ce2d8dbacbb255d10e77d5eeee4273ef412ed4c654e9936e958b4a3fffc628e82ffe31c3340e4b6e01fb4ac58b6f3d8504cb4b7957cdeec06034",
        "l10n\/de_DE.js": "62573fcd619f47690e91e0cb85abdbbff5af44565b8435b7effd2c19ca43248c3ebcb9c0d2e15d5ac6a56ca1869d163c39fa4c7432f939fbc7b492244bac8861",
        "l10n\/de_DE.json": "aee6aa9c2dd6897b327f587720b57f1691a0bda3e44afe36ddfbdf79b5d02e282fff8aed07614afe05e23c3387f852adc7236fed5d048d345708f3c561324921",
        "l10n\/el.js": "9ba78c6de3359a464f8b13f26a9905c1c1813850463d30fd6b9659241b8b22d25ae7333cb87fd35e6582b683bb6d7019c7d6aab88de754d076a489dac528e7cf",
        "l10n\/el.json": "ddc92fad21d5b052a65d3739669e06a0997fe9fa2836ffab7aafc764e2a254bafa7926a6e17dc2ea816153c4196a1efc24bc922e81d8298062908802f95e3dc6",
        "l10n\/en_GB.js": "42ad75d38e6ed25873227305f7dd4199f21a2690fa69ed7a9e4982af172430f493c5e7ca1cfc4d3645b9ad7c4c67b24d843962f6c26269adf2aef34617c71426",
        "l10n\/en_GB.json": "3f74ef3e8258a66409b65c95fdae1607efdee3393b01e36276a3778f381cbb6c2050fbd63fc6f14a9cbb20d907654de6d6726a16ee182e3d4d0421bb4aefe563",
        "l10n\/eo.js": "04e9e077482d26adecb97f1a2cd232ca40a53e00880411ce8f9409661f006e3af49b916b865ff886b0c7cdf8ecf483ee81fb070847a837447045803a6fb5262b",
        "l10n\/eo.json": "f3bbef3aa4bc368468a7e55161db31014d455573dfef57afe9dd4e530fc541a02f1a03228d0e44088b8943be9d8c7b69438a28fec9798cc0fa5bc8193207cf1f",
        "l10n\/es.js": "f6525f51e30297a84f990c8ee07b0cc191e65137587ecea85c4eb667fd58d944fd80ecf6dd1d02660a4692e3177f3175dd062b2b98d4081e27e94be8bed06260",
        "l10n\/es.json": "e4077b4c44d9e8c244fe36ece243ba17ff9a81c0bee164898d8412791a8b203994d6e38fed0b9505b226f785fba7b8a049a91e50b4c3f59c5aa1e24c6736c02f",
        "l10n\/es_419.js": "88a5f9608516c36766c094f872b00f5363e9dfb317680cf1dc4d6ce93e4e25237bc8191d052ee458cafdd9f633522b68ba2b07e3f8118b251d299b10b52cc276",
        "l10n\/es_419.json": "8edd259245bae886971f9c3a21c5345edb8c4a611b1b9adb8aac092dae76e7843f2e8f377912c3bfe79fbd45a8a9bf2135ebb72c9bcc49ffa5791a068c7ce774",
        "l10n\/es_AR.js": "7d340d0f98a476e4471eb792767ac873c1d53fe0f4b6158c2967f553f02be8bd8cfad6b95bd2560e59b84b15ee46462499f95d211e51e64e8f359bd160b9214f",
        "l10n\/es_AR.json": "6c64af09506bc624027ce6bef385e7c14df5dd5a734f065e0fe857effbd309266d35414925f8d3305db729a7856c0f76aa7089fac3aab55977a1872028c7bb15",
        "l10n\/es_CL.js": "72398bdd93811d0ee1fe14d0edc20226106f2a9577fd659a872b9d4ca74ffc484402e0ae558b63192322498e51694ada3b0791c8a1414056a656df3b0f48c92e",
        "l10n\/es_CL.json": "d7bcba0c77fdd3759b75c9f85326545cbbe90f10ad7b292107afc814169d0cd3f6525bb32c68f59e1d6acd5f3291dc144b5f9ab5b2c2c94b52288e33c24f6be9",
        "l10n\/es_CO.js": "72398bdd93811d0ee1fe14d0edc20226106f2a9577fd659a872b9d4ca74ffc484402e0ae558b63192322498e51694ada3b0791c8a1414056a656df3b0f48c92e",
        "l10n\/es_CO.json": "d7bcba0c77fdd3759b75c9f85326545cbbe90f10ad7b292107afc814169d0cd3f6525bb32c68f59e1d6acd5f3291dc144b5f9ab5b2c2c94b52288e33c24f6be9",
        "l10n\/es_CR.js": "72398bdd93811d0ee1fe14d0edc20226106f2a9577fd659a872b9d4ca74ffc484402e0ae558b63192322498e51694ada3b0791c8a1414056a656df3b0f48c92e",
        "l10n\/es_CR.json": "d7bcba0c77fdd3759b75c9f85326545cbbe90f10ad7b292107afc814169d0cd3f6525bb32c68f59e1d6acd5f3291dc144b5f9ab5b2c2c94b52288e33c24f6be9",
        "l10n\/es_DO.js": "72398bdd93811d0ee1fe14d0edc20226106f2a9577fd659a872b9d4ca74ffc484402e0ae558b63192322498e51694ada3b0791c8a1414056a656df3b0f48c92e",
        "l10n\/es_DO.json": "d7bcba0c77fdd3759b75c9f85326545cbbe90f10ad7b292107afc814169d0cd3f6525bb32c68f59e1d6acd5f3291dc144b5f9ab5b2c2c94b52288e33c24f6be9",
        "l10n\/es_EC.js": "72398bdd93811d0ee1fe14d0edc20226106f2a9577fd659a872b9d4ca74ffc484402e0ae558b63192322498e51694ada3b0791c8a1414056a656df3b0f48c92e",
        "l10n\/es_EC.json": "d7bcba0c77fdd3759b75c9f85326545cbbe90f10ad7b292107afc814169d0cd3f6525bb32c68f59e1d6acd5f3291dc144b5f9ab5b2c2c94b52288e33c24f6be9",
        "l10n\/es_GT.js": "72398bdd93811d0ee1fe14d0edc20226106f2a9577fd659a872b9d4ca74ffc484402e0ae558b63192322498e51694ada3b0791c8a1414056a656df3b0f48c92e",
        "l10n\/es_GT.json": "d7bcba0c77fdd3759b75c9f85326545cbbe90f10ad7b292107afc814169d0cd3f6525bb32c68f59e1d6acd5f3291dc144b5f9ab5b2c2c94b52288e33c24f6be9",
        "l10n\/es_HN.js": "88a5f9608516c36766c094f872b00f5363e9dfb317680cf1dc4d6ce93e4e25237bc8191d052ee458cafdd9f633522b68ba2b07e3f8118b251d299b10b52cc276",
        "l10n\/es_HN.json": "8edd259245bae886971f9c3a21c5345edb8c4a611b1b9adb8aac092dae76e7843f2e8f377912c3bfe79fbd45a8a9bf2135ebb72c9bcc49ffa5791a068c7ce774",
        "l10n\/es_MX.js": "deaacc428572f99f51f788de29a1f1bd48390f15fdb4bdcc294d65006e66023dd889db4132e8ac8adf16b8da4b8031b88251e6dac1f6ebf97a7dba1a0b014e4a",
        "l10n\/es_MX.json": "5c0d33a55c177d809d6f7fbbee9de5f09e11fc1beddf1b974b94d4e477cad98f4940c2ada90615300eb6cea65aa0362c15cf5d2ad27e3f35f986402962a68027",
        "l10n\/es_NI.js": "88a5f9608516c36766c094f872b00f5363e9dfb317680cf1dc4d6ce93e4e25237bc8191d052ee458cafdd9f633522b68ba2b07e3f8118b251d299b10b52cc276",
        "l10n\/es_NI.json": "8edd259245bae886971f9c3a21c5345edb8c4a611b1b9adb8aac092dae76e7843f2e8f377912c3bfe79fbd45a8a9bf2135ebb72c9bcc49ffa5791a068c7ce774",
        "l10n\/es_PA.js": "88a5f9608516c36766c094f872b00f5363e9dfb317680cf1dc4d6ce93e4e25237bc8191d052ee458cafdd9f633522b68ba2b07e3f8118b251d299b10b52cc276",
        "l10n\/es_PA.json": "8edd259245bae886971f9c3a21c5345edb8c4a611b1b9adb8aac092dae76e7843f2e8f377912c3bfe79fbd45a8a9bf2135ebb72c9bcc49ffa5791a068c7ce774",
        "l10n\/es_PE.js": "88a5f9608516c36766c094f872b00f5363e9dfb317680cf1dc4d6ce93e4e25237bc8191d052ee458cafdd9f633522b68ba2b07e3f8118b251d299b10b52cc276",
        "l10n\/es_PE.json": "8edd259245bae886971f9c3a21c5345edb8c4a611b1b9adb8aac092dae76e7843f2e8f377912c3bfe79fbd45a8a9bf2135ebb72c9bcc49ffa5791a068c7ce774",
        "l10n\/es_PR.js": "88a5f9608516c36766c094f872b00f5363e9dfb317680cf1dc4d6ce93e4e25237bc8191d052ee458cafdd9f633522b68ba2b07e3f8118b251d299b10b52cc276",
        "l10n\/es_PR.json": "8edd259245bae886971f9c3a21c5345edb8c4a611b1b9adb8aac092dae76e7843f2e8f377912c3bfe79fbd45a8a9bf2135ebb72c9bcc49ffa5791a068c7ce774",
        "l10n\/es_PY.js": "88a5f9608516c36766c094f872b00f5363e9dfb317680cf1dc4d6ce93e4e25237bc8191d052ee458cafdd9f633522b68ba2b07e3f8118b251d299b10b52cc276",
        "l10n\/es_PY.json": "8edd259245bae886971f9c3a21c5345edb8c4a611b1b9adb8aac092dae76e7843f2e8f377912c3bfe79fbd45a8a9bf2135ebb72c9bcc49ffa5791a068c7ce774",
        "l10n\/es_SV.js": "72398bdd93811d0ee1fe14d0edc20226106f2a9577fd659a872b9d4ca74ffc484402e0ae558b63192322498e51694ada3b0791c8a1414056a656df3b0f48c92e",
        "l10n\/es_SV.json": "d7bcba0c77fdd3759b75c9f85326545cbbe90f10ad7b292107afc814169d0cd3f6525bb32c68f59e1d6acd5f3291dc144b5f9ab5b2c2c94b52288e33c24f6be9",
        "l10n\/es_UY.js": "88a5f9608516c36766c094f872b00f5363e9dfb317680cf1dc4d6ce93e4e25237bc8191d052ee458cafdd9f633522b68ba2b07e3f8118b251d299b10b52cc276",
        "l10n\/es_UY.json": "8edd259245bae886971f9c3a21c5345edb8c4a611b1b9adb8aac092dae76e7843f2e8f377912c3bfe79fbd45a8a9bf2135ebb72c9bcc49ffa5791a068c7ce774",
        "l10n\/eu.js": "188cf2008fff9feb0cabbb7d06164d1f8f932de633984f2df0b5819f1fcc789d5efc324d6dbc2b86715a17d837e66c0b6de74658cd21a2bb848c6c15a3e3508e",
        "l10n\/eu.json": "594e2c764647a88a9b2edd041226b4ff21b9b2ddc8d49fc44c82f83caa053fff4f2d85a587bcd498fdad3fa115fc79eb3ab6d0f1d2a353318e3345d1fdba7493",
        "l10n\/fi.js": "533aaf18d86fda01d0e354119975afbc9b188eb35ac288636828cf494f18a21b815170bb7839c78495f923f8a18ba82ef8b8b4e41fd59ff7856435494ac5e98b",
        "l10n\/fi.json": "49d0f22a7839d49fe29523517e1aaae827ac4ec08bcfdd5eccddf63b8b5884070540b66f3e7e9ce1e5ad8127a43606845e07112a43f27c86d22b1f9cf9df4ba7",
        "l10n\/fr.js": "024fc3f58cb5b4318bc78ad79315e9925e908f844d30ec423362756897fe13da98f49a17bfe7aaba5c5900f7c40d5126b86fb0bf9a7f4e536acb99e9132ca3af",
        "l10n\/fr.json": "dad30a9c8bb66eb92dfc034dd9d7677acef9d57b02cbcd1e305a54096b6a7a92de8bb945a9f9d9e1d8e67ed0402234e322bb1606e0508f559efad34dab9810a1",
        "l10n\/gl.js": "06f12eaad9a98275342c8f85dc2256d513fe2e1176249f9f7c09f543037cd8fd1d1a46b735c527aa1d53a92dc4f0496fcd51a95ad4a28bb556f79de6378e0310",
        "l10n\/gl.json": "f45e136fee6c0ebb19edfecd5052351f4deb2b62bc5196519a41cfe5359d547d3f2291d1c4ae186647cbba549d0139d065eb85accdc17549597f970da6b648d9",
        "l10n\/hr.js": "55bcf8cd84109c626b97c015a3c15dff338c92deb41836964b3ce1fd913ae67e967ae6866392569ac7aa42bb60c756fb0d1642bcb629f6a02a389a8e218dcf27",
        "l10n\/hr.json": "1ef1aa22644bdcf6665b80d96286491018c8bc78c5fd925ea6ec63c601da20574398852e68e382cbeec4ae8be02b1e485a67dfadf385ce459ade66cee796e5fb",
        "l10n\/hu.js": "2dc041a1b0ce6f233d17708a8a07202710afc5960e7003be6d50db64441827bf3655cd8755542bf6ee063e498c3af95cbe903041a464fe578444c2fb22c51318",
        "l10n\/hu.json": "61c274182b1977ca8c45f345f1ca6c8ecbbd97f9d8c8f2b9b4ed6592773dece0bad4429dd63230cf98d493b79fd7509bc16d031dff123fbecc6ebe4c0598de0d",
        "l10n\/hu_HU.js": "1105a996f8ef46cc0305a97399c1f266ff377ac3cd8a02f7464a2b12a2b8d603dd5b9b4d5561964d26af8ffa8a286d632e3c845b52a5c4694d1f5f02cf078203",
        "l10n\/hu_HU.json": "09d4397d94b019d73bcb12b250004a236fccab546fcb867267a520afaacb70a9fd0711d4af777c3270f26e7f00410857145493bafe39286798cd53bf5ec8df99",
        "l10n\/is.js": "564bb34d25875ae389aae3a20ab59a594b89d5e6d6717e70a97772e0290439ad4c7c6df1e71a872a6f07c9bfe05d8d93776e6a83d6323fb53e9296fb30b30e75",
        "l10n\/is.json": "dd53e5249cf7bf6c8e8ebc3b8536f03995beef2d051ef380f0e0fd95fceacc50a9120902ec64ea9b3715f5abc5ad87ddb885188bf169a3006130c9f9b7441499",
        "l10n\/it.js": "da2b03e68aa24ffeb9879b99f78c4f64bd5f63ec5012922b7a1515d788fde66ec94479e3037b7d0cf49a4a5dbb0288140b0b026eb41d578086eaef273eac602f",
        "l10n\/it.json": "a5309919abe7b0c4d7702d911e0fd3fd5c98ed67a32d3843f5244fe463080c14f63c9cfbfd2acb0f9f1044b06c242838d075c75bc14eae2ab303267f86d2dc7c",
        "l10n\/ja.js": "9b4362d9ecf99a834910fc6e2f88c1b6075ffc41768b5124f3e15e152814707b5fe45e9831fa9796909228f698918cc727915f275172187fb24cc82cb80a3b57",
        "l10n\/ja.json": "5a686bb081d4f32b6a21cb236a2be127136cec36d7b962c964ef75b43f76bd26b15eb4ebc1688a9a3cfb1511478e382644a6f90e069ebd47ca0baf29bc1c0fc8",
        "l10n\/ka_GE.js": "ea999b3063362156d3ba676cbf161f643765629e54dfc1ed6010b95065f9d1119a16cfb83913e5d7520e60fca38ac6264f6b91459040075a8c1ec8adaf7b50cd",
        "l10n\/ka_GE.json": "20b066b4e1a5aa36fd6fb6103f8b80959860fae915f42d14905987ed046a1ecdb57b6529cba0b96fd85e2054721598af62ba0f972354d5c6d1080b5a25425ab2",
        "l10n\/ko.js": "7da6730eca282e5a0a69ef8abd70b36d7e3719da5f513b0eac79e4248342ca01306df5ed911182f36279849aed3fabc317aa992361072cde7872a2c220c7a058",
        "l10n\/ko.json": "7de5b20c2b5f0dc36f107242ab81c65c9c560f0f8e8d016d6a28d6b9dd80d776107ba24d74b4683e8537279d3515bec76ea62d951050385a12e717b612225104",
        "l10n\/lt_LT.js": "c13f695c4c0ffc60438528ff444fdb255b9b335e2ce73e5fe8505e8a94e61af383e8f6c42999388007adb8d29638bc85b5847bb33d8cc5dca0113658ca16fed0",
        "l10n\/lt_LT.json": "a670e135fa2f18ecf7a17d776d791496c05d789bf5430da397877aa4f51156737710594a033a2897e4ef2823b42f874d0af420b93d0993b86198ee404e095ba3",
        "l10n\/lv.js": "96ca3766620ceab7e7b14976e692bce33e2ea1f29ea32c3244343ff2823686a9698ed8c673d9beca41b2d1846897c949f5fc0b3708b9dca6f5bce588c4502663",
        "l10n\/lv.json": "02bbd20fd73cc680c23c06a18153f9ad5becde36008378fe42605d7ffed481c722914e69231d7f46bfc94005b7ccce9802b6b7dece55f3ff60f9d92f748789cb",
        "l10n\/mk.js": "3873a8c970b79a88a7e798458f655bd5130ac300f95222565ac663f0f69bd90eaa116dcd4b0cbdbe15ac1e8e0097848d63f699edeb901bf888bb05b9e9b428cd",
        "l10n\/mk.json": "a5e2ee2ba4c0785ad3f752a88bf3612dbc5e299f94913770a7dba1245b420fbffc1c324702e4f8d7d6fdb3b40d6a9d477ab317832ecbb486adeb71e70ea0b81b",
        "l10n\/mn.js": "12cc3f3ab60422211d277df2177ea8e608f3ad7469925551981eed9ef50b9a7973db1b2cf402ad6ece32622bcfd54e3f89a724f29850de57106a279d8b868df3",
        "l10n\/mn.json": "65a52d3bcc7f8099f9a153ae1418bec10c1625f7ee4513829604d12a56e18ca4308ec60c8684da4d1c32ac6ababba5d20c6422fdc61ee0b231fc4bbe23e309b7",
        "l10n\/nb.js": "2fc4fd726c3c5ab06250f67433fae0ca0e4cf17c3acc409f0bacc1bc349cb4e0e53ee07136d4c23d611651c59886b9c69d881d7277323c4e417e1308e0140447",
        "l10n\/nb.json": "efc0c456acce461f03b1149a576ef707791a0315d514bdb2636eaac420e772ff3395bf6b105054f1ffa22defee48d3bd79626ebe1acf72bb586e3115f086d1e2",
        "l10n\/nb_NO.js": "4a219bb78a2503d1a71e285cde7fb5f5c793c2c2f14ad6d81da32fbcfc197cb6e09ce19a25ee0b3f27817733babbd605af76f9a5aff46ec439a63387a7825bfd",
        "l10n\/nb_NO.json": "a91a8f135c218ffad04a49417d5cdbf0704584b698a3c898113ad479872e8d928a2c4dba3adc8dbd4e4a086dab839337dfac552dfee22353ad483800fc16a695",
        "l10n\/nl.js": "73940c95b9620914010028e1d3a65b19119d9138213be9ebf0087407cf70ae4886fbd847bd598f0784bb211dcd13b4c583f5a15edb065e7edabdc1bbbe8499e4",
        "l10n\/nl.json": "24f73002bd38a64b502c90f86b82940ce6988921cf08809ed7a16b47fde55e2171fc70752f3c5892deb39c28e9510d0d23bcc48d895f8615140cd804c8a2a513",
        "l10n\/pl.js": "2376a6c3b5fcdf1fcfc030dfd31066d4681fb97f8ca77f6294abdd6eadddfa29e58246dab5e0e4fba277369f7b851facbe5473bd74e2d1a6f43d743d3362ea4f",
        "l10n\/pl.json": "3c31b24e36cd2224123de706834884271b499ea231cd66c628f2d121ce88ca164296b1b3b69a7097f2cbe04d0a4a314cbbd9d614ee6629c73c2a9c33b3bec6c0",
        "l10n\/pt_BR.js": "e90db01041dc57279c2b4b3cc40b484fc508aca60d7863f5e1982e54857060b3253b641724cbe8f8427912f0893509c9de192a4d02c5fa92bfb5c1a940340f90",
        "l10n\/pt_BR.json": "f5b68b624092a6f7c816bf1990cddcf9580213d0692ceea4b0b9f83b0c0100199e0606d4aac0db1b3c17ba83ab4f065e2d9ea5c80b93cb65375d049116008b91",
        "l10n\/ru.js": "bcffc0564ce3872f22046799758907fd580fa829bbd7d07a33b7d9227dae6a90059a69fa50864825ba24f319af80b635d0e1caf7eca3e4ed336b638f32923d3f",
        "l10n\/ru.json": "d160d74344606def8698fe3e57a0d7223fc907ed656c9ba8bec7a85e13f4497b80b1421f3213527d0f498070cdeb46a0d11b1f32ce9a1d36783c0f7951568824",
        "l10n\/sk.js": "890c12dfce5d84994bf276c1a646f119a1d3c8cdfdc8980e261853265e6e996d0d52c7b002b6a0369846db6c7649011a633b495c007b09b951b89de0a1819889",
        "l10n\/sk.json": "80ededd84a99561667a949a38772df1a8e8b876ab55e32f251015afb7e42b2104bcc92817e83caa4278a3d39046aa51352527c2135a9ce4545f4914a2877b2d3",
        "l10n\/sl.js": "f98540e5f6629d8fb5362f27c8634612f84988ea1ecde7954ad28b4ea756a742d030db9fbaa51e7d1d49138f5179edea51ed4c2bbaac78911f286878cbe7f79b",
        "l10n\/sl.json": "65e9a36eef7d60bc953671b741d19570d46e47cfbb197e7a20b8fc07e65f131f46b2cda5ab1eadef423fc11f3747f8d1c67604f2b03daddf9ca403c8e25ad6c7",
        "l10n\/sq.js": "aa50e1190aab787ae8683a448d336f9aa897bd3409d16ed383002ffe1278881afbe96663c92109e89eb79e2a8078913470ae81fc2f7d3ba21ca2d3a1944b07ad",
        "l10n\/sq.json": "417f81edfe97d699a76d1cbee9df7db4cc07e60f2f7301293a7d26cbc831e7fee75f046d1fc7cb2db4a85dc380905e82f0f5b8f7250d42c58256a33d045d1c21",
        "l10n\/sr.js": "1ae3c377a4ecce1cece39e1da0a16872daae5ed8125696e644520ca3554f2dfb2f1f6842aff563a4d063fc1604f418a630e4991527614b366bdcae83a680c58d",
        "l10n\/sr.json": "89218bdb1aa22475ba9527236c06bf3be090a6ac4f8ff1fd869557f47cc8986c5205ab64e815d0f72f8e110ae149964c79067c99364ecc50e34f26ceac3fb932",
        "l10n\/sv.js": "8c80fdab45520fb180e8fcc00a0961d48ed058acbbcfaca5e0e21993d833e03a3a1b153cba7d7e79c5216f0e57d6fc69c81a8cd8fc82416dedbb273b2fc31e53",
        "l10n\/sv.json": "97fe8731ec8716b2aedf45e4d855ee4198e565e8a2f5aa8039fc4db5b4d7a67627ac9ef837a0615ab93f1a367e7488fec2eddabc5aa39e15799825242ac9acd0",
        "l10n\/tr.js": "2579196ce21e0c3765b42a1835e969e5bef1260ff6d379db329447c33d32a2370e868dd997a8bc7ae963db7ee50042ef3ce201e5c473c1fc000225fa84a3d421",
        "l10n\/tr.json": "f3c4852ed3403d61cc597be857afdd4c49e69a61b245a8385c20174834577c0fb375e84128a4fe3bb98505741960398a45cbf0f05e97b1afdf7b9ea03ecb55a7",
        "l10n\/uk.js": "2e1b0158e8b61f02e8534db248f49bad658bd87fadd4ada2611a5bd7310cd4b9cb50979520fd84024e137e8d7c8b88f3c38a04a56d75091287b392c0d0a06a5c",
        "l10n\/uk.json": "7c801667311fccd97889a77cb4da745f441819cd8d36224cc51d189f6ddc21a2b35b746de3f2d0101e9bec043a3e9404fbcca497110da2e207c47762bfaba7ab",
        "l10n\/zh_CN.js": "38e1454bf01153dd4a0de13fff9b90d789badb87a1b9c00bbd1f7ac61412f8d851fecba7a01e1a85f6d315d99aabc1b3866574a5a7ff50b3f4e39fc9096819c7",
        "l10n\/zh_CN.json": "6cdcb31228311b5fa0f7dc66a486cc1ae8caea3dc2f7fe61a9ad086cca859ca5f4314e3fe27067929098143935fc3e2fb1cada16f13ab213b6b7fd2024290b48",
        "l10n\/zh_TW.js": "26b207db0c47fe2f7c20ea7e1fc77e1d4945d1d20b6dc88dd7468f8c341c58fc1014e90e1a9d5d72c56f22350bc91904c0c4cf91c01a3c61a82682e3022baf8d",
        "l10n\/zh_TW.json": "a09347c1e7d1427fbf42dce28d89dddba84359c9248692ed89891957b6be2623cea402a917052bf528bf721772585b88fbf18df472786c53f2f63e6ed21f1028",
        "lib\/Activity\/Provider.php": "f6d9c840f6841178a1da104f9b8b6a34f19d41292e9563fdd558721c1b8d5462c0855c08817dbcdbe9948b9ae556697261bc96168ec8f21c3e1b6e1132a8e49f",
        "lib\/AppInfo\/Application.php": "ab35fd447461f8a09781e22be5f36576062f848e688cd709e1002edb7830e709289e27833adfb64660bff776bff85bfb477d1028decf40dafa03e3700947e238",
        "lib\/BackgroundJob\/CheckBackupCodes.php": "ee0a604c5959449de8b7b018e22b67b0588b38f7e25281d2baa19e56cb4d4388ad56f7217aeb83acaa07b138ef38d1680f96194e641cda5749a1e09d9553361d",
        "lib\/BackgroundJob\/RememberBackupCodesJob.php": "abe65e4e3e836620aba4609158b1af918714efec6e9062554ea99b61af8f7a64eb6a49021affc22ba8edb15fbc9bbe42ae23d3c05dfa7cebb24a7181db869e3f",
        "lib\/Controller\/SettingsController.php": "a04ce51b01e60dd18e7fa760532491d883a0b3dbb8ecb60379310804e516995d455373b0cfe2446aa7a45ae57d40236ae9a220e2f98eeef02d05eba770437518",
        "lib\/Db\/BackupCode.php": "4fb7ea02a3edf18eb43d35aff28943adb0678a258984046c0e8683ae32734b12f3cd318fbd50ba1e437d7d52bc9d60ee8c7f03ae114acb68a53d254cbb08cee8",
        "lib\/Db\/BackupCodeMapper.php": "d5145bc73d0b3a378dddea5c30378dce6947ac532c60d042614eb4865b4a8edac01a66b72520fb520a8dbfd73a69cf57d6c533afc1d966685525a2e8449a96f9",
        "lib\/Event\/CodesGenerated.php": "6b48ca5f67b387e686afed90637475e8282b91253482a107072ea593ee5094a3379832da897b959037edc4c1c232cae4e334c52f08d748a61a80bb1e951ea24e",
        "lib\/Listener\/ActivityPublisher.php": "55bcf0f936c7f8f19bd53a39aa2ce35bd78ca7d7f56fea367bb4b89d4274407dc990312ba3bd3e9b49b296c3042d78f6e9135d27e3d319db878c94e0855c001a",
        "lib\/Listener\/ClearNotifications.php": "340005079800e9f8dbbfd3003ee59e9b62d6046564f003828c8d86a6e3eee123c11f27510fd866ff913d1ad7d672d7e37a5561ec82929eea072afffa8e89fd33",
        "lib\/Listener\/ProviderDisabled.php": "3f091e5e38701653eadc15d4bbb5afcfaa5b5a9cb6174419f3bbcda3ba2633138b9658335fdf3e0906e73fd2c05a33398e3eda8456e99f36ccaf424b3f9e9d03",
        "lib\/Listener\/ProviderEnabled.php": "a16755e32f50fd382367a0d11be186400842eb92a83c2e599783788a3554ea1d8273b1515015ee76a4b459f59c0ffa8daf06f17c0a3517f6b83eb86f4f11a89f",
        "lib\/Listener\/RegistryUpdater.php": "8517750bdcbf898c4bb1a4a292f9ddca4bcfebbd4f45222f3b6869987f447e5e273041d018910bb39be49c66b91dbc266ed1414e6d13dab508abe0ba8b7e69d9",
        "lib\/Migration\/CheckBackupCodes.php": "6376e488fe1b27a4cb4d4692bc96608f8324d97f086d7c21b0e6a4ba30c2bd46e2e23ac9b72c50857186d3f18fc99b547f820cf89c299eb623891e6f7cac0951",
        "lib\/Migration\/Version1002Date20170607104347.php": "591c810bc382fd7bc4900dff132ef0ef743c60f4eb0115c672bd7ac06abebf0d5045e34dc014493e5cd97701e79c70b2e71b92c7c02ea6c46feffc82d97c53fb",
        "lib\/Migration\/Version1002Date20170607113030.php": "4a5960ba0548f8df3d563412a4eb773b3565740b406ff00dcf43e20b69ca04b028eda47e268761467d3a27c0d318bc5253b02ad9555d5bd265f3eba3be2237e3",
        "lib\/Migration\/Version1002Date20170919123342.php": "22b6d917b54ad1b1bbe71f1af6d2f0243b1aa860f9b5a2210e6527297f6f816b1493f8223d1c2a5429829bfacbea39ba57fc95713ac0cea1a2c4a9fc2e2fc5c9",
        "lib\/Migration\/Version1002Date20170926101419.php": "4c17180ffc7753c22f7c286df8fb3b162e77bc171da4cd0d2a7e8236b55bf03e17bd59a773886770329f164553903b81ad6f30547c2425d4fd41ebd26acc8be9",
        "lib\/Migration\/Version1002Date20180821043638.php": "e7f3c96f02f7a05a9bf81d36e989962b5d9233518f48f33e3d1a3390e5de2da6d82094d6aa3888d3621f0cb6c686f12891a49de614f14f95ab2772cde35fb689",
        "lib\/Notifications\/Notifier.php": "c0ca96bd7021c0d23b7da2956d52aa0774f12d99f1647b2e546f6ea03b1fe20619f08323ff7cafd1d3046fc614281a35570a9eaabd7cf2b0497bbb2efa490639",
        "lib\/Provider\/BackupCodesProvider.php": "458d8833cf9d9ffc28a1ff2183ed9ab30e0ff519d7baf516b776b025259611c5c50657e2964afbcc0ec53a57b29e21ef464a25fb48bbdd80d68b03ab1958cef9",
        "lib\/Service\/BackupCodeStorage.php": "0e1c2136cb7ab5677920b5c5e21ff16b877165d82dfef23cda2e9f9251a3faa0bb79d39a39250986693739cb98df0428173ec90b390b0b5ad413891a1b7efa90",
        "lib\/Settings\/Personal.php": "ca98220de51032fa3f6e084d50a33c053414d858adee7f8b5701af00ccfc41918d5fda8153601d10d52264405f16372571602360daa01cda283ef517523ef13f",
        "templates\/challenge.php": "25acbf178bf62e582a444d16442895e8aae68b3e16f67f4e4e53eab143a4784ffdbfa05c60541c345fcfbefd221ce53dabc6678a19ac66b7f3ecb9979d528807",
        "templates\/personal.php": "6792882cbb7118ce65625dbdf6fb96fbf012f0d5459c21632606e9b9adcc71e0448a651d735300c66ab8177d0a53220a80f1c482f017b1f866f5e47c1fbca0a4"
    },
    "signature": "kT3W9XJlHGwj7Cr3wJvTzG70T+CRC\/KFwqtNkecbsRncRVOR9Uqa7l+At7gvxgkR7aaooQ1Ql\/t+HwbCcqO7tMIgekORaNXsw8IQ6gtVPuIslJzdHrGGLeSKntKP5fkAotqJq1p0PWhUtGEhfgSXw7ipXHbTzfOSBKUeE8brxFYw3chjofq9n7OBZ1C50ItS4RhBpbtqLIdlEiHROsEdCCo\/9BzdIIrdFM1C0NC7id2kYdJ2i8hWM+23m\/xVbTcfSWlnve2nD4gFH5JtOmTEc5JOFeuMrJzELfFmkB1mvSkMFtPA42Q9bS3DHYkCgbDcEbbB1vM81i5VQ7\/gPHFbDg==",
    "certificate": "-----BEGIN CERTIFICATE-----\r\nMIIEojCCA4qgAwIBAgICEAAwDQYJKoZIhvcNAQELBQAwezELMAkGA1UEBhMCREUx\r\nGzAZBgNVBAgMEkJhZGVuLVd1ZXJ0dGVtYmVyZzEXMBUGA1UECgwOTmV4dGNsb3Vk\r\nIEdtYkgxNjA0BgNVBAMMLU5leHRjbG91ZCBDb2RlIFNpZ25pbmcgSW50ZXJtZWRp\r\nYXRlIEF1dGhvcml0eTAeFw0xNjA2MTIyMTA1MDZaFw00MTA2MDYyMTA1MDZaMGYx\r\nCzAJBgNVBAYTAkRFMRswGQYDVQQIDBJCYWRlbi1XdWVydHRlbWJlcmcxEjAQBgNV\r\nBAcMCVN0dXR0Z2FydDEXMBUGA1UECgwOTmV4dGNsb3VkIEdtYkgxDTALBgNVBAMM\r\nBGNvcmUwggEiMA0GCSqGSIb3DQEBAQUAA4IBDwAwggEKAoIBAQDUxcrn2DC892IX\r\n8+dJjZVh9YeHF65n2ha886oeAizOuHBdWBfzqt+GoUYTOjqZF93HZMcwy0P+xyCf\r\nQqak5Ke9dybN06RXUuGP45k9UYBp03qzlUzCDalrkj+Jd30LqcSC1sjRTsfuhc+u\r\nvH1IBuBnf7SMUJUcoEffbmmpAPlEcLHxlUGlGnz0q1e8UFzjbEFj3JucMO4ys35F\r\nqZS4dhvCngQhRW3DaMlQLXEUL9k3kFV+BzlkPzVZEtSmk4HJujFCnZj1vMcjQBg\/\r\nBqq1HCmUB6tulnGcxUzt\/Z\/oSIgnuGyENeke077W3EyryINL7EIyD4Xp7sxLizTM\r\nFCFCjjH1AgMBAAGjggFDMIIBPzAJBgNVHRMEAjAAMBEGCWCGSAGG+EIBAQQEAwIG\r\nQDAzBglghkgBhvhCAQ0EJhYkT3BlblNTTCBHZW5lcmF0ZWQgU2VydmVyIENlcnRp\r\nZmljYXRlMB0GA1UdDgQWBBQwc1H9AL8pRlW2e5SLCfPPqtqc0DCBpQYDVR0jBIGd\r\nMIGagBRt6m6qqTcsPIktFz79Ru7DnnjtdKF+pHwwejELMAkGA1UEBhMCREUxGzAZ\r\nBgNVBAgMEkJhZGVuLVd1ZXJ0dGVtYmVyZzESMBAGA1UEBwwJU3R1dHRnYXJ0MRcw\r\nFQYDVQQKDA5OZXh0Y2xvdWQgR21iSDEhMB8GA1UEAwwYTmV4dGNsb3VkIFJvb3Qg\r\nQXV0aG9yaXR5ggIQADAOBgNVHQ8BAf8EBAMCBaAwEwYDVR0lBAwwCgYIKwYBBQUH\r\nAwEwDQYJKoZIhvcNAQELBQADggEBADZ6+HV\/+0NEH3nahTBFxO6nKyR\/VWigACH0\r\nnaV0ecTcoQwDjKDNNFr+4S1WlHdwITlnNabC7v9rZ\/6QvbkrOTuO9fOR6azp1EwW\r\n2pixWqj0Sb9\/dSIVRpSq+jpBE6JAiX44dSR7zoBxRB8DgVO2Afy0s80xEpr5JAzb\r\nNYuPS7M5UHdAv2dr16fDcDIvn+vk92KpNh1NTeZFjBbRVQ9DXrgkRGW34TK8uSLI\r\nYG6jnfJ6eJgTaO431ywWPXNg1mUMaT\/+QBOgB299QVCKQU+lcZWptQt+RdsJUm46\r\nNY\/nARy4Oi4uOe88SuWITj9KhrFmEvrUlgM8FvoXA1ldrR7KiEg=\r\n-----END CERTIFICATE-----"
}